[
    {
        "type": "message",
        "user": "U129BTR18",
        "text": "Hi Emilie you shared that someone would lend 100k can you give us more details?",
        "ts": "1465641610.000022",
        "reactions": [
            {
                "name": "+1",
                "users": [
                    "U1F7ZB45N"
                ],
                "count": 1
            }
        ]
    },
    {
        "type": "message",
        "user": "U1F7ZB45N",
        "text": "It is only an idea for the moment, first he wants to join as any member with 10k",
        "ts": "1465666143.000023"
    },
    {
        "type": "message",
        "user": "U129BTR18",
        "text": "ok great, if we all share whatever is left, there is others and me willing to do so, there is no risk!",
        "ts": "1465675728.000024",
        "reactions": [
            {
                "name": "+1",
                "users": [
                    "U1F7ZB45N"
                ],
                "count": 1
            }
        ]
    }
]