[
    {
        "type": "message",
        "user": "U129BTR18",
        "text": "Hi everyone, can someone please call the last 4 people that registered",
        "ts": "1464627551.000008"
    },
    {
        "type": "message",
        "user": "U129BTR18",
        "text": "maybe we can get them to sign",
        "ts": "1464627558.000009"
    },
    {
        "type": "message",
        "user": "U161R3DFE",
        "text": "Tiago where are the details of the 4 people that registered? I can try and contact them if I have their details.",
        "ts": "1464632206.000010"
    },
    {
        "type": "message",
        "user": "U12BB9E03",
        "text": "In the form at <https://docs.google.com/spreadsheets/d/1CwK-H4n1fbwLMVwFNe9IsunwyJ6arI-X87haLOOUY_M/edit?usp=docslist_api>",
        "ts": "1464635661.000011"
    }
]