[
    {
        "type": "message",
        "user": "U129BTR18",
        "text": "New people are registering daily",
        "ts": "1464950895.000013"
    },
    {
        "type": "message",
        "user": "U1BEP8Z4Y",
        "text": "good news:)",
        "ts": "1464951059.000014"
    },
    {
        "type": "message",
        "user": "U129BTR18",
        "text": "Is an important step as people are abusing us needing them.",
        "ts": "1464951608.000015"
    },
    {
        "user": "U1DU8MCSW",
        "type": "message",
        "subtype": "channel_join",
        "text": "<@U1DU8MCSW|theo.info> has joined the channel",
        "ts": "1464951835.000016"
    },
    {
        "user": "U1E3HLTN3",
        "type": "message",
        "subtype": "channel_join",
        "text": "<@U1E3HLTN3|vilma> has joined the channel",
        "ts": "1464987272.000017"
    }
]