[
    {
        "user": "U129BTR18",
        "type": "message",
        "subtype": "channel_join",
        "text": "<@U129BTR18|tiagopita> has joined the channel",
        "ts": "1464109852.000002"
    },
    {
        "user": "U13EXK1C5",
        "inviter": "U129BTR18",
        "type": "message",
        "subtype": "channel_join",
        "text": "<@U13EXK1C5|anamoreira> has joined the channel",
        "ts": "1464109852.000003"
    },
    {
        "user": "U128RR0EQ",
        "inviter": "U129BTR18",
        "type": "message",
        "subtype": "channel_join",
        "text": "<@U128RR0EQ|canercandan> has joined the channel",
        "ts": "1464109852.000004"
    },
    {
        "user": "U13NVKKS8",
        "inviter": "U129BTR18",
        "type": "message",
        "subtype": "channel_join",
        "text": "<@U13NVKKS8|bartje> has joined the channel",
        "ts": "1464109852.000005"
    },
    {
        "user": "U186N8S49",
        "inviter": "U129BTR18",
        "type": "message",
        "subtype": "channel_join",
        "text": "<@U186N8S49|carinaalves> has joined the channel",
        "ts": "1464109852.000006"
    },
    {
        "user": "U12LBU64B",
        "inviter": "U129BTR18",
        "type": "message",
        "subtype": "channel_join",
        "text": "<@U12LBU64B|charlmon> has joined the channel",
        "ts": "1464109853.000007"
    },
    {
        "user": "U135C9RED",
        "inviter": "U129BTR18",
        "type": "message",
        "subtype": "channel_join",
        "text": "<@U135C9RED|mecs3> has joined the channel",
        "ts": "1464109853.000008"
    },
    {
        "user": "U12DP676J",
        "inviter": "U129BTR18",
        "type": "message",
        "subtype": "channel_join",
        "text": "<@U12DP676J|daniel-roux> has joined the channel",
        "ts": "1464109853.000009"
    },
    {
        "user": "U1B9AVDEC",
        "inviter": "U129BTR18",
        "type": "message",
        "subtype": "channel_join",
        "text": "<@U1B9AVDEC|dianavegan> has joined the channel",
        "ts": "1464109853.000010"
    },
    {
        "user": "U12ADP23E",
        "inviter": "U129BTR18",
        "type": "message",
        "subtype": "channel_join",
        "text": "<@U12ADP23E|sector> has joined the channel",
        "ts": "1464109854.000011"
    },
    {
        "user": "U12BB9E03",
        "inviter": "U129BTR18",
        "type": "message",
        "subtype": "channel_join",
        "text": "<@U12BB9E03|erwan.lr> has joined the channel",
        "ts": "1464109854.000012"
    },
    {
        "user": "U12SWDXT3",
        "inviter": "U129BTR18",
        "type": "message",
        "subtype": "channel_join",
        "text": "<@U12SWDXT3|leaoleal> has joined the channel",
        "ts": "1464109854.000013"
    },
    {
        "user": "U127R2T19",
        "inviter": "U129BTR18",
        "type": "message",
        "subtype": "channel_join",
        "text": "<@U127R2T19|geraldinestarke> has joined the channel",
        "ts": "1464109854.000014"
    },
    {
        "user": "U1729LJJY",
        "inviter": "U129BTR18",
        "type": "message",
        "subtype": "channel_join",
        "text": "<@U1729LJJY|glenmonks1> has joined the channel",
        "ts": "1464109854.000015"
    },
    {
        "user": "U12AAQ8K1",
        "inviter": "U129BTR18",
        "type": "message",
        "subtype": "channel_join",
        "text": "<@U12AAQ8K1|irmine-pema> has joined the channel",
        "ts": "1464109854.000016"
    },
    {
        "user": "U15L9NJMA",
        "inviter": "U129BTR18",
        "type": "message",
        "subtype": "channel_join",
        "text": "<@U15L9NJMA|henrique> has joined the channel",
        "ts": "1464109854.000017"
    },
    {
        "user": "U12C86XK3",
        "inviter": "U129BTR18",
        "type": "message",
        "subtype": "channel_join",
        "text": "<@U12C86XK3|ivoraf> has joined the channel",
        "ts": "1464109854.000018"
    },
    {
        "user": "U19CCLDRR",
        "inviter": "U129BTR18",
        "type": "message",
        "subtype": "channel_join",
        "text": "<@U19CCLDRR|jamie_h> has joined the channel",
        "ts": "1464109854.000019"
    },
    {
        "user": "U14FF9U66",
        "inviter": "U129BTR18",
        "type": "message",
        "subtype": "channel_join",
        "text": "<@U14FF9U66|jeroenboss> has joined the channel",
        "ts": "1464109854.000020"
    },
    {
        "user": "U161R3DFE",
        "inviter": "U129BTR18",
        "type": "message",
        "subtype": "channel_join",
        "text": "<@U161R3DFE|jmac> has joined the channel",
        "ts": "1464109854.000021"
    },
    {
        "user": "U12A1M1Q8",
        "inviter": "U129BTR18",
        "type": "message",
        "subtype": "channel_join",
        "text": "<@U12A1M1Q8|kati> has joined the channel",
        "ts": "1464109855.000022"
    },
    {
        "user": "U17TZS6AX",
        "inviter": "U129BTR18",
        "type": "message",
        "subtype": "channel_join",
        "text": "<@U17TZS6AX|kohann> has joined the channel",
        "ts": "1464109855.000023"
    },
    {
        "user": "U1BB67R4Y",
        "inviter": "U129BTR18",
        "type": "message",
        "subtype": "channel_join",
        "text": "<@U1BB67R4Y|gautivegan> has joined the channel",
        "ts": "1464109855.000024"
    },
    {
        "user": "U129RSXGW",
        "inviter": "U129BTR18",
        "type": "message",
        "subtype": "channel_join",
        "text": "<@U129RSXGW|maggie67> has joined the channel",
        "ts": "1464109855.000025"
    },
    {
        "user": "U12NDBBUK",
        "inviter": "U129BTR18",
        "type": "message",
        "subtype": "channel_join",
        "text": "<@U12NDBBUK|naomi> has joined the channel",
        "ts": "1464109855.000026"
    },
    {
        "user": "U12A98M7U",
        "inviter": "U129BTR18",
        "type": "message",
        "subtype": "channel_join",
        "text": "<@U12A98M7U|melissa> has joined the channel",
        "ts": "1464109855.000027"
    },
    {
        "user": "U12LX3NTD",
        "inviter": "U129BTR18",
        "type": "message",
        "subtype": "channel_join",
        "text": "<@U12LX3NTD|nnsoares> has joined the channel",
        "ts": "1464109856.000028"
    },
    {
        "user": "U12A8854L",
        "inviter": "U129BTR18",
        "type": "message",
        "subtype": "channel_join",
        "text": "<@U12A8854L|seanlall> has joined the channel",
        "ts": "1464109856.000029"
    },
    {
        "user": "U12A47D9R",
        "inviter": "U129BTR18",
        "type": "message",
        "subtype": "channel_join",
        "text": "<@U12A47D9R|joker> has joined the channel",
        "ts": "1464109856.000030"
    },
    {
        "user": "U13JUCX1S",
        "inviter": "U129BTR18",
        "type": "message",
        "subtype": "channel_join",
        "text": "<@U13JUCX1S|sharonmelaffefon> has joined the channel",
        "ts": "1464109856.000031"
    },
    {
        "user": "U12TVPB35",
        "inviter": "U129BTR18",
        "type": "message",
        "subtype": "channel_join",
        "text": "<@U12TVPB35|simonav> has joined the channel",
        "ts": "1464109856.000032"
    },
    {
        "user": "U1B9HS8CV",
        "inviter": "U129BTR18",
        "type": "message",
        "subtype": "channel_join",
        "text": "<@U1B9HS8CV|thomas> has joined the channel",
        "ts": "1464109856.000033"
    },
    {
        "user": "U12AGRQ75",
        "inviter": "U129BTR18",
        "type": "message",
        "subtype": "channel_join",
        "text": "<@U12AGRQ75|avegan> has joined the channel",
        "ts": "1464109856.000034"
    },
    {
        "type": "message",
        "user": "U129BTR18",
        "text": "<!group> on the phone <@U12A1M1Q8> just told me and right that nothing can be forced and anything forced is deemed to fail",
        "ts": "1464109888.000035"
    },
    {
        "type": "message",
        "user": "U129BTR18",
        "text": "Currently everyone is waiting on everyone with some very mature people taking the lead on paying. Is funny to see that the people that first payed are literally the most mature and that should be a teaching for all the others",
        "ts": "1464109942.000036"
    },
    {
        "type": "message",
        "user": "U129BTR18",
        "text": "I am opening this channel to suggest something that is important to consider",
        "ts": "1464109993.000037"
    },
    {
        "type": "message",
        "user": "U129BTR18",
        "text": "Some people could buy the land and then get the money back as more people join",
        "ts": "1464110021.000038"
    },
    {
        "type": "message",
        "user": "U129BTR18",
        "text": "In return the community could build for example their houses",
        "ts": "1464110036.000039"
    },
    {
        "type": "message",
        "user": "U129BTR18",
        "text": "I know someone people would not do it (build others houses). I would and would appreciate if we could find this patrons",
        "ts": "1464110069.000040"
    },
    {
        "type": "message",
        "user": "U129BTR18",
        "text": "There is great people as well that are very committed in helping have the skills and helped most the many",
        "ts": "1464110095.000041"
    },
    {
        "type": "message",
        "user": "U129BTR18",
        "text": "but don\u2019t have the total amount",
        "ts": "1464110123.000042"
    },
    {
        "type": "message",
        "user": "U129BTR18",
        "text": "The project has more potential than any other vegan community, but because everyone is waiting on the next, there is a risk of not happening",
        "ts": "1464110201.000043"
    },
    {
        "type": "message",
        "user": "U129BTR18",
        "text": "I don\u2019t think we should wait for September, I think we should pay in the next 2 months the total amount",
        "ts": "1464110239.000044"
    },
    {
        "type": "message",
        "user": "U129BTR18",
        "text": "We should then \u201cselect\u201d who can join based on their commitment because there is so many people interested",
        "ts": "1464110273.000045"
    },
    {
        "type": "message",
        "user": "U129BTR18",
        "text": "many more than 43 people necessary",
        "ts": "1464110281.000046"
    },
    {
        "type": "message",
        "user": "U129BTR18",
        "text": "I think as well some great people that don\u2019t have the money could pay the value in smaller amounts",
        "ts": "1464110309.000047"
    },
    {
        "type": "message",
        "user": "U129BTR18",
        "text": "The contract that the lawyer is doing says that the money given is attached to the land and is a loan",
        "ts": "1464110487.000048"
    },
    {
        "type": "message",
        "user": "U129BTR18",
        "text": "meaning that in case the land is sold the money returns to the person that payed",
        "ts": "1464110503.000049"
    },
    {
        "type": "message",
        "user": "U129BTR18",
        "text": "so this is 100% safe and in that case nothing would be payed without having a contract",
        "ts": "1464110548.000050"
    },
    {
        "type": "message",
        "user": "U129BTR18",
        "text": "We can as well give the contact of that lawyer to the patrons",
        "ts": "1464110561.000051"
    },
    {
        "type": "message",
        "user": "U129BTR18",
        "text": "Like I said in the beginning of the message, rushing people in, makes them just delay more and will be a cycle.",
        "ts": "1464110597.000052"
    },
    {
        "type": "message",
        "user": "U129BTR18",
        "text": "To everyone else that is in slack and is reading this, not giving an answer on when you are paying or delaying you decision forever is creating this vicious cycle we are all in.",
        "ts": "1464110655.000053"
    },
    {
        "type": "message",
        "user": "U12ADP23E",
        "text": "Are you suggesting someone pays the rest of the money for the land, so we guarantee that the land is ours?",
        "edited": {
            "user": "U12ADP23E",
            "ts": "1464110944.000000"
        },
        "ts": "1464110922.000054"
    },
    {
        "type": "message",
        "user": "U12A1M1Q8",
        "text": "What we were taking about is the following ",
        "ts": "1464110959.000058"
    },
    {
        "type": "message",
        "user": "U129BTR18",
        "text": "the land will belong to the association",
        "ts": "1464111029.000059"
    },
    {
        "type": "message",
        "user": "U129BTR18",
        "text": "People will have a legal loan",
        "ts": "1464111036.000060"
    },
    {
        "type": "message",
        "user": "U12A1M1Q8",
        "text": "Some people have already invested quite a bit of money, time and energy. Thus will all be lost if the full amount cannot be paid on time. At the same time it's very energy draining to find and convince people while there is still not much on the land.",
        "ts": "1464111046.000061",
        "reactions": [
            {
                "name": "+1",
                "users": [
                    "U129BTR18"
                ],
                "count": 1
            }
        ]
    },
    {
        "type": "message",
        "user": "U12A1M1Q8",
        "text": "So our idea and suggestions was the following. ",
        "ts": "1464111064.000062"
    },
    {
        "type": "message",
        "user": "U12A1M1Q8",
        "text": "Some people that have some more money available and strongly believe in the project can decide that they want to pay more now and buy the land now. Risk of loosing the money invested already would be solved. ",
        "ts": "1464111128.000063",
        "reactions": [
            {
                "name": "+1",
                "users": [
                    "U12ADP23E"
                ],
                "count": 1
            }
        ]
    },
    {
        "type": "message",
        "user": "U12A1M1Q8",
        "text": "However, there should be an incentive for those who paid more (they will get their money back gradually as more people join and pay as well). Tiago was suggesting that he and whoever feels capable will help the early birds to built the houses. But if anyone has better suggestions they would be most welcome.",
        "ts": "1464111228.000064"
    },
    {
        "type": "message",
        "user": "U12ADP23E",
        "text": "Yes, I totally understand that, and we would have more time to get the rest of the stuff done, and people joining later would pay the people that payed before.",
        "ts": "1464111244.000065"
    },
    {
        "type": "message",
        "user": "U12A1M1Q8",
        "text": "This way we can start putting our efforts in actually building the community offline. And people will more easily be ready to join and pay.",
        "ts": "1464111306.000066"
    },
    {
        "type": "message",
        "user": "U1B9HS8CV",
        "text": "How many people of all the people who are interested are willing and able to pay the 10.000 right now? And how many people are able and willing to pay at all (more or less than 10 k) ? One could make a survey to see how many people are seriously interested, and if it's enough, collect the money and go for it. :slightly_smiling_face:  \n\nDiana and me are willing and able to pay, we just want to look at the land first and meet (some of) you in two weeks from now. Our tickets are already booked.",
        "ts": "1464111562.000067",
        "reactions": [
            {
                "name": "+1",
                "users": [
                    "U1B9AVDEC"
                ],
                "count": 1
            }
        ]
    },
    {
        "type": "message",
        "user": "U12A1M1Q8",
        "text": " I can make a list and everyone could state when and which amount could be paid.",
        "ts": "1464111706.000068"
    },
    {
        "type": "message",
        "user": "U12A1M1Q8",
        "text": "Of course those who don't have more then 10k but would be willing to pay now would also be considered early birds. Maybe we could have two different incentives.  These are all just ideas. Let me know everyone what you are thinking and if it's just with putting a smiley.",
        "ts": "1464111807.000069"
    },
    {
        "type": "message",
        "user": "U12ADP23E",
        "text": "I already invested my 10k, and belive me, I would invest more to cover buying the land if I had the money. But unfortunately I don't. But it would be great if someone capable of doing it, would do it.",
        "ts": "1464112601.000070",
        "reactions": [
            {
                "name": "+1",
                "users": [
                    "U1F7ZB45N"
                ],
                "count": 1
            }
        ]
    },
    {
        "type": "message",
        "user": "U12A1M1Q8",
        "text": "Thank you so much @fabio for believing in the project and doing everything you can.",
        "ts": "1464112659.000071"
    },
    {
        "type": "message",
        "user": "U12A1M1Q8",
        "text": "It's very very much appreciated",
        "ts": "1464112667.000072"
    },
    {
        "type": "message",
        "user": "U12ADP23E",
        "text": "I totally understand that it's very hard to convince people, while there's not much on the land.",
        "ts": "1464112709.000073"
    },
    {
        "type": "message",
        "user": "U12ADP23E",
        "text": "People are not willing to get out of their comfort zone easily.",
        "ts": "1464112848.000074",
        "reactions": [
            {
                "name": "+1",
                "users": [
                    "U129BTR18",
                    "U1F7ZB45N"
                ],
                "count": 2
            }
        ]
    },
    {
        "type": "message",
        "user": "U12A1M1Q8",
        "text": "Here is another doc with a list for everyone to put how much and when they are able to pay",
        "ts": "1464115497.000075"
    },
    {
        "type": "message",
        "user": "U12A1M1Q8",
        "text": "<https://docs.google.com/spreadsheets/d/10QHesG4mQT5C1J3y7GONVGptxwenIB7Hhzt6VAddSjg/edit?usp=docslist_api>",
        "ts": "1464115516.000076",
        "reactions": [
            {
                "name": "+1",
                "users": [
                    "U1B9AVDEC"
                ],
                "count": 1
            }
        ]
    }
]