[
    {
        "user": "U1F7ZB45N",
        "type": "message",
        "subtype": "channel_join",
        "text": "<@U1F7ZB45N|emiliedeconde> has joined the channel",
        "ts": "1465415078.000002"
    }
]