[
    {
        "user": "U14FF9U66",
        "type": "message",
        "subtype": "channel_join",
        "text": "<@U14FF9U66|jeroenboss> has joined the channel",
        "ts": "1461836066.000280"
    },
    {
        "type": "message",
        "user": "U129BTR18",
        "text": "<!group> Important message, seems like we may not be able to get the land until we create the cooperative as we would have to pay taxs 2 times",
        "ts": "1461851524.000281"
    },
    {
        "type": "message",
        "user": "U129BTR18",
        "text": "For that reason we will have to create the cooperative very fast",
        "ts": "1461851536.000282"
    },
    {
        "type": "message",
        "user": "U129BTR18",
        "text": "Please put you name and phone number in this list",
        "ts": "1461851649.000283"
    },
    {
        "type": "message",
        "subtype": "file_share",
        "text": "<@U129BTR18|tiagopita> shared a file: <https://veganhills.slack.com/files/tiagopita/F14FHRZBM/veganhillscooperative-sheet1|Vegan Hills cooperative>",
        "file": {
            "id": "F14FHRZBM",
            "created": 1461851653,
            "timestamp": 1461851653,
            "name": "VeganHillscooperative-Sheet1",
            "title": "Vegan Hills cooperative",
            "mimetype": "application/vnd.google-apps.spreadsheet",
            "filetype": "gsheet",
            "pretty_type": "GDocs Spreadsheet",
            "user": "U129BTR18",
            "editable": false,
            "size": 22,
            "mode": "external",
            "is_external": true,
            "external_type": "gdrive",
            "is_public": true,
            "public_url_shared": false,
            "display_as_bot": false,
            "username": "",
            "url_private": "https://docs.google.com/spreadsheets/d/1U1eicb4h0MAzuhvIB5g2fXGhkly5nGprS6lWYkYv-XY/edit?usp=drivesdk#gid=0",
            "thumb_64": "https://a.slack-edge.com/66f9/img/files/gsheet_64.png",
            "thumb_360": "https://a.slack-edge.com/66f9/img/files/gsheet_360.png",
            "thumb_360_w": 360,
            "thumb_360_h": 167,
            "permalink": "https://veganhills.slack.com/files/tiagopita/F14FHRZBM/veganhillscooperative-sheet1",
            "channels": [
                "C128QUULC"
            ],
            "groups": [
    
            ],
            "ims": [
    
            ],
            "comments_count": 0
        },
        "user": "U129BTR18",
        "upload": false,
        "display_as_bot": false,
        "username": "<@U129BTR18|tiagopita>",
        "bot_id": null,
        "ts": "1461851653.000285"
    },
    {
        "type": "message",
        "user": "U129BTR18",
        "text": "You will be a shareholder of the cooperative before you pay",
        "ts": "1461851670.000287"
    },
    {
        "type": "message",
        "user": "U129BTR18",
        "text": "Will add more information soon",
        "ts": "1461851682.000288"
    },
    {
        "type": "message",
        "user": "U12AGRQ75",
        "text": "Tiago nao da para editar  o doc",
        "ts": "1461852610.000289"
    },
    {
        "type": "message",
        "user": "U129BTR18",
        "text": "one min",
        "ts": "1461852619.000290"
    },
    {
        "type": "message",
        "user": "U129BTR18",
        "text": "done :simple_smile: sorr",
        "ts": "1461852634.000291"
    },
    {
        "type": "message",
        "user": "U129BTR18",
        "text": "sorry",
        "ts": "1461852637.000292"
    },
    {
        "type": "message",
        "user": "U12AGRQ75",
        "text": "agora nem aceder ao doc da",
        "ts": "1461852673.000293"
    },
    {
        "type": "message",
        "user": "U12AGRQ75",
        "text": "sorry wrong language",
        "ts": "1461852690.000294"
    },
    {
        "type": "message",
        "user": "U129BTR18",
        "text": "We will need to create the cooperative in the next week. So everyone that adds the name will be in the cooperative, this will be updated only in September",
        "ts": "1461852729.000295"
    },
    {
        "type": "message",
        "user": "U129BTR18",
        "text": "so everyone that fails to give info now will not be in the cooperative until September",
        "edited": {
            "user": "U129BTR18",
            "ts": "1461852771.000000"
        },
        "ts": "1461852744.000296"
    },
    {
        "type": "message",
        "user": "U12ADP23E",
        "text": "Tiago on the email you sent us you said, that you needed people on sight as soon as possible. Let's say I was ready to move in 1 or 2 months, where would I live, eat, etc? How do other people plan to move to the land? How will we start this first months?",
        "ts": "1461856486.000298"
    },
    {
        "type": "message",
        "user": "U14FF9U66",
        "text": "In the first weeks/months it will come down to living and making use of tents and caravans and the facilities that come with the caravans I believe.. I have a camper with kitchen etc. That can be used for all that is needed. I dont know if others have similar resources, but that makes a lot possible. Especially if there is a clear plan on the areas to be used and the way to establish and outside kitchen, toilets, etc., this should be no problem for the transition phase. ",
        "ts": "1461865756.000315"
    },
    {
        "type": "message",
        "subtype": "file_share",
        "text": "<@U129BTR18|tiagopita> uploaded a file: <https://veganhills.slack.com/files/tiagopita/F14LAG2UC/screen_shot_2016-04-28_at_20.18.29.png|Screen Shot 2016-04-28 at 20.18.29.png>",
        "file": {
            "id": "F14LAG2UC",
            "created": 1461871153,
            "timestamp": 1461871153,
            "name": "Screen Shot 2016-04-28 at 20.18.29.png",
            "title": "Screen Shot 2016-04-28 at 20.18.29.png",
            "mimetype": "image/png",
            "filetype": "png",
            "pretty_type": "PNG",
            "user": "U129BTR18",
            "editable": false,
            "size": 187666,
            "mode": "hosted",
            "is_external": false,
            "external_type": "",
            "is_public": true,
            "public_url_shared": false,
            "display_as_bot": false,
            "username": "",
            "url_private": "https://files.slack.com/files-pri/T129BTQQ2-F14LAG2UC/screen_shot_2016-04-28_at_20.18.29.png?t=xoxe-36317942818-50774082900-50794983538-94992aeae8",
            "url_private_download": "https://files.slack.com/files-pri/T129BTQQ2-F14LAG2UC/download/screen_shot_2016-04-28_at_20.18.29.png?t=xoxe-36317942818-50774082900-50794983538-94992aeae8",
            "thumb_64": "https://files.slack.com/files-tmb/T129BTQQ2-F14LAG2UC-c18a01e802/screen_shot_2016-04-28_at_20.18.29_64.png?t=xoxe-36317942818-50774082900-50794983538-94992aeae8",
            "thumb_80": "https://files.slack.com/files-tmb/T129BTQQ2-F14LAG2UC-c18a01e802/screen_shot_2016-04-28_at_20.18.29_80.png?t=xoxe-36317942818-50774082900-50794983538-94992aeae8",
            "thumb_360": "https://files.slack.com/files-tmb/T129BTQQ2-F14LAG2UC-c18a01e802/screen_shot_2016-04-28_at_20.18.29_360.png?t=xoxe-36317942818-50774082900-50794983538-94992aeae8",
            "thumb_360_w": 360,
            "thumb_360_h": 289,
            "thumb_480": "https://files.slack.com/files-tmb/T129BTQQ2-F14LAG2UC-c18a01e802/screen_shot_2016-04-28_at_20.18.29_480.png?t=xoxe-36317942818-50774082900-50794983538-94992aeae8",
            "thumb_480_w": 480,
            "thumb_480_h": 385,
            "thumb_160": "https://files.slack.com/files-tmb/T129BTQQ2-F14LAG2UC-c18a01e802/screen_shot_2016-04-28_at_20.18.29_160.png?t=xoxe-36317942818-50774082900-50794983538-94992aeae8",
            "thumb_720": "https://files.slack.com/files-tmb/T129BTQQ2-F14LAG2UC-c18a01e802/screen_shot_2016-04-28_at_20.18.29_720.png?t=xoxe-36317942818-50774082900-50794983538-94992aeae8",
            "thumb_720_w": 720,
            "thumb_720_h": 578,
            "thumb_960": "https://files.slack.com/files-tmb/T129BTQQ2-F14LAG2UC-c18a01e802/screen_shot_2016-04-28_at_20.18.29_960.png?t=xoxe-36317942818-50774082900-50794983538-94992aeae8",
            "thumb_960_w": 960,
            "thumb_960_h": 770,
            "thumb_1024": "https://files.slack.com/files-tmb/T129BTQQ2-F14LAG2UC-c18a01e802/screen_shot_2016-04-28_at_20.18.29_1024.png?t=xoxe-36317942818-50774082900-50794983538-94992aeae8",
            "thumb_1024_w": 1024,
            "thumb_1024_h": 822,
            "image_exif_rotation": 1,
            "original_w": 1408,
            "original_h": 1130,
            "permalink": "https://veganhills.slack.com/files/tiagopita/F14LAG2UC/screen_shot_2016-04-28_at_20.18.29.png",
            "permalink_public": "https://slack-files.com/T129BTQQ2-F14LAG2UC-12912e35c1",
            "channels": [
                "C128QUULC"
            ],
            "groups": [
    
            ],
            "ims": [
    
            ],
            "comments_count": 0
        },
        "user": "U129BTR18",
        "upload": true,
        "display_as_bot": false,
        "username": "<@U129BTR18|tiagopita>",
        "bot_id": null,
        "ts": "1461871158.000316"
    },
    {
        "type": "message",
        "user": "U129BTR18",
        "text": "Hi Guys, I need to find who is the owner of the land next to Vegan Hills because it has 4 lakes and great building space with terraces",
        "ts": "1461871199.000317"
    },
    {
        "type": "message",
        "user": "U129BTR18",
        "text": "I don\u2019t have a Portuguese MB",
        "ts": "1461871212.000318"
    },
    {
        "type": "message",
        "user": "U129BTR18",
        "text": "Can someone please pay this and we put in the association  expenses?",
        "edited": {
            "user": "U129BTR18",
            "ts": "1461871238.000000"
        },
        "ts": "1461871225.000319"
    },
    {
        "type": "message",
        "user": "U128RR0EQ",
        "text": "Does it work with my French bank account ?",
        "ts": "1461871623.000321"
    },
    {
        "type": "message",
        "user": "U129BTR18",
        "text": "nop",
        "ts": "1461873043.000322"
    },
    {
        "type": "message",
        "user": "U129BTR18",
        "text": "only portuguese cards",
        "ts": "1461873049.000323"
    },
    {
        "type": "message",
        "user": "U12AGRQ75",
        "text": "if I can find the netbanking card i can make the payment",
        "ts": "1461875764.000324"
    },
    {
        "type": "message",
        "user": "U12ADP23E",
        "text": "I can pay in case you can't find anyone",
        "ts": "1461876735.000325"
    }
]