[
    {
        "type": "message",
        "user": "U129BTR18",
        "text": "<@U12ADP23E>: someone, as @caner is not willing to install humhub can someone please install it",
        "ts": "1464083060.000054"
    },
    {
        "type": "message",
        "user": "U129BTR18",
        "text": "Is urgent, we need to organise the next steps of working.",
        "ts": "1464083087.000055"
    },
    {
        "type": "message",
        "user": "U129BTR18",
        "text": "I shares a list of tasks but was ignored",
        "ts": "1464083103.000056"
    },
    {
        "type": "message",
        "user": "U129BTR18",
        "text": "We need to share how much work someone can put in the project so we know in who we can count on",
        "ts": "1464083130.000057"
    },
    {
        "type": "message",
        "user": "U129BTR18",
        "text": "There is a tremendous amount on pressure on me and things are being passed on to me",
        "ts": "1464083157.000058"
    },
    {
        "type": "message",
        "user": "U129BTR18",
        "text": "What is on the table now is that we need to start receiving the payments to pay in 6 weeks",
        "ts": "1464083667.000059"
    },
    {
        "type": "message",
        "user": "U129BTR18",
        "text": "I just invited the people that signed up to slack",
        "ts": "1464084122.000060"
    },
    {
        "user": "U1B9AVDEC",
        "type": "message",
        "subtype": "channel_join",
        "text": "<@U1B9AVDEC|dianavegan> has joined the channel",
        "ts": "1464085594.000061"
    },
    {
        "user": "U1B9HS8CV",
        "type": "message",
        "subtype": "channel_join",
        "text": "<@U1B9HS8CV|thomas> has joined the channel",
        "ts": "1464086696.000062"
    },
    {
        "type": "message",
        "user": "U12FEFFB8",
        "text": "Is it the next stages list sent on the 15th Tiago? Ok, what we can do is fetch visitors,guide them  and do driving to different places during the middleof June when we are there. Build up a bit of a small play area if possible... I can promote Vegoa here in Sweden as best as I can... on face book and through articles for the Swedish vegan and animal rights associations, could also write an article for Growing Green, British vegan organic magazine.Thought of it because I know the editor Malcome Green... I have asked but maybe someone is doing that already...",
        "ts": "1464087484.000063",
        "reactions": [
            {
                "name": "slightly_smiling_face",
                "users": [
                    "U12FDKCTU"
                ],
                "count": 1
            }
        ]
    },
    {
        "type": "message",
        "user": "U1729LJJY",
        "text": "Hi Karin / Tiago I am back in the Uk now and in the next few day can actively seek new members if this is your wish. Happy to put an advert together for any promotions and write a short blog style article. Please advise.",
        "ts": "1464088674.000064"
    },
    {
        "type": "message",
        "user": "U161R3DFE",
        "text": "",
        "attachments": [
            {
                "color": "D0D0D0",
                "fallback": "[May 24th, 2016 12:21 PM] jmac: Hi Tiago you have done such a great job to get the project this far and are clearly feeling pressure as you have so many jobs to do. It would be helpful if someone could advise how I can see who has signed up, who has paid what, who is coming out and when, who is interested etc. Unfortunately due to my location I cannot help in any physical way or attend any meetings with people in the area and I will not be out in Portugal for some time. I need to know what I can do to help without taking up your time Tiago. I have already offered to call people who are interested in joining but no-one replied to my offer of help. Could someone correspond with me and we can perhaps discuss this and find a way through the admin jobs that we can do, or anything else  which will allow Tiago to focus on the more physical tasks and tasks that need someone on the ground in Portugal. Many of you are already doing this, but I am sure there is something I can help with.",
                "author_subname": "jmac",
                "ts": "1464088863.000043",
                "text": "Hi Tiago you have done such a great job to get the project this far and are clearly feeling pressure as you have so many jobs to do. It would be helpful if someone could advise how I can see who has signed up, who has paid what, who is coming out and when, who is interested etc. Unfortunately due to my location I cannot help in any physical way or attend any meetings with people in the area and I will not be out in Portugal for some time. I need to know what I can do to help without taking up your time Tiago. I have already offered to call people who are interested in joining but no-one replied to my offer of help. Could someone correspond with me and we can perhaps discuss this and find a way through the admin jobs that we can do, or anything else  which will allow Tiago to focus on the more physical tasks and tasks that need someone on the ground in Portugal. Many of you are already doing this, but I am sure there is something I can help with.",
                "author_name": "Jeni Macnab",
                "author_link": "https://veganhills.slack.com/team/jmac",
                "author_icon": "https://secure.gravatar.com/avatar/0dc6ca41b7e5f999b3685cdd55f45535.jpg?s=48&d=https%3A%2F%2Fa.slack-edge.com%2F66f9%2Fimg%2Favatars%2Fava_0018-48.png",
                "mrkdwn_in": [
                    "text"
                ],
                "from_url": "https://veganhills.slack.com/archives/commit/p1464088863000043",
                "is_share": true
            }
        ],
        "ts": "1464088938.000065"
    },
    {
        "type": "message",
        "user": "U1729LJJY",
        "text": "Great idea Jeni - I would add to that - perhaps what skills each couple or individual has and how they could interact with the project in its initial developments.",
        "ts": "1464089603.000066"
    },
    {
        "type": "message",
        "user": "U12FDKCTU",
        "text": "I agree that it would be great if someone with a good overview can make an action plan on what we need to do, by when we need to do it, and who has already started what. I think a lot of us who are not on site want to help but are not sure how.",
        "ts": "1464089711.000067"
    },
    {
        "type": "message",
        "user": "U12A1M1Q8",
        "text": "I will prepare a doc tonight with to do lists and milestones which has to be complemented by those who have the numbers but it might help to already have something to built on. We can also have a column where people can sign up if they want to take the responsibility for the task.",
        "ts": "1464091096.000068",
        "reactions": [
            {
                "name": "slightly_smiling_face",
                "users": [
                    "U12FDKCTU"
                ],
                "count": 1
            }
        ]
    },
    {
        "type": "message",
        "user": "U161R3DFE",
        "text": "That's great Kati, once you have some sort of doc prepared, we can then look at what needs to be done before the next payment is due in 6 weeks  e.g. first call re payment call this week, 2nd call on such and such a date until we have the payment. The same with people interested in coming out to visit and if we can somehow co-ordinate any pick ups at the train station with people on the ground, even if we could find a volunteer to do this and offer some freebie for his time again to avoid Tiago being taken off site.",
        "ts": "1464091426.000069"
    },
    {
        "user": "U1BB67R4Y",
        "type": "message",
        "subtype": "channel_join",
        "text": "<@U1BB67R4Y|gautivegan> has joined the channel",
        "ts": "1464100723.000070"
    },
    {
        "type": "message",
        "user": "U1BB67R4Y",
        "text": "Hello and namaste all, thanks for adding me here and its seems long discussion i will try to read but if someone wants to conclude then good for me",
        "ts": "1464100831.000071"
    },
    {
        "type": "message",
        "user": "U1BB67R4Y",
        "text": "I am",
        "ts": "1464100837.000072"
    },
    {
        "type": "message",
        "user": "U1BB67R4Y",
        "text": "I am Lalit Gautam pharmaceutical graduate and MBA in inernationl marketing and finance and after corporate jobs i started my social start ups and so now i am young entrepreneur and founder of social start ups and working with rural communities, i was active member of one eco village in spain( from skype) in south spain and other project like this and that one was closed due to some issues so my exp and skills will be helpful here  and i am vegetrian and  help u in cooking, ayurveda, massages, yoga and other few things thanks a lot. only one concern for me here is shit visa borders.hope together we resolve this thanks",
        "ts": "1464100999.000073"
    },
    {
        "user": "U1BEP8Z4Y",
        "type": "message",
        "subtype": "channel_join",
        "text": "<@U1BEP8Z4Y|rafal_gudzinski> has joined the channel",
        "ts": "1464122932.000074"
    }
]