[
    {
        "type": "message",
        "user": "U12FEFFB8",
        "text": "I also think it would be great to offer more people the possibility to be part of vegan Hills. Another issue that I think should be considered in relation to the limited number of people that the land can house is that even if we are 43 households we will most likely  not all be there at the same time. Most of us are from other countries,continents or even other parts of Portugal and will have obligations in other place to attend to as well , and maybe need to be away for longer time spans. For several of us it will most probably take several years until we can live there more permanently. I think we just need to get as many people as possible in and let them start by contributing what they have... How this will be handled in a fair way I am not sure but I am pretty sure it can be worked out somehow, especially if the alternative is losing the land...",
        "ts": "1464595437.000152",
        "reactions": [
            {
                "name": "+1",
                "users": [
                    "U129BTR18"
                ],
                "count": 1
            }
        ]
    },
    {
        "type": "message",
        "user": "U12FEFFB8",
        "text": "But I think a loan to take pressure of would be a paralell way to go as well...",
        "ts": "1464595490.000153",
        "reactions": [
            {
                "name": "+1",
                "users": [
                    "U129BTR18"
                ],
                "count": 1
            }
        ]
    },
    {
        "type": "message",
        "user": "U1B9HS8CV",
        "text": "Only a few points, not important to me:\nIt is very fair and friendly, there continue even people without money to join. My experience is, that no one will bear his money, if he does not have. Everyone has worked hard for his money, I can understand that. In addition, if there is no, or only a very small, financial barrier, constantly people coming and going to be, which is to organize a very big effort.",
        "ts": "1464596352.000154"
    },
    {
        "type": "message",
        "user": "U1BB67R4Y",
        "text": "No to NO money, obviously a amount should be paid either single or family. but yes some relaxation or offers to singles, even when they ready to contribute in land for work, very frankly 2500 Euro is very big amount for a person like me who come frm third country,india, specially when i am scial entrepreneur 26 yr old but this is not the way that if someone wants to join he not joining just because of money",
        "ts": "1464602898.000155"
    },
    {
        "type": "message",
        "user": "U1BB67R4Y",
        "text": "but yes we should introduce some criteria and limit that this is the people join till this limit",
        "ts": "1464602926.000156"
    },
    {
        "type": "message",
        "user": "U1B9HS8CV",
        "text": "if \u20ac 2,500 a lot of money for you, are you then aware that here (Europe) everything you need to live, is also very expensive? From what money you want to live (e.g. food) and build you accommodation etc., what if you're sick?",
        "ts": "1464604549.000157"
    },
    {
        "type": "message",
        "user": "U14FF9U66",
        "text": "Although i dont have a problem with an alternative option for singles, i doubt whether this will make us able to reach the coming deadline. ",
        "ts": "1464616777.000158"
    },
    {
        "type": "message",
        "user": "U14FF9U66",
        "text": "In addition i wonder if it does not send out the signal of us being desperate and to what extent it leads people that were willing to join in under traditional terms to switch to the new terms, which would indeed lead to less financial resources",
        "ts": "1464616896.000159"
    },
    {
        "type": "message",
        "user": "U14FF9U66",
        "text": "Do we have any clear idea how many singles the new terms would definitively attract?",
        "ts": "1464616942.000160"
    },
    {
        "type": "message",
        "user": "U14FF9U66",
        "text": "Although it may not be easy it maybe good to attract some investors/sponsors.. Even though there is no clear financial return on any investment, there are beneficial outcomes that may interest untraditional/new age/green investors. Natural and social value will be created for sure, so it is a matter of reaching out to the right people or institutions ",
        "ts": "1464617150.000161"
    },
    {
        "type": "message",
        "user": "U14FF9U66",
        "text": "And i met a lot of intresting people last saturday at a meeting about ecovillages here in the neighbourhood. Many liked our idea a lot but struggled with not being 100% vegan, even though they are conscious about their food and obviously respect animals, they felt excluded from this opportunity to live a peaceful life in nature.. Im am wondering how everybody feels about missing out on really nice persons that are just not 100% vegan",
        "ts": "1464617559.000162"
    },
    {
        "type": "message",
        "user": "U14FF9U66",
        "text": "Anyway there was a lot of knowledge and experience gathered at the meeting. Several people who started succesful communities jn south africa, brazil and portugal and who have been involved a lot in the starting processes of other communites. An interesting book that i would like to recommend to everybody is \"creating a life together\" by diana leafe christian",
        "ts": "1464617749.000163"
    },
    {
        "type": "message",
        "user": "U12FDKCTU",
        "text": "We have to be 100% vegan. Not only would excepting others turn off many vegans from the project, but it would also likely result in interpersonal conflict in the community.",
        "ts": "1464617859.000164",
        "reactions": [
            {
                "name": "+1",
                "users": [
                    "U1B9HS8CV",
                    "U12TVPB35",
                    "U12A8854L"
                ],
                "count": 3
            },
            {
                "name": "heart",
                "users": [
                    "U1B9AVDEC"
                ],
                "count": 1
            }
        ]
    },
    {
        "type": "message",
        "user": "U14FF9U66",
        "text": "Thats what i thought, but am just wondering.. All human interaction/ interpersonal communication and interpersonal conflict in the end really depends on the personal developmemt of the individuals involved ",
        "ts": "1464618013.000165"
    },
    {
        "type": "message",
        "user": "U14FF9U66",
        "text": "Thats something that what was for me a central learning point yesterday ",
        "ts": "1464618073.000166"
    },
    {
        "type": "message",
        "user": "U12FDKCTU",
        "text": "Also, I don't think including a second singles option will make us come off as desperate. Few people would notice that this option wasn't there from the start and those who would notice have probably already made up their mind about joining.",
        "ts": "1464618121.000167"
    },
    {
        "type": "message",
        "user": "U14FF9U66",
        "text": "Perfect then! I dont think it can do much harm either but i doubt whether it will attract so many new singles ",
        "ts": "1464618209.000168"
    },
    {
        "type": "message",
        "user": "U12FDKCTU",
        "text": "That's the question. We need to estimate how many singles we think it will attract as we will lose money from those singles who were ready and able to pay the full amount.",
        "ts": "1464618539.000169"
    },
    {
        "type": "message",
        "user": "U14FF9U66",
        "text": "A video/presentation that introduces our idea and the faces behind the project can do a lot of good in my opinion..",
        "ts": "1464618584.000170"
    },
    {
        "type": "message",
        "user": "U14FF9U66",
        "text": "Yeah exactly, i think if you do the calculation it doesnt change our position that much",
        "ts": "1464618647.000171"
    },
    {
        "type": "message",
        "user": "U1B9HS8CV",
        "text": "I think it is a little bit risky to indemnify each how much he pays, and I think this is less money states. Who has already pledged, could jump out by these new rules again.\n\n100% vegan is difficult to define, but who does not see himself as a vegan, finds a lot of other options in this world like this.",
        "ts": "1464618686.000172"
    },
    {
        "type": "message",
        "user": "U14FF9U66",
        "text": "True, that seems to be the thing, most of them care a lot about their food, but dont identify themselves as being a vegan.. ",
        "ts": "1464622540.000173"
    },
    {
        "type": "message",
        "user": "U14FF9U66",
        "text": "May indeed be more options out there for them :) i just found them to be really nice and valuable persons with lots of knowledge and that got me wondering a little ",
        "ts": "1464622663.000174"
    },
    {
        "type": "message",
        "user": "U129BTR18",
        "text": "<@U14FF9U66>: people that are not 100% vegan are harder to be vegan than someone that just eat a stake",
        "ts": "1464626869.000175"
    },
    {
        "type": "message",
        "user": "U129BTR18",
        "text": "They just put their head in the sand because they think they need to use chickens for permaculture or other some stupid excuse",
        "ts": "1464626910.000176"
    },
    {
        "type": "message",
        "user": "U129BTR18",
        "text": "They make us have discussions like this as well",
        "ts": "1464626919.000177"
    },
    {
        "type": "message",
        "user": "U129BTR18",
        "text": "Regarding the loan I agree 100% and believe is the only solution at the moment",
        "ts": "1464626946.000178"
    },
    {
        "type": "message",
        "user": "U129BTR18",
        "text": "We did got another 4 registers today but I am not sure someone got organise to call it?",
        "ts": "1464626970.000179"
    },
    {
        "type": "message",
        "user": "U129BTR18",
        "text": "The problem is VEGOA has a organisation system",
        "ts": "1464626986.000180"
    },
    {
        "type": "message",
        "user": "U129BTR18",
        "text": "And that is not a problem is the solution",
        "ts": "1464627010.000181"
    },
    {
        "type": "message",
        "user": "U129BTR18",
        "text": "but because people are not 100% in Vegoa yet, or did not pay",
        "ts": "1464627023.000182"
    },
    {
        "type": "message",
        "user": "U129BTR18",
        "text": "we are stuck",
        "ts": "1464627027.000183"
    },
    {
        "type": "message",
        "user": "U129BTR18",
        "text": "as we can\u2019t introduce them to the system",
        "ts": "1464627039.000184"
    },
    {
        "type": "message",
        "user": "U129BTR18",
        "text": "When me <@U127R2T19> <@U12BB9E03> and <@U128RR0EQ> started this we did not know the land, we knew we wanted a vegan society",
        "ts": "1464627067.000185"
    },
    {
        "type": "message",
        "user": "U129BTR18",
        "text": "So please no offence but having so many people that can\u2019t take action or organise themselves to help  is the problem here",
        "ts": "1464627113.000186"
    },
    {
        "type": "message",
        "user": "U129BTR18",
        "text": "Thank you <@U12TVPB35> for your proactive ideas I really like them",
        "ts": "1464627131.000187"
    },
    {
        "type": "message",
        "user": "U129BTR18",
        "text": "<@U12FDKCTU>: regarding dividing land, long ago we discussed a plan of \u20ac75k to pay for the land to offer some hectares to someone willing to sponsor the land",
        "ts": "1464627185.000188"
    },
    {
        "type": "message",
        "user": "U129BTR18",
        "text": "That would be the real value of 3 or 4 hectares",
        "ts": "1464627196.000189"
    },
    {
        "type": "message",
        "user": "U129BTR18",
        "text": "that\u2019s the price in this area",
        "ts": "1464627205.000190"
    },
    {
        "type": "message",
        "user": "U129BTR18",
        "text": "But those people would be not in Vegan Hills, only Vegoa",
        "ts": "1464627309.000191"
    },
    {
        "type": "message",
        "user": "U129BTR18",
        "text": "They are two different things",
        "ts": "1464627321.000192"
    },
    {
        "type": "message",
        "user": "U129BTR18",
        "text": "I think it can be a good idea",
        "ts": "1464627334.000193"
    },
    {
        "type": "message",
        "user": "U129BTR18",
        "text": "Now I think we should continue the discussion in <#C18QRL1K2>",
        "ts": "1464627439.000194"
    },
    {
        "type": "message",
        "user": "U129BTR18",
        "text": "As is may be the best way",
        "ts": "1464627445.000195"
    },
    {
        "type": "message",
        "user": "U129BTR18",
        "text": "Once more I do ask everyone to get real and think that we don\u2019t have many days left",
        "ts": "1464627465.000196"
    },
    {
        "type": "message",
        "user": "U129BTR18",
        "text": "and anything, a loan a video or whatever idea we come up takes time",
        "ts": "1464627480.000197"
    },
    {
        "type": "message",
        "user": "U129BTR18",
        "text": "At least to pay the 100k we need to come up with a solution soon",
        "ts": "1464627524.000198"
    },
    {
        "type": "message",
        "user": "U129BTR18",
        "text": "I leave a link for the organisations in case someone did not read it",
        "ts": "1464627602.000199"
    },
    {
        "type": "message",
        "user": "U129BTR18",
        "text": "<http://vegoa.org/en/organisations/>",
        "ts": "1464627603.000200"
    },
    {
        "type": "message",
        "user": "U129BTR18",
        "text": "There is loads of people contacting both to exchange a house to help others and for the 7000\u20ac payment",
        "ts": "1464629071.000201"
    },
    {
        "type": "message",
        "user": "U161R3DFE",
        "text": "I just wanted to respond to what has been said above regarding singles and vegans. I think having more singles is ok but can I just clarify, each single pays  3500 euros and will share a house with someone else which amounts to 7000 euros per house? or is it 2500 euros per person with 3 people in a house which would be 7500 euros. I think if singles want to share then that's fine but already the price is reduced from 10000 euros to 7000/75000 and that is ok but I am not sure we will not solve the shortfall in this way but I am unsure how else this may be resolved. I think a video will definitely help.",
        "ts": "1464632710.000202"
    },
    {
        "type": "message",
        "user": "U161R3DFE",
        "text": "Sorry I did not mean to post that as I still had a bit I wanted to respond to regarding veganism. I have noticed on the new Facebook page some discussions regarding what is and what is not \"being a vegan\". Having recently become vegan, I find the tone of the conversation very off-putting and upsetting. I think people have a choice, however if we are to be the change we would like to see in the rest of the world, then perhaps if our conversations could be a little more understanding of each others differences and show a little more respect, then we may well begin to attract more people who are prepared to go from being vegetarian to vegan. I think Jeroen makes a good point regarding the people he met who were not vegan. Many people do not always realise the suffering animals go through, so that we can eat them or use them. If we are to be a place of \"education\" then I think we possibly need to be a little more open and flexible to people who may not be totally vegan YET but be thinking about it.",
        "ts": "1464633340.000203"
    },
    {
        "type": "message",
        "user": "U12TVPB35",
        "text": "OK to recap: I WAIT to post the single options on groups.....regarding veganism: i think there are enoguh vegans in the world who would like to join Vegoa, for me it s the core reason i want to b in vegoa, after the frustrating experiences in other communitirs who are vegetarian or even eat meat...",
        "ts": "1464635006.000204",
        "reactions": [
            {
                "name": "+1",
                "users": [
                    "U12BB9E03",
                    "U1B9HS8CV",
                    "U127R2T19",
                    "U12FDKCTU",
                    "U12A8854L"
                ],
                "count": 5
            },
            {
                "name": "heart",
                "users": [
                    "U1B9AVDEC",
                    "U127R2T19",
                    "U12TVPB35"
                ],
                "count": 3
            }
        ]
    },
    {
        "type": "message",
        "user": "U1B9AVDEC",
        "text": "I feel the same way as Simona.\n\nThe Vegan in vegan hills attracts me.\nI am only speaking for myself here, but if non-vegans can join, this community will not be interesting to me anymore. \n\nI can live next to meat eaters and vegetarians I can have discussions with everywhere in the world. It's bizarre that people turn this into a discussion, even though the name and the manifest already say everything.\n\nAbout non-vegans:\nPeople that eat products that directly contain animal products and not just traces because they were lying next to a cow-cheese sandwich, are non-vegans to me.  \nThey may be good people in other areas of their life, I agree, but it's the \"vegan\" that I find the most attractive about this community. \n\nI am hoping that I won't have discussions about the use of animals this way. That I can have a safe haven, too. \n\nIf there are not 100% vegan people, they will want to make more and more exceptions, if there ever will be a sactuary, they will discuss the fate of rescued animals, until the vegans among us can't tolerate them anymore. \n\nIn my opinion, letting non-vegans join means inviting conflict later on, because I have read somewhere no one loses their property, but can be kicked out, if 90% agree to it. \nI am not sure how this works or if I misunderstood, because if someone can be kicked out - what happens to their part of the land? \n\nAnyhow, I don't think anyone wants to kick out anyone, but everyone wants to live in peace with one another. However, if people don't agree on the basics, why should they join? \nI would not join a fruitarian community either, even though I eat a lot of fruit, I clearly know I'm not fruitarian and I wouldn't bother people there to take me in. Or a paleo community.  And I wouldn't be mad at them. People have the right to get together like that.",
        "ts": "1464637923.000205",
        "reactions": [
            {
                "name": "heart",
                "users": [
                    "U1B9HS8CV"
                ],
                "count": 1
            },
            {
                "name": "+1",
                "users": [
                    "U129BTR18",
                    "U12BB9E03"
                ],
                "count": 2
            }
        ]
    },
    {
        "type": "message",
        "user": "U12TVPB35",
        "text": "exactly, the manifesto is clear, why even bother with this discussion? let s focus on getting more vegans interested :heart:",
        "ts": "1464638232.000206",
        "reactions": [
            {
                "name": "heart",
                "users": [
                    "U1B9AVDEC",
                    "U12BB9E03"
                ],
                "count": 2
            }
        ]
    },
    {
        "type": "message",
        "user": "U12TVPB35",
        "text": "I dont wish to waste my time in Vegoa explaining why no milk blablablabla....i m doing this RIGHT NOW and i although i m happy to become a stronger activist, I d rather invest this energy in sustainable building etc etc etc, to make even more less footpring on the planet",
        "ts": "1464638324.000207",
        "reactions": [
            {
                "name": "heart",
                "users": [
                    "U1B9AVDEC"
                ],
                "count": 1
            },
            {
                "name": "+1",
                "users": [
                    "U12A8854L"
                ],
                "count": 1
            }
        ]
    },
    {
        "type": "message",
        "user": "U1B9AVDEC",
        "text": "<@U161R3DFE>: If you want to educate people, please do so. I assume you alluded to the discussion (mostly) I had with the woman from the Netherlands on facebook today, the one who wants to eat organic eggs.\n\nShe doesn't care to read the manifest. So I really don't know what else I could have written to her. I probably shouldn't have written anything. What would you have written to her? \n\nIf you play along with manipulative or just un-educated (or ignorant = not willing to learn) non-vegans, trying to please them and be the better person, meeting them halfway, saying \"yes okay, only vegan friendly is just great\" some may say you are tolerant and will be happy to join / be welcome, but the intention of the community will get diluted more and more. \n\nBeing tolerant is great - but what exactly do you want to tolerate in what context, at what cost? If there already is a manifest, I think it's okay to point that out to newcomers, which I did. The vegan society clearly defines what vegan means. The manifest links to that definition. \n\nBut I won't do this anymore. Too much energy gets wasted on people who want to bend the rules to their own benefit instead of accepting existing rules. If someone asks, gets an answer and still shows genuine interest, that's one thing. If someone gets defensive about consuming animals however, that's just a waste of time. Those are fights that don't move anything forward. Those people make everything about themselves. They don't care about the greater good and they will not meet vegans halfway. \n\nTo me it seems more like this particular woman was poking around and trying to find a reason why she can't join, also judging from her other comments in the group. She's still seeking where she belongs. She had already written she might join at another point, when there are more kids or when she has more money. ... Now it's eggs. \n\nI was stupid and self-destructive to comment on her silliness at all. If someone found that offensive, I apologize, but I can't ignore everything. At some point I had to write something and tell her to read the manifest. I won't do that again, though.\n\nGood night.",
        "ts": "1464648774.000208"
    },
    {
        "type": "message",
        "user": "U12FDKCTU",
        "text": "I am glad that some of us have reacted strongly against the suggestion of inviting non-vegans. The fact that Vegoa is vegan is what will give us (and veganism) world-wide attention and I anticipate that down the road many people will become vegan because they heard about our project or because they want to move in with us. Make the community \"mostly vegan\" and we can throw all those advantages out the door.",
        "ts": "1464661657.000209",
        "reactions": [
            {
                "name": "+1",
                "users": [
                    "U127R2T19",
                    "U1B9HS8CV"
                ],
                "count": 2
            }
        ]
    }
]