[
    {
        "user": "U129BTR18",
        "type": "message",
        "subtype": "channel_join",
        "text": "<@U129BTR18|tiagopita> has joined the channel",
        "ts": "1461165285.416690"
    },
    {
        "user": "U128RR0EQ",
        "type": "message",
        "subtype": "channel_join",
        "text": "<@U128RR0EQ|canercandan> has joined the channel",
        "ts": "1461165419.000002"
    },
    {
        "type": "message",
        "user": "U128RR0EQ",
        "text": "<!channel>: hey there :wink:",
        "ts": "1461165508.000003"
    },
    {
        "user": "U127R2T19",
        "type": "message",
        "subtype": "channel_join",
        "text": "<@U127R2T19|geraldinestarke> has joined the channel",
        "ts": "1461166204.000004"
    },
    {
        "user": "U12A98M7U",
        "type": "message",
        "subtype": "channel_join",
        "text": "<@U12A98M7U|melissa> has joined the channel",
        "ts": "1461170046.000002"
    },
    {
        "user": "U129RSXGW",
        "type": "message",
        "subtype": "channel_join",
        "text": "<@U129RSXGW|maggie67> has joined the channel",
        "ts": "1461170262.000003"
    },
    {
        "user": "U129BTR18",
        "topic": "Vegan Hills Community ",
        "type": "message",
        "subtype": "channel_topic",
        "text": "<@U129BTR18|tiagopita> set the channel topic: Vegan Hills Community ",
        "ts": "1461170718.000004"
    },
    {
        "user": "U12A1M1Q8",
        "type": "message",
        "subtype": "channel_join",
        "text": "<@U12A1M1Q8|kati> has joined the channel",
        "ts": "1461170864.000005"
    },
    {
        "type": "message",
        "user": "U12A1M1Q8",
        "text": "Hey there",
        "ts": "1461170897.000006",
        "reactions": [
            {
                "name": "+1",
                "users": [
                    "U128RR0EQ"
                ],
                "count": 1
            }
        ]
    },
    {
        "user": "U12AAQ8K1",
        "type": "message",
        "subtype": "channel_join",
        "text": "<@U12AAQ8K1|irmine-pema> has joined the channel",
        "ts": "1461172110.000007"
    },
    {
        "type": "message",
        "user": "U12AAQ8K1",
        "text": "Hi :simple_smile:",
        "ts": "1461172149.000008"
    },
    {
        "type": "message",
        "user": "U129BTR18",
        "text": "Hi <@U12AAQ8K1>",
        "ts": "1461172879.000009"
    },
    {
        "user": "U12A8854L",
        "type": "message",
        "subtype": "channel_join",
        "text": "<@U12A8854L|seanlall> has joined the channel",
        "ts": "1461173266.000010"
    },
    {
        "type": "message",
        "user": "U12A8854L",
        "text": "Hi",
        "ts": "1461173536.000011"
    },
    {
        "user": "U12ADP23E",
        "type": "message",
        "subtype": "channel_join",
        "text": "<@U12ADP23E|sector> has joined the channel",
        "ts": "1461174161.000012"
    },
    {
        "user": "U12A47D9R",
        "type": "message",
        "subtype": "channel_join",
        "text": "<@U12A47D9R|joker> has joined the channel",
        "ts": "1461179145.000013"
    },
    {
        "user": "U12AGRQ75",
        "type": "message",
        "subtype": "channel_join",
        "text": "<@U12AGRQ75|avegan> has joined the channel",
        "ts": "1461181390.000014"
    },
    {
        "type": "message",
        "user": "U12A47D9R",
        "text": "bonjour \u00e0 tous :wink:",
        "ts": "1461181464.000015"
    },
    {
        "type": "message",
        "user": "U127R2T19",
        "text": "<@U12A47D9R>: bonjour :wink: ",
        "ts": "1461181512.000016"
    },
    {
        "user": "U12C86XK3",
        "type": "message",
        "subtype": "channel_join",
        "text": "<@U12C86XK3|ivoraf> has joined the channel",
        "ts": "1461182151.000017"
    },
    {
        "type": "message",
        "user": "U12C86XK3",
        "text": "hi everyone!:)",
        "ts": "1461182215.000018"
    },
    {
        "user": "U12BB9E03",
        "type": "message",
        "subtype": "channel_join",
        "text": "<@U12BB9E03|erwan.lr> has joined the channel",
        "ts": "1461186543.000019"
    },
    {
        "type": "message",
        "user": "U129BTR18",
        "text": "We are  now 23 families",
        "ts": "1461187395.000020",
        "reactions": [
            {
                "name": "+1",
                "users": [
                    "U12AAQ8K1"
                ],
                "count": 1
            }
        ]
    },
    {
        "type": "message",
        "user": "U12AGRQ75",
        "text": "how are you going to use this tool? whats the plan for the working group?",
        "ts": "1461188594.000021"
    },
    {
        "type": "message",
        "user": "U129BTR18",
        "text": "<@U12AGRQ75>: during the next weeks we need direct chats, I will setup a facebook group chat, to keep everyone updated",
        "ts": "1461190440.000022"
    },
    {
        "type": "message",
        "user": "U129BTR18",
        "text": "We will create rooms for different discussions, but here we can discuss any topic even small ones",
        "ts": "1461190470.000023"
    },
    {
        "type": "message",
        "user": "U12AGRQ75",
        "text": "tks Tiago, looking forward to it",
        "ts": "1461190713.000024"
    },
    {
        "type": "message",
        "user": "U129BTR18",
        "text": ":simple_smile:",
        "ts": "1461190724.000025"
    },
    {
        "type": "message",
        "user": "U12AGRQ75",
        "text": "we wait till everyone joins then?",
        "ts": "1461190734.000026"
    },
    {
        "user": "U12DP676J",
        "type": "message",
        "subtype": "channel_join",
        "text": "<@U12DP676J|daniel-roux> has joined the channel",
        "ts": "1461196316.000027"
    },
    {
        "user": "U12FDKCTU",
        "type": "message",
        "subtype": "channel_join",
        "text": "<@U12FDKCTU|mattias> has joined the channel",
        "ts": "1461212418.000028"
    },
    {
        "user": "U12FEFFB8",
        "type": "message",
        "subtype": "channel_join",
        "text": "<@U12FEFFB8|felix2001> has joined the channel",
        "ts": "1461221849.000029"
    }
]