[
    {
        "user": "U19CCLDRR",
        "type": "message",
        "subtype": "channel_join",
        "text": "<@U19CCLDRR|jamie_h> has joined the channel",
        "ts": "1463470564.000525"
    },
    {
        "type": "message",
        "user": "U12TVPB35",
        "text": "omg guys!! wooowwwwwww",
        "ts": "1463473831.000526"
    },
    {
        "type": "message",
        "user": "U1729LJJY",
        "text": "Hi Gaz and Steff I would love to meet you I am free on Wed afternoon / early eve or Friday, but fly back to the UK for a period to get some resources together. My landline in Portugal is 28269770",
        "ts": "1463513123.000529"
    }
]