[
    {
        "user": "U17TZS6AX",
        "type": "message",
        "subtype": "channel_join",
        "text": "<@U17TZS6AX|kohann> has joined the channel",
        "ts": "1462971995.000054"
    },
    {
        "user": "U186N8S49",
        "type": "message",
        "subtype": "channel_join",
        "text": "<@U186N8S49|carinaalves> has joined the channel",
        "ts": "1463009784.000055"
    }
]