[
    {
        "type": "message",
        "user": "U12A8854L",
        "text": "We are a family of 4.\nMy mother Shail (69)\nMy wife Meenakshi (42)\nMy son Sasha (9)\nI am 45.\nWe currently live in Vancouver, Canada.\nWe have been vegan since about 2008.\nVery keen on moving to VH. \n",
        "ts": "1464893366.000002",
        "reactions": [
            {
                "name": "grinning",
                "users": [
                    "U161R3DFE",
                    "U12AAQ8K1"
                ],
                "count": 2
            }
        ]
    },
    {
        "type": "message",
        "user": "U12ADP23E",
        "text": "Hello Sean and welcome! Looking forward to meet you all! :-)",
        "ts": "1464893680.000003"
    }
]