[
    {
        "type": "message",
        "user": "U12A1M1Q8",
        "text": "I love the idea of building with bamboo. Maybe we find an architect that could help us with the design. ",
        "ts": "1463296219.000124"
    },
    {
        "type": "message",
        "user": "U17TZS6AX",
        "text": "At beginning we could do simple houses but bamboo is not a tree but grass so when we will cut it it grows again and again, very ecologic :slightly_smiling_face: and it cleans the ground",
        "ts": "1463316771.000125"
    },
    {
        "type": "message",
        "user": "U12ADP23E",
        "text": "Don't know if we have bamboo growing on our land. If we don't it would take atleast 2 or 3 years before we could make something out of it I guess.\nTires are not pretty, that's a fact, but in the world we live in, they exist and lots of them, and there's big landfill just for tires alone.\nOne way to get rid of them is recycling. After the building was done, you wouldn't notice them :smiley:",
        "ts": "1463317940.000126",
        "reactions": [
            {
                "name": "+1",
                "users": [
                    "U129BTR18",
                    "U1B9HS8CV"
                ],
                "count": 2
            }
        ]
    },
    {
        "type": "message",
        "user": "U12A1M1Q8",
        "text": "I would like to propose to built a beach volleyball field ",
        "ts": "1463318406.000127",
        "reactions": [
            {
                "name": "+1",
                "users": [
                    "U12ADP23E",
                    "U128RR0EQ",
                    "U17TZS6AX"
                ],
                "count": 3
            }
        ]
    },
    {
        "type": "message",
        "user": "U12ADP23E",
        "text": "I would love to have a basketball field!! xD",
        "ts": "1463318440.000128"
    },
    {
        "type": "message",
        "user": "U12FDKCTU",
        "text": "I was thinking the same thing Kati. A beach volleyball field that can also be used for beach tennis. More difficult/expensive as one may think though as sand needs to be almost 1 meter deep.",
        "ts": "1463329504.000129"
    },
    {
        "type": "message",
        "user": "U12A1M1Q8",
        "text": "The is some Sand on the Land that we could use but not sure whether it's enough",
        "ts": "1463331125.000130"
    },
    {
        "type": "message",
        "user": "U129BTR18",
        "text": "We have white sand in  a part of the land",
        "ts": "1463331195.000131"
    },
    {
        "type": "message",
        "user": "U129BTR18",
        "text": "so that will not be a problem",
        "ts": "1463331200.000132"
    }
]