[
    {
        "user": "U1C849S2V",
        "type": "message",
        "subtype": "channel_join",
        "text": "<@U1C849S2V|sonyamm3> has joined the channel",
        "ts": "1464341054.000033"
    }
]