[
    {
        "user": "U19CCLDRR",
        "type": "message",
        "subtype": "channel_join",
        "text": "<@U19CCLDRR|jamie_h> has joined the channel",
        "ts": "1463470563.000135"
    },
    {
        "type": "message",
        "user": "U12FDKCTU",
        "text": "Great article. I like the idea of using old transport containers. Perhaps these can be partially submerged. I'm guessing the steel walls will be strong enough to support almost anything that grows on top.",
        "ts": "1463485754.000136"
    },
    {
        "type": "message",
        "user": "U12TVPB35",
        "text": "yes, when i was on Tenerife they had one of the \"houses\" for the volunteers in a transformed container...insulated etc , it was pretty cool :slightly_smiling_face:",
        "ts": "1463543787.000002"
    }
]