[
    {
        "type": "message",
        "user": "U12BB9E03",
        "text": "Pour r\u00e9sumer un peu les \u00e9v\u00e9nements de ces derniers jours:\n\nUn contract est en train d'\u00eatre pr\u00e9par\u00e9 par notre comptable pour lier les 10k de chaque famille au terrain c'est a dire que cet argent ne pourra \u00eatre utilis\u00e9 que pour acheter le terrain et rien d'autre. Ensuite, si jamais le terrain est revendu plus tard, chaque personne devra \u00eatre rembours\u00e9 des 10k.\n\nEn ce qui concerne le deposit, une fois pay\u00e9, on pourra bouger sur le terrain, planter, cultiver etc. Si jamais le montant final n'est pas pay\u00e9 en septembre, le deposit est perdu. Il ya eu une suggestion pour partager cette perte entre tout ceux qui auront pay\u00e9 (par example, si on atteint seulement 200k avec 20 familles, chaque familles sera rembours\u00e9 7.5k), ce qui serait le plus equitable.\n\nJ'ai aussi propos\u00e9 plus tot cette semaine, que ceux qui peuvent payent les 10k d\u00e8s que possible, afin d'avoir les 50k pour le deposit le plus rapidement (nous aurions d\u00e9j\u00e0 30k assur\u00e9: Tiago, Bart &amp; moi m\u00eame allons mettre les 10k d\u00e8s qu'on a le contrat)\n\nCa ce sont les faits, maintenant si chacun s'y donne a fond, une fois le deposit pay\u00e9 et le travail sur le terrain commence, les gens vont voir que ce projet n'est pas une blague et il y aura beaucoup d'interet pass\u00e9 ce cap. Les 40 familles vont \u00eatre atteinte tr\u00e8s rapidement je pense, et on va surement devoir en refuser.",
        "ts": "1462476172.000002"
    },
    {
        "type": "message",
        "user": "U12AAQ8K1",
        "text": "Merci Erwan, j'y vois plus clair...",
        "ts": "1462478409.000003"
    }
]