[
    {
        "type": "message",
        "user": "U12A1M1Q8",
        "text": "Hi <@U128RR0EQ> : I don't think Tiago made anything else but a suggestion. He was actually only asking who needs a car and announcing that we should start building a car park. ",
        "ts": "1464114997.000057"
    },
    {
        "type": "message",
        "user": "U12A1M1Q8",
        "text": "I think that everyone who needs a car should bring a car. ",
        "ts": "1464115021.000058"
    },
    {
        "type": "message",
        "user": "U12A1M1Q8",
        "text": "Lots of people won't need it so I don't think there is a heavy risk of polluting the place with cars",
        "ts": "1464115053.000060"
    },
    {
        "type": "message",
        "user": "U12A1M1Q8",
        "text": "And I also think we all agree that meeting the deadline for the payments is the most important task ",
        "ts": "1464115165.000062"
    },
    {
        "type": "message",
        "user": "U12A1M1Q8",
        "text": "See also my next comment in team-operation ",
        "ts": "1464115191.000063"
    }
]