[
    {
        "user": "U129BTR18",
        "type": "message",
        "subtype": "channel_join",
        "text": "<@U129BTR18|tiagopita> has joined the channel",
        "ts": "1465824014.000002"
    },
    {
        "user": "U13EXK1C5",
        "inviter": "U129BTR18",
        "type": "message",
        "subtype": "channel_join",
        "text": "<@U13EXK1C5|anamoreira> has joined the channel",
        "ts": "1465824014.000003"
    },
    {
        "user": "U128RR0EQ",
        "inviter": "U129BTR18",
        "type": "message",
        "subtype": "channel_join",
        "text": "<@U128RR0EQ|canercandan> has joined the channel",
        "ts": "1465824014.000004"
    },
    {
        "user": "U13NVKKS8",
        "inviter": "U129BTR18",
        "type": "message",
        "subtype": "channel_join",
        "text": "<@U13NVKKS8|bartje> has joined the channel",
        "ts": "1465824015.000005"
    },
    {
        "user": "U129BTR18",
        "purpose": "Elect the new direction of the Vegoa Association and change it\u2019s address to the land.",
        "type": "message",
        "subtype": "channel_purpose",
        "text": "<@U129BTR18|tiagopita> set the channel purpose: Elect the new direction of the Vegoa Association and change it\u2019s address to the land.",
        "ts": "1465824015.000006"
    },
    {
        "user": "U186N8S49",
        "inviter": "U129BTR18",
        "type": "message",
        "subtype": "channel_join",
        "text": "<@U186N8S49|carinaalves> has joined the channel",
        "ts": "1465824015.000007"
    },
    {
        "user": "U12LBU64B",
        "inviter": "U129BTR18",
        "type": "message",
        "subtype": "channel_join",
        "text": "<@U12LBU64B|charlmon> has joined the channel",
        "ts": "1465824015.000008"
    },
    {
        "user": "U1B9AVDEC",
        "inviter": "U129BTR18",
        "type": "message",
        "subtype": "channel_join",
        "text": "<@U1B9AVDEC|dianavegan> has joined the channel",
        "ts": "1465824015.000009"
    },
    {
        "user": "U1FG93Q5T",
        "inviter": "U129BTR18",
        "type": "message",
        "subtype": "channel_join",
        "text": "<@U1FG93Q5T|snowflake> has joined the channel",
        "ts": "1465824016.000010"
    },
    {
        "user": "U135C9RED",
        "inviter": "U129BTR18",
        "type": "message",
        "subtype": "channel_join",
        "text": "<@U135C9RED|mecs3> has joined the channel",
        "ts": "1465824016.000011"
    },
    {
        "user": "U12SWDXT3",
        "inviter": "U129BTR18",
        "type": "message",
        "subtype": "channel_join",
        "text": "<@U12SWDXT3|leaoleal> has joined the channel",
        "ts": "1465824016.000012"
    },
    {
        "user": "U127R2T19",
        "inviter": "U129BTR18",
        "type": "message",
        "subtype": "channel_join",
        "text": "<@U127R2T19|geraldinestarke> has joined the channel",
        "ts": "1465824016.000013"
    },
    {
        "user": "U1F7ZB45N",
        "inviter": "U129BTR18",
        "type": "message",
        "subtype": "channel_join",
        "text": "<@U1F7ZB45N|emiliedeconde> has joined the channel",
        "ts": "1465824016.000014"
    },
    {
        "user": "U12BB9E03",
        "inviter": "U129BTR18",
        "type": "message",
        "subtype": "channel_join",
        "text": "<@U12BB9E03|erwan.lr> has joined the channel",
        "ts": "1465824016.000015"
    },
    {
        "user": "U12ADP23E",
        "inviter": "U129BTR18",
        "type": "message",
        "subtype": "channel_join",
        "text": "<@U12ADP23E|sector> has joined the channel",
        "ts": "1465824016.000016"
    },
    {
        "user": "U15L9NJMA",
        "inviter": "U129BTR18",
        "type": "message",
        "subtype": "channel_join",
        "text": "<@U15L9NJMA|henrique> has joined the channel",
        "ts": "1465824016.000017"
    },
    {
        "user": "U12AAQ8K1",
        "inviter": "U129BTR18",
        "type": "message",
        "subtype": "channel_join",
        "text": "<@U12AAQ8K1|irmine-pema> has joined the channel",
        "ts": "1465824016.000018"
    },
    {
        "user": "U1729LJJY",
        "inviter": "U129BTR18",
        "type": "message",
        "subtype": "channel_join",
        "text": "<@U1729LJJY|glenmonks1> has joined the channel",
        "ts": "1465824016.000019"
    },
    {
        "user": "U12C86XK3",
        "inviter": "U129BTR18",
        "type": "message",
        "subtype": "channel_join",
        "text": "<@U12C86XK3|ivoraf> has joined the channel",
        "ts": "1465824017.000020"
    },
    {
        "user": "U14FF9U66",
        "inviter": "U129BTR18",
        "type": "message",
        "subtype": "channel_join",
        "text": "<@U14FF9U66|jeroenboss> has joined the channel",
        "ts": "1465824017.000021"
    },
    {
        "user": "U19CCLDRR",
        "inviter": "U129BTR18",
        "type": "message",
        "subtype": "channel_join",
        "text": "<@U19CCLDRR|jamie_h> has joined the channel",
        "ts": "1465824017.000022"
    },
    {
        "user": "U161R3DFE",
        "inviter": "U129BTR18",
        "type": "message",
        "subtype": "channel_join",
        "text": "<@U161R3DFE|jmac> has joined the channel",
        "ts": "1465824017.000023"
    },
    {
        "user": "U12FEFFB8",
        "inviter": "U129BTR18",
        "type": "message",
        "subtype": "channel_join",
        "text": "<@U12FEFFB8|felix2001> has joined the channel",
        "ts": "1465824017.000024"
    },
    {
        "user": "U1CHRA3ED",
        "inviter": "U129BTR18",
        "type": "message",
        "subtype": "channel_join",
        "text": "<@U1CHRA3ED|kasiabartel> has joined the channel",
        "ts": "1465824017.000025"
    },
    {
        "user": "U1BB67R4Y",
        "inviter": "U129BTR18",
        "type": "message",
        "subtype": "channel_join",
        "text": "<@U1BB67R4Y|gautivegan> has joined the channel",
        "ts": "1465824018.000026"
    },
    {
        "user": "U12A1M1Q8",
        "inviter": "U129BTR18",
        "type": "message",
        "subtype": "channel_join",
        "text": "<@U12A1M1Q8|kati> has joined the channel",
        "ts": "1465824018.000027"
    },
    {
        "user": "U17TZS6AX",
        "inviter": "U129BTR18",
        "type": "message",
        "subtype": "channel_join",
        "text": "<@U17TZS6AX|kohann> has joined the channel",
        "ts": "1465824018.000028"
    },
    {
        "user": "U129RSXGW",
        "inviter": "U129BTR18",
        "type": "message",
        "subtype": "channel_join",
        "text": "<@U129RSXGW|maggie67> has joined the channel",
        "ts": "1465824018.000029"
    },
    {
        "user": "U12A98M7U",
        "inviter": "U129BTR18",
        "type": "message",
        "subtype": "channel_join",
        "text": "<@U12A98M7U|melissa> has joined the channel",
        "ts": "1465824018.000030"
    },
    {
        "user": "U12FDKCTU",
        "inviter": "U129BTR18",
        "type": "message",
        "subtype": "channel_join",
        "text": "<@U12FDKCTU|mattias> has joined the channel",
        "ts": "1465824018.000031"
    },
    {
        "user": "U1G5FJ2M7",
        "inviter": "U129BTR18",
        "type": "message",
        "subtype": "channel_join",
        "text": "<@U1G5FJ2M7|mimi> has joined the channel",
        "ts": "1465824018.000032"
    },
    {
        "user": "U12NDBBUK",
        "inviter": "U129BTR18",
        "type": "message",
        "subtype": "channel_join",
        "text": "<@U12NDBBUK|naomi> has joined the channel",
        "ts": "1465824018.000033"
    },
    {
        "user": "U12LX3NTD",
        "inviter": "U129BTR18",
        "type": "message",
        "subtype": "channel_join",
        "text": "<@U12LX3NTD|nnsoares> has joined the channel",
        "ts": "1465824018.000034"
    },
    {
        "user": "U1BEP8Z4Y",
        "inviter": "U129BTR18",
        "type": "message",
        "subtype": "channel_join",
        "text": "<@U1BEP8Z4Y|rafal_gudzinski> has joined the channel",
        "ts": "1465824019.000035"
    },
    {
        "user": "U12A8854L",
        "inviter": "U129BTR18",
        "type": "message",
        "subtype": "channel_join",
        "text": "<@U12A8854L|seanlall> has joined the channel",
        "ts": "1465824019.000036"
    },
    {
        "user": "U12A47D9R",
        "inviter": "U129BTR18",
        "type": "message",
        "subtype": "channel_join",
        "text": "<@U12A47D9R|joker> has joined the channel",
        "ts": "1465824019.000037"
    },
    {
        "user": "U13JUCX1S",
        "inviter": "U129BTR18",
        "type": "message",
        "subtype": "channel_join",
        "text": "<@U13JUCX1S|sharonmelaffefon> has joined the channel",
        "ts": "1465824019.000038"
    },
    {
        "user": "U1C849S2V",
        "inviter": "U129BTR18",
        "type": "message",
        "subtype": "channel_join",
        "text": "<@U1C849S2V|sonyamm3> has joined the channel",
        "ts": "1465824019.000039"
    },
    {
        "user": "U1B9HS8CV",
        "inviter": "U129BTR18",
        "type": "message",
        "subtype": "channel_join",
        "text": "<@U1B9HS8CV|thomas> has joined the channel",
        "ts": "1465824019.000040"
    },
    {
        "user": "U12AGRQ75",
        "inviter": "U129BTR18",
        "type": "message",
        "subtype": "channel_join",
        "text": "<@U12AGRQ75|avegan> has joined the channel",
        "ts": "1465824019.000041"
    },
    {
        "user": "U12TVPB35",
        "inviter": "U129BTR18",
        "type": "message",
        "subtype": "channel_join",
        "text": "<@U12TVPB35|simonav> has joined the channel",
        "ts": "1465824019.000042"
    },
    {
        "user": "U1FJUQ6CV",
        "inviter": "U129BTR18",
        "type": "message",
        "subtype": "channel_join",
        "text": "<@U1FJUQ6CV|wiwii> has joined the channel",
        "ts": "1465824020.000043"
    },
    {
        "type": "message",
        "user": "U129BTR18",
        "text": "<!group> <@U1F7ZB45N> raised the problem that some members of the association did not make the payment yet and that is a trust problem. I raised that problem in private in the past but was not solved. We have now enough members on the land or planning to move soon to be on the association",
        "ts": "1465824095.000044"
    },
    {
        "type": "message",
        "user": "U1F7ZB45N",
        "text": "very good :slightly_smiling_face:",
        "ts": "1465824097.000045"
    },
    {
        "type": "message",
        "user": "U1F7ZB45N",
        "text": "Thank you Tiago, important point to solve fast to improve the trust and transparency.",
        "ts": "1465824166.000046"
    },
    {
        "type": "message",
        "user": "U129BTR18",
        "text": "I did not pay yet as well, but will pay in the next weeks when I am in Berlin as I have to move accounts from UK to Europe before I can do it and will require some bureaucratic stuff so I don\u2019t pay taxs",
        "ts": "1465824167.000047"
    },
    {
        "type": "message",
        "user": "U129BTR18",
        "text": "I can be counted in for the next payment of 100K",
        "ts": "1465824188.000048"
    },
    {
        "type": "message",
        "user": "U129BTR18",
        "text": "As well in total I already spent over 10k of personal money in Vegoa",
        "ts": "1465824213.000049"
    },
    {
        "type": "message",
        "user": "U1F7ZB45N",
        "text": "Ok, thank you !",
        "ts": "1465824217.000050"
    },
    {
        "type": "message",
        "user": "U12BB9E03",
        "text": "Also, the association is Vegoa, not Vegan Hills, so people can be in the association without being part of Vegan Hills (hence they don't have to pay the 10k)",
        "ts": "1465824334.000051"
    },
    {
        "type": "message",
        "user": "U129BTR18",
        "text": "The land is in Vegoa association, and that is actually something that has to be rethinked",
        "ts": "1465824860.000052"
    },
    {
        "type": "message",
        "user": "U129BTR18",
        "text": "the land is worth a lot and people that just pays 500 would have a say legally",
        "ts": "1465824875.000053"
    },
    {
        "type": "message",
        "user": "U1F7ZB45N",
        "text": "Ok, I see. Please can you write here the name of all the people who paid the membership ?",
        "edited": {
            "user": "U1F7ZB45N",
            "ts": "1465824972.000000"
        },
        "ts": "1465824954.000054"
    },
    {
        "type": "message",
        "user": "U129BTR18",
        "text": "there is document",
        "ts": "1465825620.000056"
    },
    {
        "type": "message",
        "subtype": "file_share",
        "text": "<@U129BTR18|tiagopita> shared a file: <https://veganhills.slack.com/files/tiagopita/F1BUKADL3/visitispayment-sheet1|Visitis/Payment>",
        "file": {
            "id": "F1BUKADL3",
            "created": 1464271697,
            "timestamp": 1464271697,
            "name": "VisitisPayment-Sheet1",
            "title": "Visitis/Payment",
            "mimetype": "application/vnd.google-apps.spreadsheet",
            "filetype": "gsheet",
            "pretty_type": "GDocs Spreadsheet",
            "user": "U129BTR18",
            "editable": false,
            "size": 45,
            "mode": "external",
            "is_external": true,
            "external_type": "gdrive",
            "is_public": true,
            "public_url_shared": false,
            "display_as_bot": false,
            "username": "",
            "url_private": "https://docs.google.com/spreadsheets/d/14wtCJ9mnedtM-GgI3CtI6LtXP2d1VEj3y9brkp26_II/edit?usp=drivesdk#gid=0",
            "thumb_64": "https://a.slack-edge.com/66f9/img/files/gsheet_64.png",
            "thumb_360": "https://a.slack-edge.com/66f9/img/files/gsheet_360.png",
            "thumb_360_w": 360,
            "thumb_360_h": 167,
            "permalink": "https://veganhills.slack.com/files/tiagopita/F1BUKADL3/visitispayment-sheet1",
            "channels": [
                "C128QUULC",
                "C12N7G56V",
                "C15H9A64X",
                "C1G9XK22X"
            ],
            "groups": [
    
            ],
            "ims": [
    
            ],
            "comments_count": 1,
            "reactions": [
                {
                    "name": "white_check_mark",
                    "users": [
                        "U1F7ZB45N"
                    ],
                    "count": 1
                }
            ]
        },
        "user": "U129BTR18",
        "upload": false,
        "display_as_bot": false,
        "username": "<@U129BTR18|tiagopita>",
        "bot_id": null,
        "ts": "1465825792.000058"
    },
    {
        "type": "message",
        "user": "U127R2T19",
        "text": "I'll write it down here so it's clear to everyone:\n\n1. We have co-created the association because there was nobody else at that time to do it and a minimum of people was required or we would not have been able to move forward, create the association and signed the purchase contract for Vegan Hills.\n2. We have been elected presidents without even knowing it or choosing it (and we didn\u2019t participate as well in the nomination of the other members of the association) because at that time we were in France for 3 weeks\n3. We didn\u2019t pay yet the 10k because we don\u2019t have the money currently as we stopped our work 6 months ago to be able to commit full-time for Vegoa. But this made us lose all our savings and now we had to step a bit down and go back full time to our work to get the funds again. That\u2019s our only priority.\n4. The Vegoa association is not dependant on Vegan Hills, meaning the members of the Vegoa association don\u2019t have to be part of Vegan Hills. In fact, Vegoa aims to have multiple projects, Vegan Hills being the first one (it\u2019s all clearly explained on the website and docs). That\u2019s why our financial participation to Vegan Hills is not required or relevant, because we could decide not to be part of Vegan Hills, \n5. It seems that the payments spreadsheet is not updated as people appeared as they have paid when they didn\u2019t (like Tiago just said he didn\u2019t pay, yet he appears as a paid member on the spreadsheet). How many others are in this situation? Could the treasurers update this document with the actual facts as they are responsible for it and are the only one having access to the bank account.\n6. Another key member of the association, a treasurer and founder of the project, Tiago, has not paid his 10k yet, is this also problematic to others like it seems that the fact we didn\u2019t pay is?\n7. However, we want to let everyone know that we don\u2019t have any problem to be removed from presidency if that is a problem to anyone. If we have now enough people members and willing to be elected for it, it probably can be done easily.",
        "ts": "1465827610.000061",
        "reactions": [
            {
                "name": "heart",
                "users": [
                    "U1F7ZB45N",
                    "U1FG93Q5T",
                    "U12FDKCTU",
                    "U161R3DFE"
                ],
                "count": 4
            }
        ]
    },
    {
        "user": "U128RR0EQ",
        "type": "message",
        "subtype": "channel_leave",
        "text": "<@U128RR0EQ|canercandan> has left the channel",
        "ts": "1465828469.000062",
        "reactions": [
            {
                "name": "heart",
                "users": [
                    "U1F7ZB45N"
                ],
                "count": 1
            }
        ]
    },
    {
        "type": "message",
        "user": "U161R3DFE",
        "text": "Thank you for the clarity and honesty Geraldine. I had no idea that this is how Vegoa had evolved and I am really quite shocked that the information that was entered on the document is and was not accurate. I understand why this may be the case but for me this does not build trust and transparency. I perhaps stupidly without question paid my 10000 plus the 500 very quickly and I now think i should have been asking a whole lot more questions (I only have myself to blame here). I realised the kind of eco community that Tiago was trying to establish and this has been a dream of mine for sometime, so just went with my heart, but have to say i am upset at the lack of honesty. I understand taxes etc but it would have been nice to know exactly what was happening.",
        "ts": "1465831605.000063",
        "reactions": [
            {
                "name": "two_hearts",
                "users": [
                    "U1F7ZB45N",
                    "U127R2T19"
                ],
                "count": 2
            }
        ]
    },
    {
        "type": "message",
        "user": "U1F7ZB45N",
        "text": "Jeni, it was also a shock for me to see that this beautiful, amazing and gorgeous project it could become is for the moment very messy, non transparent and spoilt by many things. I propose to give a help to clean very well all the subjects, in every details in order to go ahead and make it happen as beautiful as we want Vegan Hills to be one day. I need the focus of everyone to save this project, to give a 100% participation because Vegan Hills is possible, I really believe it is...",
        "ts": "1465832072.000064",
        "reactions": [
            {
                "name": "slightly_smiling_face",
                "users": [
                    "U12FDKCTU",
                    "U161R3DFE",
                    "U1FG93Q5T",
                    "U127R2T19"
                ],
                "count": 4
            }
        ]
    },
    {
        "type": "message",
        "user": "U161R3DFE",
        "text": "Emilie I have to thank you so much for all the probing questions you have asked. Had it not been for you I would still be walking around in the dark. I hope that all this can be overcome, we can learn from it and move forward with this wonderful project but as you have so rightly been asking for full transparency........this absolutely must happen or the project will fail.",
        "ts": "1465832290.000065",
        "reactions": [
            {
                "name": "+1",
                "users": [
                    "U12FDKCTU",
                    "U1FG93Q5T",
                    "U1F7ZB45N",
                    "U12A8854L",
                    "U127R2T19"
                ],
                "count": 5
            }
        ]
    },
    {
        "type": "message",
        "user": "U1F7ZB45N",
        "text": "exactly, and I love this dream, I want to give my 100% to make it true and proove also to the world that the vegan people are amazing, crazy but amazing people :slightly_smiling_face:",
        "ts": "1465832615.000066",
        "reactions": [
            {
                "name": "heart",
                "users": [
                    "U127R2T19",
                    "U1FG93Q5T"
                ],
                "count": 2
            },
            {
                "name": "+1",
                "users": [
                    "U12A8854L",
                    "U1FG93Q5T"
                ],
                "count": 2
            }
        ]
    },
    {
        "type": "message",
        "user": "U12FDKCTU",
        "text": "Before we start concluding that the project is in trouble I just want to mention that in the last few days we've had more people join our Facebook pages than ever before. The interest and curiosity for the project is really exploding. Having said that we have to do a better job getting the curious and interested to join us and pay the required fees. I think the following points will be crucial moving forward:\n\n1.   There needs to be more Vegoa faces, more people replying and communicating with interested prospects. This way if one of us is disliked for our comments it will have less of a negative impact. If you see a fellow Vegoan write something on Facebook that you don't agree with don't be shy to disagree and write your opinion. \n\n2. It's important that people realize that we do not claim to be a professional well-organized organization. In truth we are just a bunch of passionate vegans who barely know each other who are trying to make a dream come true. As soon as people realize this they will be more apt to fall in love with the project and do their best to help. After all, the process of working out solutions to problems is what the Vegoa challenge is all about.\n\n3. Transparency is key. Getting people interested in the project is one thing but actually having them open their wallets is a completely different story. Let's not avoid answering difficult questions but let's keep highlighting the fact that we are not reliant on people making the payment before September. However, everyone needs to know that if they wait their land cost will increase as bank interest will have to be paid for.\n\n4. Anyone who thinks about making a public statement that the project is in trouble or has lost its momentum should think twice about doing so.  Remember that we are not doing this for selfish reasons, we are doing this to reduce a tremendous amount of suffering. Even if the project only inspires one single person to become vegan it's still very much worth it.",
        "ts": "1465835798.000067"
    },
    {
        "type": "message",
        "subtype": "file_share",
        "text": "<@U12BB9E03|erwan.lr> uploaded a file: <https://veganhills.slack.com/files/erwan.lr/F1GDFKH2S/members.txt|Current Members of the association (people that paid the 500\u20ac fees)>",
        "file": {
            "id": "F1GDFKH2S",
            "created": 1465836094,
            "timestamp": 1465836094,
            "name": "members.txt",
            "title": "Current Members of the association (people that paid the 500\u20ac fees)",
            "mimetype": "text/plain",
            "filetype": "text",
            "pretty_type": "Plain Text",
            "user": "U12BB9E03",
            "editable": true,
            "size": 261,
            "mode": "snippet",
            "is_external": false,
            "external_type": "",
            "is_public": true,
            "public_url_shared": false,
            "display_as_bot": false,
            "username": "",
            "url_private": "https://files.slack.com/files-pri/T129BTQQ2-F1GDFKH2S/members.txt?t=xoxe-36317942818-50774082900-50794983538-94992aeae8",
            "url_private_download": "https://files.slack.com/files-pri/T129BTQQ2-F1GDFKH2S/download/members.txt?t=xoxe-36317942818-50774082900-50794983538-94992aeae8",
            "permalink": "https://veganhills.slack.com/files/erwan.lr/F1GDFKH2S/members.txt",
            "permalink_public": "https://slack-files.com/T129BTQQ2-F1GDFKH2S-dbb81d04d0",
            "edit_link": "https://veganhills.slack.com/files/erwan.lr/F1GDFKH2S/members.txt/edit",
            "preview": "Tiago Pita\r\nNaomi Law\r\nFabio Victoriano\r\nSimona Vinati\r\nJennifer Macnab\r",
            "preview_highlight": "<div class=\"CodeMirror cm-s-default CodeMirrorServer\">\n<div class=\"CodeMirror-code\">\n<div><pre>Tiago Pita</pre></div>\n<div><pre>Naomi Law</pre></div>\n<div><pre>Fabio Victoriano</pre></div>\n<div><pre>Simona Vinati</pre></div>\n<div><pre>Jennifer Macnab</pre></div>\n<div><pre></pre></div>\n</div>\n</div>\n",
            "lines": 15,
            "lines_more": 10,
            "channels": [
                "C1G9XK22X"
            ],
            "groups": [
    
            ],
            "ims": [
    
            ],
            "comments_count": 0
        },
        "user": "U12BB9E03",
        "upload": true,
        "display_as_bot": false,
        "username": "<@U12BB9E03|erwan.lr>",
        "bot_id": null,
        "ts": "1465836094.000068"
    },
    {
        "type": "message",
        "subtype": "file_share",
        "text": "<@U12BB9E03|erwan.lr> uploaded a file: <https://veganhills.slack.com/files/erwan.lr/F1GDQ3KV5/geraldine_asso_organ_ack.png|geraldine asso organ ack> and commented: Regarding the point 2 of <@U127R2T19> post above",
        "file": {
            "id": "F1GDQ3KV5",
            "created": 1465836179,
            "timestamp": 1465836179,
            "name": "geraldine_asso_organ_ack.png",
            "title": "geraldine asso organ ack",
            "mimetype": "image/png",
            "filetype": "png",
            "pretty_type": "PNG",
            "user": "U12BB9E03",
            "editable": false,
            "size": 29055,
            "mode": "hosted",
            "is_external": false,
            "external_type": "",
            "is_public": true,
            "public_url_shared": false,
            "display_as_bot": false,
            "username": "",
            "url_private": "https://files.slack.com/files-pri/T129BTQQ2-F1GDQ3KV5/geraldine_asso_organ_ack.png?t=xoxe-36317942818-50774082900-50794983538-94992aeae8",
            "url_private_download": "https://files.slack.com/files-pri/T129BTQQ2-F1GDQ3KV5/download/geraldine_asso_organ_ack.png?t=xoxe-36317942818-50774082900-50794983538-94992aeae8",
            "thumb_64": "https://files.slack.com/files-tmb/T129BTQQ2-F1GDQ3KV5-cc6b8b2332/geraldine_asso_organ_ack_64.png?t=xoxe-36317942818-50774082900-50794983538-94992aeae8",
            "thumb_80": "https://files.slack.com/files-tmb/T129BTQQ2-F1GDQ3KV5-cc6b8b2332/geraldine_asso_organ_ack_80.png?t=xoxe-36317942818-50774082900-50794983538-94992aeae8",
            "thumb_360": "https://files.slack.com/files-tmb/T129BTQQ2-F1GDQ3KV5-cc6b8b2332/geraldine_asso_organ_ack_360.png?t=xoxe-36317942818-50774082900-50794983538-94992aeae8",
            "thumb_360_w": 360,
            "thumb_360_h": 146,
            "thumb_480": "https://files.slack.com/files-tmb/T129BTQQ2-F1GDQ3KV5-cc6b8b2332/geraldine_asso_organ_ack_480.png?t=xoxe-36317942818-50774082900-50794983538-94992aeae8",
            "thumb_480_w": 480,
            "thumb_480_h": 195,
            "thumb_160": "https://files.slack.com/files-tmb/T129BTQQ2-F1GDQ3KV5-cc6b8b2332/geraldine_asso_organ_ack_160.png?t=xoxe-36317942818-50774082900-50794983538-94992aeae8",
            "image_exif_rotation": 1,
            "original_w": 503,
            "original_h": 204,
            "permalink": "https://veganhills.slack.com/files/erwan.lr/F1GDQ3KV5/geraldine_asso_organ_ack.png",
            "permalink_public": "https://slack-files.com/T129BTQQ2-F1GDQ3KV5-0f833ae2c8",
            "channels": [
                "C1G9XK22X"
            ],
            "groups": [
    
            ],
            "ims": [
    
            ],
            "comments_count": 1,
            "initial_comment": {
                "id": "Fc1GDG54P8",
                "created": 1465836179,
                "timestamp": 1465836179,
                "user": "U12BB9E03",
                "is_intro": true,
                "comment": "Regarding the point 2 of <@U127R2T19> post above",
                "channel": ""
            }
        },
        "user": "U12BB9E03",
        "upload": true,
        "display_as_bot": false,
        "username": "<@U12BB9E03|erwan.lr>",
        "bot_id": null,
        "ts": "1465836181.000069"
    },
    {
        "type": "message",
        "user": "U127R2T19",
        "text": "Yep I never said I was against I said we didn't participate in the elections",
        "ts": "1465836767.000070"
    },
    {
        "type": "message",
        "user": "U127R2T19",
        "text": "And nobody asked about presidency you just told us when it was done. Again not a problem for me, just wanted to clarify the fact that we didn't asked to be President or whatever.",
        "edited": {
            "user": "U127R2T19",
            "ts": "1465836985.000000"
        },
        "ts": "1465836844.000071"
    },
    {
        "type": "message",
        "user": "U127R2T19",
        "text": "Regarding your snippet Erwan, why am I not on the list? I asked Tiago to pay my membership in May as he owed me 500\u20ac and he confirmed he would do it",
        "ts": "1465836902.000072"
    },
    {
        "type": "message",
        "user": "U12BB9E03",
        "text": "Your membership was never paid unfortunately :disappointed:",
        "ts": "1465837102.000074"
    },
    {
        "type": "message",
        "user": "U127R2T19",
        "text": "So Tiago didn't pay it?",
        "ts": "1465837170.000075"
    },
    {
        "type": "message",
        "user": "U12BB9E03",
        "text": "no",
        "ts": "1465837191.000076"
    },
    {
        "type": "message",
        "user": "U127R2T19",
        "text": "Ok @Tiago could you transfer me the money you owe me to my Bank account so I can pay my membership as I thought is was done long ago... thanks ",
        "ts": "1465837229.000077"
    },
    {
        "type": "message",
        "user": "U129BTR18",
        "text": "<@U127R2T19>: lying is another level that I was not waiting for",
        "ts": "1465839668.000078"
    },
    {
        "type": "message",
        "user": "U129BTR18",
        "text": "<@U12BB9E03>: I spent a lot more on Vegoa so please consider Geraldine and by the way Katy membership paid",
        "ts": "1465839701.000079"
    },
    {
        "type": "message",
        "user": "U129BTR18",
        "text": "<@U161R3DFE>: is wasn\u2019t you <@U12FDKCTU> @fabio and everyone that trusted that made the  project happen otherwise there wasn\u2019t no project",
        "edited": {
            "user": "U129BTR18",
            "ts": "1465841213.000000"
        },
        "ts": "1465839738.000080"
    },
    {
        "type": "message",
        "user": "U129BTR18",
        "text": "<@U127R2T19>: and <@U128RR0EQ> left to France in a crucial time",
        "ts": "1465839760.000081"
    },
    {
        "type": "message",
        "user": "U129BTR18",
        "text": "we had no choice than make them president or we would have lost the land",
        "ts": "1465839784.000082"
    },
    {
        "type": "message",
        "user": "U129BTR18",
        "text": "Once again selfishness in between vegans",
        "edited": {
            "user": "U129BTR18",
            "ts": "1465841227.000000"
        },
        "ts": "1465839800.000083"
    },
    {
        "type": "message",
        "user": "U129BTR18",
        "text": "And no Vegan hills is not just a part Geraldine",
        "ts": "1465839814.000084"
    },
    {
        "type": "message",
        "user": "U129BTR18",
        "text": "Vegan Hills is Vegoa",
        "ts": "1465839821.000085"
    },
    {
        "type": "message",
        "user": "U129BTR18",
        "text": "What we have done is illegal as well as we said in the acta that Geraldine Caner, Simona and Mattias were present",
        "ts": "1465839971.000086"
    },
    {
        "type": "message",
        "user": "U129BTR18",
        "text": "we did it because we had no choice",
        "ts": "1465839978.000087"
    },
    {
        "type": "message",
        "user": "U129BTR18",
        "text": "We spent weeks running from one side to the other",
        "ts": "1465839992.000088"
    },
    {
        "type": "message",
        "user": "U129BTR18",
        "text": "spending parking, diesel",
        "ts": "1465840002.000089"
    },
    {
        "type": "message",
        "user": "U129BTR18",
        "text": "and on on",
        "ts": "1465840005.000090"
    },
    {
        "type": "message",
        "user": "U129BTR18",
        "text": "Regarding me paying what is affirmation Geraldine and very sad",
        "ts": "1465840035.000091"
    },
    {
        "type": "message",
        "user": "U129BTR18",
        "text": "I spent up to now more than 13k on this",
        "ts": "1465840044.000092"
    },
    {
        "type": "message",
        "user": "U129BTR18",
        "text": "I can show my account",
        "ts": "1465840049.000093"
    },
    {
        "type": "message",
        "user": "U129BTR18",
        "text": "I am loosing money feeding everyone everyday",
        "ts": "1465840060.000094"
    },
    {
        "type": "message",
        "user": "U129BTR18",
        "text": "we spent all day in council today to register the land as non-hunting",
        "ts": "1465840075.000095"
    },
    {
        "type": "message",
        "user": "U129BTR18",
        "text": "those are the people we should have found",
        "ts": "1465840083.000096"
    },
    {
        "type": "message",
        "user": "U129BTR18",
        "text": "we found a place where hunters keep the dogs as well, around 20 in really bad conditions",
        "ts": "1465840113.000097"
    },
    {
        "type": "message",
        "user": "U129BTR18",
        "text": "we trying to do something about it",
        "ts": "1465840125.000098"
    },
    {
        "type": "message",
        "user": "U129BTR18",
        "text": "I will pay off course and already said that will pay another 50k in case we don\u2019t reach the 425k, asking me for any more commitment is very low!",
        "ts": "1465840159.000099"
    },
    {
        "type": "message",
        "user": "U129BTR18",
        "text": "waiting for vegan hills and only after do something is even lower!",
        "ts": "1465840180.000100"
    },
    {
        "type": "message",
        "user": "U129BTR18",
        "text": "sorry talking this straight, I want to make this happen, setting up an example and I tired of selfishness",
        "ts": "1465840227.000101"
    },
    {
        "type": "message",
        "user": "U129BTR18",
        "text": "If I wanted to be surrounded by self interest I would have stayed where I was. I left a person I love living alone with a promise of creating a beautiful place. I can work anywhere I want with a good job and make her and me happy, I here, working on this project from the moment I wake up to the moment I go to bed. Cooking, cleaning, farming, admin, lawyers contactracts, paying everything all the time, tools, documents, trips.",
        "ts": "1465840359.000102"
    },
    {
        "type": "message",
        "user": "U129BTR18",
        "text": "If I slow down, just a bit this stops",
        "ts": "1465840387.000103"
    },
    {
        "type": "message",
        "user": "U129BTR18",
        "text": "I agree with <@U12FDKCTU> statament",
        "ts": "1465840677.000104"
    },
    {
        "type": "message",
        "user": "U129BTR18",
        "text": "that the Project is having amazing attention and the reason we are doing it is to be an example, for the animals to inspire others",
        "ts": "1465840719.000105"
    },
    {
        "type": "message",
        "user": "U1FG93Q5T",
        "text": "<@U129BTR18>: first off, i think you have put together an amazing idea! We have read about many communities and this one is by far the most exciting of all! It is impossible when so many are involved that there wont be any drama. I have actually no doubt in my mind, your dream will be fulfilled! Just keep going and soon this all will be up and running. My feeling is that you will have endless with people who are willing to pay the day this becomes reality and then it is probably to late!",
        "ts": "1465841358.000108"
    },
    {
        "type": "message",
        "user": "U129BTR18",
        "text": "<@U1FG93Q5T>: I know, that why <@U161R3DFE> courage to pay first will be always remembered.",
        "ts": "1465841413.000109",
        "reactions": [
            {
                "name": "heart",
                "users": [
                    "U161R3DFE"
                ],
                "count": 1
            }
        ]
    },
    {
        "type": "message",
        "user": "U129BTR18",
        "text": "When Jeni payed I have suggested to Erwan and Katy that were with me that we should write that in a board to put in a communal space",
        "ts": "1465841443.000110",
        "reactions": [
            {
                "name": "heart",
                "users": [
                    "U161R3DFE",
                    "U12AAQ8K1"
                ],
                "count": 2
            }
        ]
    },
    {
        "type": "message",
        "user": "U1FG93Q5T",
        "text": "Thats a great idea! :slightly_smiling_face:",
        "ts": "1465841514.000111"
    },
    {
        "type": "message",
        "user": "U129BTR18",
        "text": "People love it when they come here, and things are moving so fast, at the same time we have so much to worry here. Like lakes for water that can only be done in summer and prepare the seeds for the next seasons to inspire people to be self sufficient",
        "ts": "1465841546.000112",
        "reactions": [
            {
                "name": "slightly_smiling_face",
                "users": [
                    "U1FG93Q5T",
                    "U12AAQ8K1",
                    "U161R3DFE"
                ],
                "count": 3
            }
        ]
    },
    {
        "type": "message",
        "user": "U1FG93Q5T",
        "text": "We have a great feeling about this project and i have a feeling you will be seeing us there with our children.  Few things to go over and then we will secure our spot :slightly_smiling_face:",
        "ts": "1465841754.000113",
        "reactions": [
            {
                "name": "+1",
                "users": [
                    "U1F7ZB45N",
                    "U161R3DFE"
                ],
                "count": 2
            }
        ]
    },
    {
        "type": "message",
        "user": "U129BTR18",
        "text": "We need people that are committing 100% like me and Erwan",
        "ts": "1465842423.000114"
    },
    {
        "type": "message",
        "user": "U129BTR18",
        "text": "otherwise if everyone who wants to join wants to have it safe and just help a bit when possible, such a big project may not happen",
        "ts": "1465842454.000115"
    },
    {
        "type": "message",
        "user": "U129BTR18",
        "text": "But myself I am reaching burning out point",
        "ts": "1465842469.000116"
    },
    {
        "type": "message",
        "user": "U12A8854L",
        "text": "We expect to be there in 3 weeks and should take some burden off. ",
        "ts": "1465842515.000117",
        "reactions": [
            {
                "name": "+1",
                "users": [
                    "U1F7ZB45N",
                    "U161R3DFE"
                ],
                "count": 2
            }
        ]
    },
    {
        "type": "message",
        "user": "U129BTR18",
        "text": "I loved Mark and Elaine and can\u2019t wait for them to join as well",
        "edited": {
            "user": "U129BTR18",
            "ts": "1465842586.000000"
        },
        "ts": "1465842571.000118",
        "reactions": [
            {
                "name": "+1",
                "users": [
                    "U1F7ZB45N"
                ],
                "count": 1
            }
        ]
    },
    {
        "type": "message",
        "user": "U1FG93Q5T",
        "text": "<@U129BTR18>: not everyone has the time right now. We would love to help but we are running a restaurant and have 2 very young boys... However, when we make the move we are 100% dedicated to help and to be there.",
        "ts": "1465842585.000119",
        "reactions": [
            {
                "name": "heart",
                "users": [
                    "U1F7ZB45N",
                    "U161R3DFE"
                ],
                "count": 2
            }
        ]
    },
    {
        "type": "message",
        "user": "U129BTR18",
        "text": "<@U1FG93Q5T>: I know that, but we all have to try a lot and sometimes forget ourselves if we want this to happen.",
        "ts": "1465842637.000121"
    },
    {
        "type": "message",
        "user": "U129BTR18",
        "text": "I had to leave the food because told me bad talks were happening again",
        "ts": "1465842660.000122"
    },
    {
        "type": "message",
        "user": "U12A8854L",
        "text": "The transparency and trust issue is a big one now. It must be resolved by the participants.\nThe intention was never in doubt .",
        "ts": "1465842679.000123"
    },
    {
        "type": "message",
        "user": "U12A8854L",
        "text": "We are coming regardless.",
        "ts": "1465842691.000124"
    },
    {
        "type": "message",
        "user": "U129BTR18",
        "text": "The contract is now ready",
        "ts": "1465842698.000125"
    },
    {
        "type": "message",
        "user": "U129BTR18",
        "text": "just needs to be translate in English",
        "ts": "1465842705.000126"
    },
    {
        "type": "message",
        "user": "U12A8854L",
        "text": "We would love to take over food.",
        "ts": "1465842708.000127"
    },
    {
        "type": "message",
        "user": "U12A8854L",
        "text": "<@U129BTR18>: and <@U127R2T19> clearly need to sit down together, eye to eye and resolve and inform the rest of us.",
        "ts": "1465842813.000128"
    },
    {
        "type": "message",
        "user": "U129BTR18",
        "text": "<@U12A8854L>: I am ok with Geraldine, there is nothing to talk, for some reason during their French holidays they developed some hate",
        "ts": "1465842879.000129"
    },
    {
        "type": "message",
        "user": "U129BTR18",
        "text": "and I don\u2019t even understand why",
        "ts": "1465842886.000130"
    },
    {
        "type": "message",
        "user": "U1FG93Q5T",
        "text": "Just remember to have fun on the journey while making it happen :slightly_smiling_face: There are so many things that \"have\" to be done but can be done later also.",
        "ts": "1465843033.000131"
    },
    {
        "type": "message",
        "user": "U129BTR18",
        "text": "I will be more online, but that does not allow me to give a good land experience to the people visiting",
        "ts": "1465843104.000132"
    },
    {
        "type": "message",
        "user": "U129BTR18",
        "text": "everything can be positive, but <@U1FG93Q5T> don\u2019t forget that the community is so well planned and is so great because someone put a lot more than just positive thoughts",
        "ts": "1465843152.000133"
    },
    {
        "type": "message",
        "user": "U129BTR18",
        "text": "Our enemies are out there, hunters and on on",
        "ts": "1465843184.000134"
    },
    {
        "type": "message",
        "user": "U12A8854L",
        "text": "Hunters? Please elaborate",
        "ts": "1465843230.000135"
    },
    {
        "type": "message",
        "user": "U1FG93Q5T",
        "text": "That i totally understand and that is why we LOVE everything around it. We will be paying by the end of the week if nothing big happens :slightly_smiling_face:",
        "ts": "1465843269.000136"
    },
    {
        "type": "message",
        "user": "U129BTR18",
        "text": "I have to leave now, to prepare food, I have people rallying on me",
        "ts": "1465843345.000137",
        "reactions": [
            {
                "name": "+1",
                "users": [
                    "U1F7ZB45N"
                ],
                "count": 1
            }
        ]
    },
    {
        "type": "message",
        "user": "U1FG93Q5T",
        "text": "enjoy your evening",
        "ts": "1465843371.000138"
    },
    {
        "type": "message",
        "user": "U1FG93Q5T",
        "text": ":slightly_smiling_face:",
        "ts": "1465843372.000139"
    },
    {
        "type": "message",
        "user": "U129BTR18",
        "text": "thanks :slightly_smiling_face:",
        "ts": "1465843415.000140"
    },
    {
        "type": "message",
        "user": "U12TVPB35",
        "text": "can we have a skype talk with Canar and Geraldine? i see Canar is leaving channels, i see no answer...I d love to solve this in the best way possible...",
        "ts": "1465843503.000141"
    },
    {
        "type": "message",
        "user": "U129BTR18",
        "text": "Simona, the land is 40 min from them.",
        "ts": "1465843677.000142"
    },
    {
        "type": "message",
        "user": "U129BTR18",
        "text": "no skype needed",
        "ts": "1465844105.000143"
    },
    {
        "type": "message",
        "user": "U127R2T19",
        "text": "1. \"@geraldinestarke: lying is another level that I was not waiting for\". \n<@U129BTR18> can you please be more explicit and tell me where I lied exactly?  Because I can't see any and I would like to be able to defend myself against this accusation so please be precise.\n\n2. \u201c@erwan.lr: I spent a lot more on Vegoa so please consider Geraldine and by the way Katy membership paid\u201d\nAm I the only one shocked by this sentence? Are you asking Erwan to add Katy and me on the list just because you spend a lot of money on Vegoa already, so you think that you have the right to actually not pay for these memberships? Can I add some of my friends as well, as I have also spend a lot of money on Vegoa?\nBTW, I am not asking for your charity, I am asking for the money I generously lend you in April when you needed to buy your van and that you said you would give me back the next day. You also said you would pay this amount to the Vegoa bank account when I asked you to. I didn\u2019t wanted to go in such details, but you are just denying everything and calling me a lyer. So here are the facts.\n\n3. \u201c@jmac: is wasn\u2019t you <@U12FDKCTU> @fabio and everyone that trusted that made the  project happen otherwise there wasn\u2019t no project\u201d\nYou forget to say, that before that, if it wasn\u2019t for me and Caner, the project would not have happened at all as we were the only one left to continue this adventure with you and that without us you could not have created the association and not signed the land contract? It\u2019s funny how you throw over 7 months of full investment from us away like it means nothing. In a few months will you also say that Fabio, Mattias, Jeni and Erwan didn\u2019t do anything to help the project?\n\n4. \u201c@geraldinestarke: and <@U128RR0EQ> left to France in a crucial time\u201d\nSo ??? Why don\u2019t you complain to all the other members that were not here at that time? Do I have to remember you that we are the first ones that moved to Portugal FOR Vegoa? And you\u2019re blaming us because we left for 3 weeks? BTW, just to remember, this France trip was planned already 1 year ago as it was for Caner\u2019s sister\u2019s wedding. Tiago knew about it since 7 months, we already talked about it on the first tool we were using \u201cbasecamp\u201d. \nI think that we invested so much in this project that you became used to it, used to us being available every single day, use to us hosting people, driving them around, feeding them. That it became obvious for you, like it was our duty. So as soon as we had to slow down, you found it totally awkward and started thinking we were abandoning the project.",
        "ts": "1465852308.000144"
    },
    {
        "type": "message",
        "user": "U127R2T19",
        "text": "5. \u201cwe had no choice than make them president or we would have lost the land\u201d\nAnd I had no problem with that. I am not pointing fingers at that, please read carefully. Because it seems that people are apparently awaiting too much from me because I am the president of the association, I wanted to make clear that \u201cpresident\u201d doesn\u2019t mean anything, that I was not put president for a reason. It was just because we didn\u2019t have enough people so we had to fill the places ourselves. Maybe this way people will understand, and find normal, like they do for other members, that we are not available for everything and that we had to step down.\n\n6. \u201cAnd no Vegan hills is not just a part Geraldine. Vegan Hills is Vegoa\u201d\nOk, here am I shocked again\u2026 Since when is that? Vegoa is the association, Vegan Hills is ONE of Vegoa\u2019s land project. Vegan Hills is the first Vegoa project, that\u2019s why it is so important BUT it is not Vegoa. Anybody can join Vegoa and not be part of Vegan Hills. Any member of Vegoa can choose to start an other land project if he wishes. Did I understand you wrong?\n\n7. \u201cRegarding me paying what is affirmation Geraldine and very sad I spent up to now more than 13k on this. I can show my account\u201d\nWhat are you saying Tiago? That you spent so much on Vegoa that you should not be asked to pay the 10k? Or that it\u2019s wrong to say that you didn\u2019t pay (you just said it yourself today, and I learned it today myself. As it is written in the document that you paid, and because you are constantly coming up with the fact that WE didn\u2019t pay, I thought all along that you had already paid.\nBTW why do you constantly need to brag about the fact that you have done so much, spend so much on Vegoa? Do you know that when you do that your diminishing all the work and investment others did?\nJust a reminder again, Caner and I were the first to move to Portugal (even before Tiago), we were the first that stopped our job and committed full time on Vegoa. Erwan just stopped his job 3 weeks ago, before that he was working, from our house, from monday to friday everyday. He was not coming to meetings, to visits or anything that had to be done during the week. We even created the association without him. But we, the people that stopped our job 6 months ago, that were available everyday, that let our house open to host so many people, and that were running around everywhere, we are being critized and all our investment is ridiculised. We are just not committed enough I guess.. when I read those words\n\n8. \u201cI will pay off course and already said that will pay another 50k in case we don\u2019t reach the 425k, asking me for any more commitment is very low!\u201d\nYou will pay, off course\u2026 Ok, like I also said, I will also pay, off course. Can you add me as paid on the spreadsheet like you did for you, and start telling people that I have paid? So problem solved...no more trust issue!\nReally Tiago?\nI have no doubt that you will pay, and I am being serious saying that. BUT that doesn\u2019t mean that you have the right to write down and tell everyone that you are paid AND in addition come criticizing me because we aren\u2019t able to pay yet (although we already told you a thousand times why). That\u2019s a joke right?\nLike I will not ask people to trust my promises, you should not do as well. We want facts and transparency, not promises. I always have been honest with people and told why we haven\u2019t paid yet. I think you should have done the same and not just feel that you could say that you have paid. And how much you paid already for Vegoa doesn\u2019t count, I am sorry.",
        "ts": "1465852327.000145"
    },
    {
        "type": "message",
        "user": "U127R2T19",
        "text": "9. \u201cwaiting for vegan hills and only after do something is even lower!\u201d\nYou have no right to tell me what I should or not do. If you think camping on the tent is the priority that\u2019s your point of view, your values. Don\u2019t make them the values everybody should follow. I remember you: individual freedom\u2026 My priorities are not the same and I didn\u2019t ask for your opinion like I didn\u2019t judge you deciding to camp on the land.\nAnd saying I am waiting for Vegan Hills, is just another disrespectful thing to say because of all the investment I already did for Vego and Vegan Hills.\nBTW working fulltime on our jobs to have a chance to get the amount to be able to join Vegan Hills, that\u2019s waiting for Vegan Hills?\n\n10. \u201csorry talking this straight, I want to make this happen, setting up an example and I tired of selfishness\u201d\nThat\u2019s not being straight that\u2019s being disrespectful and telling lies. The only one being selfish here is you, always saying that you are the one doing all the work here and diminishing everybody\u2019s work. If loosing over 30 000\u20ac of paid salary to work fulltime on Vegoa is being selfish, really I don\u2019t know anymore\u2026 I am really disappointed to see such comments after having invested so much, opened our home, did all that was possible to bring the project where it is today. \n\n11. \u201cWhen Jeni payed I have suggested to Erwan and Katy that were with me that we should write that in a board to put in a communal space\u201d\nThat\u2019s so sweet of you Tiago. Will you also put our names on the board for having been the ones that helped you made this project even possible?",
        "ts": "1465852369.000146"
    },
    {
        "type": "message",
        "user": "U127R2T19",
        "text": "12. \u201dWe need people that are committing 100% like me and Erwan\u201d\nAgain spitting at the faces from all the others that are committed \u2026!\nSo commitment for you means being on the land and making campsite and farming? Should I remember you that if we don\u2019t get all the money we lose the land so your nice camp site and all the hard work you have done is lost. Would it not be a priority for you to have a good internet connexion and work on that with the others? Yes we need to show people the land, but we already did that before we even signed the land, and before you moved to the land, so their is no need for you to camp there to receive people. If you chose to live their on your own will, that\u2019s another thing but don\u2019t blame others for not doing so. Again it\u2019s your values, and only yours.\n\n13. \u201c@seanlall: I am ok with Geraldine, there is nothing to talk, for some reason during their French holidays they developed some hate and I don\u2019t even understand why\u201d\nYou keep saying you're ok with me but that\u2019s not true. You keep making accusations to me and disrespecting me. You keep coming with the same stories every time although we had discussed about it and concluded that we should move forward. You are talking shit about us to all the new visitors that come to the land, although we haven\u2019t met them yet. Really, you're ok with me? Not sure, not my impression, not what people tell me.\nLast time we came on the land, it was very strange. It was quite obvious that people had heard something about us (there were 4 people we didn\u2019t know yet). Nobody really talked to us. It was really not pleasant to arrive in such ambiance.\nWe developed hate during our holiday?? Because we told you that our savings went so down that we had to go back to work and could pay the land? I don\u2019t understand as well\u2026\nWhen you behave in a bad manner, you always want to be excused because of the stress you are living. But you can\u2019t understand for a second that having no more savings, having to go back to work full time can be stressful and that\u2019s only what there is to the story. How many times should I tell you this?\n\n14. \u201ceverything can be positive, but <@U1FG93Q5T> don\u2019t forget that the community is so well planned and is so great because someone put a lot more than just positive thoughts\u201d\nSomeONE? So you did this all by yourself huh? Amazing\u2026 Really appreciate the way you keep diminishing others work.\n\n@Simona no skype talk needed. We are 40 min from the land (yeah more like 1h, and working all week but ok), so he can come talk to us anytime :wink:. Because when we are on the land he is just being hypocrite with us, and don\u2019t tell anything. And as soon as we leave starts talking bad again about us to people.\n\nCaner left slack because he can\u2019t stand anymore to read all this accusations and disrespect.",
        "ts": "1465852372.000147"
    },
    {
        "type": "message",
        "user": "U12TVPB35",
        "text": "<@U127R2T19>: THANK YOU for you honest answer and details...and YES I witness how much you and Canar as well put in the project...NOW: OK GUYS: conflict is inevitable in projects BUT if not handled properly can lead to situations like these, i have one offer at this point: MEDIATION ...I could contact the amazing trainer in conflict resolution, i know she offers her support via Skype as well, to solve this in the best way possible as I would love to continue this project with Tiago AND Geraldine AND Canar <@U129BTR18> are you available to try out this opportunity? I can contact her today and ask her how she can support us <http://mariaarpa.co.uk/> (she is amazing, solved conflict here in the project i am now that i thought had no solution ever)",
        "attachments": [
            {
                "service_name": "Maria Arpa",
                "title": "Home",
                "title_link": "http://mariaarpa.co.uk/",
                "text": "Thank you for visiting my website. Maybe you were looking me up or you just happened to come across the site. In any case, I hope you will find something here that is useful to you",
                "fallback": "Maria Arpa: Home",
                "from_url": "http://mariaarpa.co.uk/",
                "id": 1
            }
        ],
        "ts": "1465876695.000148",
        "reactions": [
            {
                "name": "heart",
                "users": [
                    "U1F7ZB45N"
                ],
                "count": 1
            }
        ]
    },
    {
        "type": "message",
        "user": "U1FG93Q5T",
        "text": "<@U127R2T19>: wow thank you for you very honest answer!! :heart: ",
        "ts": "1465880206.000150"
    }
]