[
    {
        "user": "U12BB9E03",
        "type": "message",
        "subtype": "channel_leave",
        "text": "<@U12BB9E03|erwan.lr> has left the channel",
        "ts": "1463132821.000107"
    },
    {
        "type": "message",
        "user": "U12TVPB35",
        "text": "what about a local Degrowth movement? <@U129BTR18> could u check if something like that already exists in the area? :smiley:",
        "ts": "1463165186.000108"
    },
    {
        "type": "message",
        "user": "U129BTR18",
        "text": "there is some people yes, loads of germans",
        "ts": "1463167747.000109"
    },
    {
        "type": "message",
        "user": "U12TVPB35",
        "text": "cool",
        "ts": "1463167789.000110"
    },
    {
        "type": "message",
        "user": "U129BTR18",
        "text": "you can ask in the group I created",
        "ts": "1463167932.000111"
    },
    {
        "type": "message",
        "user": "U129BTR18",
        "text": "<https://www.facebook.com/groups/viladobispo/>",
        "ts": "1463167933.000112",
        "reactions": [
            {
                "name": "+1",
                "users": [
                    "U12TVPB35",
                    "U12AAQ8K1"
                ],
                "count": 2
            }
        ]
    }
]