[
    {
        "type": "message",
        "user": "U129BTR18",
        "text": "Great, I will keep you updated, I think we can get a  great number of votes.",
        "ts": "1463040399.000044"
    },
    {
        "type": "message",
        "user": "U129BTR18",
        "text": "We just need 185 votes (estimative) to get a deputy",
        "ts": "1463042763.000045"
    },
    {
        "type": "message",
        "user": "U129BTR18",
        "text": "PAN never run that much for local councils, but this year is running for loads of councils",
        "ts": "1463042810.000046"
    },
    {
        "type": "message",
        "user": "U129BTR18",
        "text": "PAN, already had 2.38% in Vila do Bispo for the national elections",
        "ts": "1463043141.000047"
    },
    {
        "type": "message",
        "user": "U129BTR18",
        "text": "We need to discuss what would be our main campaign  topics",
        "ts": "1463043198.000048"
    },
    {
        "type": "message",
        "user": "U129BTR18",
        "text": "I will visit the council shelter, to see it\u2019s conditions",
        "ts": "1463043230.000049",
        "reactions": [
            {
                "name": "+1",
                "users": [
                    "U12TVPB35"
                ],
                "count": 1
            }
        ]
    },
    {
        "type": "message",
        "user": "U129BTR18",
        "text": "The council has 12 million in debt, I checked it\u2019s finances online",
        "ts": "1463043269.000050"
    },
    {
        "type": "message",
        "user": "U12ADP23E",
        "text": "Jesus!",
        "ts": "1463043286.000051"
    },
    {
        "type": "message",
        "user": "U129BTR18",
        "text": "They have bills like 50k of printing paper per year",
        "ts": "1463043290.000052"
    },
    {
        "type": "message",
        "user": "U129BTR18",
        "text": "they have several staff with very low skills",
        "ts": "1463043310.000053"
    },
    {
        "type": "message",
        "user": "U129BTR18",
        "text": "They have stupid bills like paying a company to wash the roads (they don\u2019t even have proper roads) half a million euros.",
        "ts": "1463043356.000054"
    },
    {
        "type": "message",
        "user": "U129BTR18",
        "text": "And loads more stupid bills",
        "ts": "1463043368.000055"
    },
    {
        "type": "message",
        "user": "U12ADP23E",
        "text": "Why would they spend so much in paper... In the age of technology...",
        "ts": "1463043369.000056"
    },
    {
        "type": "message",
        "user": "U129BTR18",
        "text": "they employ 3 IT staff! can you believe it!",
        "ts": "1463043383.000057"
    },
    {
        "type": "message",
        "user": "U129BTR18",
        "text": "is insane",
        "ts": "1463043387.000058"
    },
    {
        "type": "message",
        "user": "U129BTR18",
        "text": "They are good with transparency and have all numbers online",
        "ts": "1463043405.000059"
    },
    {
        "type": "message",
        "user": "U12ADP23E",
        "text": "Most of municiplalities, buy IT services from \"friendly\" companies...",
        "ts": "1463043458.000060"
    },
    {
        "type": "message",
        "user": "U129BTR18",
        "text": "yes",
        "ts": "1463043516.000061"
    },
    {
        "type": "message",
        "user": "U12ADP23E",
        "text": "I used to work at emel, and we we're 2 people taking care of 150 users, and 300 devices",
        "ts": "1463043527.000062"
    },
    {
        "type": "message",
        "user": "U129BTR18",
        "text": "they have a phone bill of 25k as well",
        "ts": "1463043540.000063"
    },
    {
        "type": "message",
        "user": "U129BTR18",
        "text": "even if we have free call for landlines",
        "ts": "1463043550.000064"
    },
    {
        "type": "message",
        "user": "U129BTR18",
        "text": "I don\u2019t understand",
        "ts": "1463043554.000065"
    },
    {
        "type": "message",
        "user": "U12ADP23E",
        "text": "And they were starting to outsource everything paying much more than what they payed us",
        "ts": "1463043559.000066"
    },
    {
        "type": "message",
        "user": "U129BTR18",
        "text": "So PAN is not left or right. I think our main campaign topic should be bring young people and year around residents, that in return would keep businesses going and bring the life the council needs",
        "ts": "1463043683.000067"
    },
    {
        "type": "message",
        "user": "U129BTR18",
        "text": "Some solutions would be promoting eco-housing, not damaging the beauty of the natural park",
        "ts": "1463043711.000068"
    },
    {
        "type": "message",
        "user": "U129BTR18",
        "text": "Make Vila do Bispo a sustainability hot-spot",
        "ts": "1463043732.000069"
    },
    {
        "type": "message",
        "user": "U129BTR18",
        "text": "Promotion of healthy food in the council schools",
        "ts": "1463043755.000070",
        "reactions": [
            {
                "name": "+1",
                "users": [
                    "U12TVPB35"
                ],
                "count": 1
            }
        ]
    },
    {
        "type": "message",
        "user": "U129BTR18",
        "text": "They spend a fortune as well paying third parties companies for food for the kids",
        "edited": {
            "user": "U129BTR18",
            "ts": "1463051266.000000"
        },
        "ts": "1463043775.000071"
    },
    {
        "type": "message",
        "user": "U129BTR18",
        "text": "Stop the water treatment water from going to the sea and use it as fertiliser for forestry projects",
        "edited": {
            "user": "U129BTR18",
            "ts": "1463051283.000000"
        },
        "ts": "1463043886.000072"
    },
    {
        "type": "message",
        "user": "U129BTR18",
        "text": "Improve the shelter and stop euthanising",
        "ts": "1463043907.000073",
        "reactions": [
            {
                "name": "+1",
                "users": [
                    "U12TVPB35"
                ],
                "count": 1
            }
        ]
    },
    {
        "type": "message",
        "user": "U129BTR18",
        "text": "But I think that the really main topic to get the maximum votes would be making Vila do Bispo politics attractive for young people, to live and create businesses. Making it a sustainable touristic destination",
        "ts": "1463044121.000074"
    },
    {
        "type": "message",
        "user": "U129BTR18",
        "text": "As well focus on farming, changing the local farming cooperative to promote only Organic farming and teach the farmers how to do it",
        "ts": "1463044173.000075"
    },
    {
        "type": "message",
        "user": "U129BTR18",
        "text": "With our cuts, we should remove the IMI, that is house tax to all the small homes and increase it in Villas that are not used as a main house.",
        "ts": "1463044240.000076"
    },
    {
        "type": "message",
        "user": "U129BTR18",
        "text": "Introduce a tourist fee payed by tourists that stay in Vila do Bispo to finance the council infrastructure.",
        "ts": "1463044298.000077"
    },
    {
        "type": "message",
        "user": "U129BTR18",
        "text": "Reduce the debt at least in half",
        "ts": "1463044307.000078"
    },
    {
        "type": "message",
        "user": "U129BTR18",
        "text": "what do you think? what would be your main points?",
        "ts": "1463044330.000079"
    },
    {
        "type": "message",
        "user": "U129BTR18",
        "text": "There is other several points like a Bus that would go from Aljezur to Lagos",
        "ts": "1463044626.000080"
    },
    {
        "type": "message",
        "user": "U129BTR18",
        "text": "that does not exist",
        "ts": "1463044630.000081"
    },
    {
        "type": "message",
        "user": "U12ADP23E",
        "text": "Public transport is certainly an issue in the Algarve, attracting young people will be hard, but promoting self sustainability and eco living in schools would be a must. Teaching kids how to grow their own food, and be conscious of the environment is the way to go.",
        "ts": "1463045946.000082",
        "reactions": [
            {
                "name": "+1",
                "users": [
                    "U129BTR18"
                ],
                "count": 1
            }
        ]
    },
    {
        "type": "message",
        "user": "U12ADP23E",
        "text": "Don't know if they do already, but every school should have their own vegetable garden.",
        "ts": "1463046093.000083",
        "reactions": [
            {
                "name": "+1",
                "users": [
                    "U12TVPB35"
                ],
                "count": 1
            }
        ]
    },
    {
        "type": "message",
        "user": "U12AGRQ75",
        "text": "on a overall view yes agree",
        "ts": "1463046099.000084"
    },
    {
        "type": "message",
        "user": "U129BTR18",
        "text": "If we promote, natural houses and associations to create income, like sustainable businesses, I can see young people moving there",
        "ts": "1463046155.000085"
    },
    {
        "type": "message",
        "user": "U129BTR18",
        "text": "Yesterday when I talked about our project all PAN members were like: Oh my God I want to move there!",
        "ts": "1463046181.000086"
    },
    {
        "type": "message",
        "user": "U12A1M1Q8",
        "text": "I think your suggestions sound very reasonable ",
        "ts": "1463051198.000087"
    },
    {
        "type": "message",
        "user": "U129BTR18",
        "text": "Yes, the schools is a great point",
        "ts": "1463051413.000090"
    },
    {
        "type": "message",
        "user": "U129BTR18",
        "text": "We can\u2019t force anything, like force vegan food into kids, that goes against PAN values into force anything. Is all about promoting education",
        "ts": "1463051461.000091"
    },
    {
        "type": "message",
        "user": "U129BTR18",
        "text": "Thats why they do so well",
        "ts": "1463051482.000092"
    },
    {
        "type": "message",
        "user": "U12ADP23E",
        "text": "Of course, otherwise we would be as bad as the state, using force and cohersion to impose our views. We should be an example and not an authority!",
        "ts": "1463065932.000093",
        "reactions": [
            {
                "name": "heart",
                "users": [
                    "U129BTR18"
                ],
                "count": 1
            }
        ]
    },
    {
        "type": "message",
        "user": "U12ADP23E",
        "text": "I had and idea, don't know if it's possible (in case we win the elections) creating billboards on the side of the road that would advertise sustainable businesses in the area. Or some sort of platform to promote businesses that are conscious of the environment and of animals!",
        "ts": "1463066246.000094",
        "reactions": [
            {
                "name": "heart",
                "users": [
                    "U129BTR18"
                ],
                "count": 1
            }
        ]
    },
    {
        "type": "message",
        "user": "U129BTR18",
        "text": "We should do that!",
        "ts": "1463074632.000095"
    },
    {
        "type": "message",
        "user": "U129BTR18",
        "text": "I created this group to start something similar, so we can support only sustainable businesses",
        "ts": "1463074658.000096"
    },
    {
        "type": "message",
        "user": "U12TVPB35",
        "text": "I totally agree with focusing on young population and education for children...promote a network of local veg products to get at school...perma-garden in the school...and yes sustainable business for young people...cut costs on infrastructure...alternative bus? (thinking about the bus in Brighton fueled by used oil for frying).....",
        "ts": "1463077469.000097",
        "reactions": [
            {
                "name": "+1",
                "users": [
                    "U12ADP23E",
                    "U129BTR18"
                ],
                "count": 2
            }
        ]
    },
    {
        "type": "message",
        "user": "U12TVPB35",
        "text": "too early to create a catering for children but later once the first steps are done :wink:",
        "ts": "1463077499.000098"
    },
    {
        "type": "message",
        "user": "U129BTR18",
        "text": "If you guys affiliate we can start and create a working group for Vila do Bispo, I just need one other affiliate",
        "ts": "1463087773.000099"
    },
    {
        "type": "message",
        "user": "U129BTR18",
        "text": "you just have to donate what you can",
        "ts": "1463087781.000100"
    },
    {
        "type": "message",
        "user": "U129BTR18",
        "text": "can be 5 euros",
        "ts": "1463087786.000101"
    },
    {
        "type": "message",
        "user": "U129BTR18",
        "text": "the document is here",
        "ts": "1463087819.000102"
    },
    {
        "type": "message",
        "user": "U129BTR18",
        "text": "<http://www.pan.com.pt/ficheiros/filiacao.pdf>",
        "ts": "1463087821.000103"
    },
    {
        "type": "message",
        "user": "U129BTR18",
        "text": "I really think we can elect 2 or 3 deputies",
        "ts": "1463090998.000104"
    },
    {
        "type": "message",
        "user": "U129BTR18",
        "text": "We need a list of 15",
        "ts": "1463091006.000105"
    },
    {
        "type": "message",
        "user": "U12ADP23E",
        "text": "Tomorrow I'll fill the form and send it!",
        "ts": "1463091994.000106"
    }
]