[
    {
        "user": "U1G5FJ2M7",
        "type": "message",
        "subtype": "channel_join",
        "text": "<@U1G5FJ2M7|mimi> has joined the channel",
        "ts": "1465725360.000002"
    }
]