[
    {
        "type": "message",
        "user": "U12TVPB35",
        "text": "<https://www.facebook.com/Innoventor/> i found finally again the page of the project my friend Susanne suggested me about, they can come on site and help us...one of the guy apparently lives in Holland :slightly_smiling_face:",
        "ts": "1463716610.000002",
        "reactions": [
            {
                "name": "+1",
                "users": [
                    "U17TZS6AX",
                    "U12NDBBUK"
                ],
                "count": 2
            }
        ]
    }
]