[
    {
        "user": "U19CCLDRR",
        "type": "message",
        "subtype": "channel_join",
        "text": "<@U19CCLDRR|jamie_h> has joined the channel",
        "ts": "1463470563.000063"
    },
    {
        "type": "message",
        "user": "U17TZS6AX",
        "text": "For Biogas we could speak to an expert in Portugal, no need to buy something in China maybe :slightly_smiling_face: \nLook at this great guy! <https://www.youtube.com/watch?v=cabw8enOC8Q>",
        "attachments": [
            {
                "service_name": "YouTube",
                "service_url": "https://www.youtube.com/",
                "title": "BioGas Digesters at The community of Tamera in Portugal",
                "title_link": "https://www.youtube.com/watch?v=cabw8enOC8Q",
                "author_name": "AurorasEyeFilms",
                "author_link": "https://www.youtube.com/user/AurorasEyeFilms",
                "thumb_url": "https://i.ytimg.com/vi/cabw8enOC8Q/hqdefault.jpg",
                "thumb_width": 480,
                "thumb_height": 360,
                "fallback": "YouTube Video: BioGas Digesters at The community of Tamera in Portugal",
                "video_html": "<iframe width=\"400\" height=\"225\" src=\"https://www.youtube.com/embed/cabw8enOC8Q?feature=oembed&autoplay=1&iv_load_policy=3\" frameborder=\"0\" allowfullscreen></iframe>",
                "video_html_width": 400,
                "video_html_height": 225,
                "from_url": "https://www.youtube.com/watch?v=cabw8enOC8Q",
                "id": 1
            }
        ],
        "ts": "1463476745.000064"
    },
    {
        "type": "message",
        "user": "U17TZS6AX",
        "text": "5 differents type of biogas at his place and he gives stagrs",
        "ts": "1463476926.000066"
    },
    {
        "type": "message",
        "user": "U17TZS6AX",
        "text": "Thomas Taha Culhane or T.H. Culhane is graduated from Harvard in Biological Anthropology and he has pioneered the development and deployment of renewable low-cost home and community energy production tools. T.H. is currently overseeing the installation of biogas digesters, which transform household organic waste into methane, at four sites in Rio de Janeiro, Brazil\u2014an elementary school being built by Architecture for Humanity and three favelas in distinctly different slum environments (coastal lagoon, montane forest, and dense urban). More information here <http://worldbuilding.institute/people/culhane-t.h>",
        "ts": "1463477406.000067"
    },
    {
        "type": "message",
        "user": "U17TZS6AX",
        "text": "At the end there is \"your system\" <@U129BTR18>,  the puxin digester :slightly_smiling_face:",
        "ts": "1463477710.000068"
    }
]