[
    {
        "user": "U1DU8MCSW",
        "type": "message",
        "subtype": "channel_join",
        "text": "<@U1DU8MCSW|theo.info> has joined the channel",
        "ts": "1464951835.000002"
    },
    {
        "user": "U1E3HLTN3",
        "type": "message",
        "subtype": "channel_join",
        "text": "<@U1E3HLTN3|vilma> has joined the channel",
        "ts": "1464987272.000003"
    }
]