[
    {
        "type": "message",
        "user": "U12FEFFB8",
        "text": "A van serving snacks sounds great but also a place to receive people that want to visit,a cafe restaurant as you have suggested with the addition of a corner where you can sell some vegan non-food items, a playground both for children and adults next to it or at least a play space to start with,  and with time some kind of exhibition about the project...",
        "ts": "1463327711.000068",
        "reactions": [
            {
                "name": "+1",
                "users": [
                    "U12ADP23E",
                    "U12NDBBUK"
                ],
                "count": 2
            }
        ]
    }
]