[
    {
        "user": "U12TVPB35",
        "type": "message",
        "subtype": "channel_join",
        "text": "<@U12TVPB35|simonav> has joined the channel",
        "ts": "1463163566.000002"
    },
    {
        "user": "U12TVPB35",
        "purpose": "for the future,vegan investors",
        "type": "message",
        "subtype": "channel_purpose",
        "text": "<@U12TVPB35|simonav> set the channel purpose: for the future,vegan investors",
        "ts": "1463163574.000003"
    },
    {
        "type": "message",
        "user": "U12TVPB35",
        "text": "<http://vegnews.com/articles/page.do?pageId=7699&amp;catId=1>",
        "attachments": [
            {
                "service_name": "VegNews.com",
                "title": "New Investment Group to Finance Vegan Companies",
                "title_link": "http://vegnews.com/articles/page.do?pageId=7699&catId=1",
                "text": "New Crop Capital is distributing $25 million in capital to food innovators and",
                "fallback": "VegNews.com: New Investment Group to Finance Vegan Companies",
                "image_url": "http://vegnews.com/web/uploads/asset/7575/file/VegNews.Money.jpg",
                "from_url": "http://vegnews.com/articles/page.do?pageId=7699&catId=1",
                "image_width": 423,
                "image_height": 250,
                "image_bytes": 76661,
                "id": 1
            }
        ],
        "ts": "1463163754.000004"
    },
    {
        "type": "message",
        "user": "U12TVPB35",
        "text": "<http://www.newcropcapital.com/>",
        "attachments": [
            {
                "service_name": "NewCropCapital.com",
                "title": "New Crop Capital",
                "title_link": "http://www.newcropcapital.com/",
                "text": "Funding the next generation of food industry disruptors",
                "fallback": "NewCropCapital.com: New Crop Capital",
                "image_url": "http://www.NewCropCapital.com/images/icon.jpg",
                "from_url": "http://www.newcropcapital.com/",
                "image_width": 476,
                "image_height": 250,
                "image_bytes": 176212,
                "id": 1
            }
        ],
        "ts": "1463163765.000006"
    },
    {
        "user": "U13EXK1C5",
        "inviter": "U12TVPB35",
        "type": "message",
        "subtype": "channel_join",
        "text": "<@U13EXK1C5|anamoreira> has joined the channel",
        "ts": "1463163914.000008"
    },
    {
        "user": "U128RR0EQ",
        "inviter": "U12TVPB35",
        "type": "message",
        "subtype": "channel_join",
        "text": "<@U128RR0EQ|canercandan> has joined the channel",
        "ts": "1463163914.000009"
    },
    {
        "user": "U13NVKKS8",
        "inviter": "U12TVPB35",
        "type": "message",
        "subtype": "channel_join",
        "text": "<@U13NVKKS8|bartje> has joined the channel",
        "ts": "1463163915.000010"
    },
    {
        "user": "U12LBU64B",
        "inviter": "U12TVPB35",
        "type": "message",
        "subtype": "channel_join",
        "text": "<@U12LBU64B|charlmon> has joined the channel",
        "ts": "1463163915.000011"
    },
    {
        "user": "U12DP676J",
        "inviter": "U12TVPB35",
        "type": "message",
        "subtype": "channel_join",
        "text": "<@U12DP676J|daniel-roux> has joined the channel",
        "ts": "1463163915.000012"
    },
    {
        "user": "U12SWDXT3",
        "inviter": "U12TVPB35",
        "type": "message",
        "subtype": "channel_join",
        "text": "<@U12SWDXT3|leaoleal> has joined the channel",
        "ts": "1463163916.000013"
    },
    {
        "user": "U12ADP23E",
        "inviter": "U12TVPB35",
        "type": "message",
        "subtype": "channel_join",
        "text": "<@U12ADP23E|sector> has joined the channel",
        "ts": "1463163916.000014"
    },
    {
        "user": "U127R2T19",
        "inviter": "U12TVPB35",
        "type": "message",
        "subtype": "channel_join",
        "text": "<@U127R2T19|geraldinestarke> has joined the channel",
        "ts": "1463163916.000015"
    },
    {
        "user": "U12AAQ8K1",
        "inviter": "U12TVPB35",
        "type": "message",
        "subtype": "channel_join",
        "text": "<@U12AAQ8K1|irmine-pema> has joined the channel",
        "ts": "1463163916.000016"
    },
    {
        "user": "U12C86XK3",
        "inviter": "U12TVPB35",
        "type": "message",
        "subtype": "channel_join",
        "text": "<@U12C86XK3|ivoraf> has joined the channel",
        "ts": "1463163917.000017"
    },
    {
        "user": "U14FF9U66",
        "inviter": "U12TVPB35",
        "type": "message",
        "subtype": "channel_join",
        "text": "<@U14FF9U66|jeroenboss> has joined the channel",
        "ts": "1463163917.000018"
    },
    {
        "user": "U12A1M1Q8",
        "inviter": "U12TVPB35",
        "type": "message",
        "subtype": "channel_join",
        "text": "<@U12A1M1Q8|kati> has joined the channel",
        "ts": "1463163917.000019"
    },
    {
        "user": "U12FEFFB8",
        "inviter": "U12TVPB35",
        "type": "message",
        "subtype": "channel_join",
        "text": "<@U12FEFFB8|felix2001> has joined the channel",
        "ts": "1463163917.000020"
    },
    {
        "user": "U12LX3NTD",
        "inviter": "U12TVPB35",
        "type": "message",
        "subtype": "channel_join",
        "text": "<@U12LX3NTD|nnsoares> has joined the channel",
        "ts": "1463163917.000021"
    },
    {
        "user": "U12A8854L",
        "inviter": "U12TVPB35",
        "type": "message",
        "subtype": "channel_join",
        "text": "<@U12A8854L|seanlall> has joined the channel",
        "ts": "1463163918.000022"
    },
    {
        "user": "U12FDKCTU",
        "inviter": "U12TVPB35",
        "type": "message",
        "subtype": "channel_join",
        "text": "<@U12FDKCTU|mattias> has joined the channel",
        "ts": "1463163928.000023"
    },
    {
        "user": "U129RSXGW",
        "inviter": "U12TVPB35",
        "type": "message",
        "subtype": "channel_join",
        "text": "<@U129RSXGW|maggie67> has joined the channel",
        "ts": "1463163928.000024"
    },
    {
        "user": "U12A98M7U",
        "inviter": "U12TVPB35",
        "type": "message",
        "subtype": "channel_join",
        "text": "<@U12A98M7U|melissa> has joined the channel",
        "ts": "1463163928.000025"
    },
    {
        "user": "U12NDBBUK",
        "inviter": "U12TVPB35",
        "type": "message",
        "subtype": "channel_join",
        "text": "<@U12NDBBUK|naomi> has joined the channel",
        "ts": "1463163962.000026"
    },
    {
        "user": "U129BTR18",
        "inviter": "U12TVPB35",
        "type": "message",
        "subtype": "channel_join",
        "text": "<@U129BTR18|tiagopita> has joined the channel",
        "ts": "1463163962.000027"
    },
    {
        "user": "U12AGRQ75",
        "inviter": "U12TVPB35",
        "type": "message",
        "subtype": "channel_join",
        "text": "<@U12AGRQ75|avegan> has joined the channel",
        "ts": "1463163962.000028"
    },
    {
        "user": "U13JUCX1S",
        "inviter": "U12TVPB35",
        "type": "message",
        "subtype": "channel_join",
        "text": "<@U13JUCX1S|sharonmelaffefon> has joined the channel",
        "ts": "1463163962.000029"
    },
    {
        "user": "U15L9NJMA",
        "inviter": "U12TVPB35",
        "type": "message",
        "subtype": "channel_join",
        "text": "<@U15L9NJMA|henrique> has joined the channel",
        "ts": "1463163964.000030"
    },
    {
        "user": "U161R3DFE",
        "inviter": "U12TVPB35",
        "type": "message",
        "subtype": "channel_join",
        "text": "<@U161R3DFE|jmac> has joined the channel",
        "ts": "1463163964.000031"
    },
    {
        "user": "U12A47D9R",
        "inviter": "U12TVPB35",
        "type": "message",
        "subtype": "channel_join",
        "text": "<@U12A47D9R|joker> has joined the channel",
        "ts": "1463163964.000032"
    },
    {
        "user": "U1729LJJY",
        "inviter": "U12TVPB35",
        "type": "message",
        "subtype": "channel_join",
        "text": "<@U1729LJJY|glenmonks1> has joined the channel",
        "ts": "1463163964.000033"
    },
    {
        "user": "U135C9RED",
        "inviter": "U12TVPB35",
        "type": "message",
        "subtype": "channel_join",
        "text": "<@U135C9RED|mecs3> has joined the channel",
        "ts": "1463163965.000034"
    },
    {
        "user": "U17TZS6AX",
        "inviter": "U12TVPB35",
        "type": "message",
        "subtype": "channel_join",
        "text": "<@U17TZS6AX|kohann> has joined the channel",
        "ts": "1463163965.000035"
    },
    {
        "user": "U186N8S49",
        "inviter": "U12TVPB35",
        "type": "message",
        "subtype": "channel_join",
        "text": "<@U186N8S49|carinaalves> has joined the channel",
        "ts": "1463163965.000036"
    },
    {
        "user": "U12BB9E03",
        "inviter": "U12TVPB35",
        "type": "message",
        "subtype": "channel_join",
        "text": "<@U12BB9E03|erwan.lr> has joined the channel",
        "ts": "1463163965.000037"
    }
]