[
    {
        "type": "message",
        "user": "U1BEP8Z4Y",
        "text": "hi everyone:) have you seen comment on  vegoa fb from Barbara Frida Allen about loan? do you think its something serious or just a scam?",
        "ts": "1465385251.000002"
    },
    {
        "type": "message",
        "user": "U1BEP8Z4Y",
        "text": "ill paste it here",
        "ts": "1465385414.000003"
    },
    {
        "type": "message",
        "user": "U1BEP8Z4Y",
        "text": "\" LOAN OFFER FAST AND SAFE\nHello Mr / Ms\nAddress, Email: <mailto:kevindossou-yovo@outlook.com|kevindossou-yovo@outlook.com>\nIT IS WITH A REAL PLEASURE THAT I WANT TO HELP YOU\nThis is a very serious announcement. You who are in trouble, you who had unpaid deadlines, you who had different problem. Please contact me for a solution to your problems.\nEarlier this new year 2016, our financial organization Global Finance has many advantages.\nYou have financial worries? You want to be a loan to buy your car? You want a loan to complete your home? You want a loan to finance your projects? Your personal needs loan remained without results? You want a loan for the education of your children, more concern to you. I am a trader and I grant loans ranging from $ 2,000 to $ 5,000,000 with annual interest rate of 3% to all honest people. Simply contact us by email: <mailto:kevindossou-yovo@outlook.com|kevindossou-yovo@outlook.com>\n\nAddress, Email: <mailto:kevindossou-yovo@outlook.com|kevindossou-yovo@outlook.com>\nAddress, Email: <mailto:kevindossou-yovo@outlook.com|kevindossou-yovo@outlook.com>\n\nPs: This is serious, joker abstain\n\nThank you for getting the message\"",
        "ts": "1465385429.000004"
    },
    {
        "type": "message",
        "user": "U12BB9E03",
        "text": "Looks like a scam ^^",
        "ts": "1465388445.000005"
    },
    {
        "type": "message",
        "user": "U15L9NJMA",
        "text": "i agree",
        "ts": "1465390125.000006"
    },
    {
        "type": "message",
        "user": "U1BEP8Z4Y",
        "text": "true",
        "ts": "1465390621.000007"
    },
    {
        "type": "message",
        "user": "U12TVPB35",
        "text": "looks like a sc(",
        "ts": "1465402566.000008"
    },
    {
        "type": "message",
        "user": "U12TVPB35",
        "text": "scam :disappointed:",
        "ts": "1465402571.000009"
    },
    {
        "user": "U1F7ZB45N",
        "type": "message",
        "subtype": "channel_join",
        "text": "<@U1F7ZB45N|emiliedeconde> has joined the channel",
        "ts": "1465415077.000010"
    },
    {
        "type": "message",
        "user": "U19CCLDRR",
        "text": "<@U12TVPB35>: Hi Simona, \n\nSo I don't contact the same Donors your email went out to, please can you message me which organisation you contacted, thanks. \n\nAlso is Vegoa open to individual donors as well as organisations?\n\nLastly, I have a question about the donor amount requested, 200k. Why not 375k (425k (full amount) minus the 50k deposit)?",
        "ts": "1465416563.000011"
    },
    {
        "type": "message",
        "user": "U12FDKCTU",
        "text": "Hi Jamie. We obviously don't want to lend more than necessary. The less we need to lend the better. The loan amount = 425000- fees collected",
        "ts": "1465417020.000012"
    },
    {
        "type": "message",
        "user": "U12TVPB35",
        "text": "<@U19CCLDRR>: you can see which one i contacted in the doc i prepared...one sec and i repost it here :slightly_smiling_face:",
        "ts": "1465419118.000013"
    },
    {
        "type": "message",
        "subtype": "file_share",
        "text": "<@U12TVPB35|simonav> shared a file: <https://veganhills.slack.com/files/simonav/F1C6HSHKP/veganinvestorslist|Vegan donors/sponsors list>",
        "file": {
            "id": "F1C6HSHKP",
            "created": 1464324233,
            "timestamp": 1464324233,
            "name": "Veganinvestorslist",
            "title": "Vegan donors/sponsors list",
            "mimetype": "application/vnd.google-apps.document",
            "filetype": "gdoc",
            "pretty_type": "GDocs Document",
            "user": "U12TVPB35",
            "editable": false,
            "size": 684,
            "mode": "external",
            "is_external": true,
            "external_type": "gdrive",
            "is_public": true,
            "public_url_shared": false,
            "display_as_bot": false,
            "username": "",
            "url_private": "https://docs.google.com/document/d/1a6nbCSsYci5-I8u7SF3buu47wRtkUVuKap6KceBXRWA/edit?usp=drivesdk",
            "thumb_64": "https://a.slack-edge.com/66f9/img/files/gdraw_64.png",
            "thumb_360": "https://a.slack-edge.com/272a/img/files/gdoc_360.png",
            "thumb_360_w": 360,
            "thumb_360_h": 167,
            "permalink": "https://veganhills.slack.com/files/simonav/F1C6HSHKP/veganinvestorslist",
            "channels": [
                "C18QRL1K2"
            ],
            "groups": [
    
            ],
            "ims": [
    
            ],
            "comments_count": 0,
            "reactions": [
                {
                    "name": "+1",
                    "users": [
                        "U12ADP23E",
                        "U1F7ZB45N"
                    ],
                    "count": 2
                }
            ]
        },
        "user": "U12TVPB35",
        "upload": false,
        "display_as_bot": false,
        "username": "<@U12TVPB35|simonav>",
        "bot_id": null,
        "ts": "1465419204.000015"
    },
    {
        "type": "message",
        "user": "U12TVPB35",
        "text": "i got one (not positive) answert so far (i m updating the doc :slightly_smiling_face: )",
        "ts": "1465419226.000017"
    }
]