[
    {
        "type": "message",
        "user": "U1BB67R4Y",
        "text": "just cos investors invest in returns of equity not ur land neither ur rights so no offense in if u business man and second even donation is require to return something to donors nobody donate like this",
        "ts": "1464602984.000035"
    },
    {
        "type": "message",
        "user": "U129BTR18",
        "text": "<@U12TVPB35>: it does make sense, we could return more money",
        "ts": "1464626499.000036"
    },
    {
        "type": "message",
        "user": "U129BTR18",
        "text": "if we are forced into a loan we have to pay interest rate anyway",
        "ts": "1464626514.000037"
    },
    {
        "type": "message",
        "user": "U129BTR18",
        "text": "Just got some guy willing to help other with money",
        "ts": "1464629919.000038"
    },
    {
        "type": "message",
        "user": "U129BTR18",
        "text": "for free as long he gets the money back",
        "ts": "1464629928.000039"
    },
    {
        "type": "message",
        "user": "U129BTR18",
        "text": "so is working",
        "ts": "1464629932.000040"
    },
    {
        "type": "message",
        "user": "U12TVPB35",
        "text": "fantastic! <@U129BTR18>  check above in this chat the doc text i started to write if it helps and doc with the list of possible \"donors or whatever we want to call them\" to contact for the loan...how can i help to proceed",
        "ts": "1464634401.000041"
    }
]