[
    {
        "type": "message",
        "user": "U14FF9U66",
        "text": "Im totally happy with the text as well!! Was indeed important to change the 3ha and families.. I did a lot of promoting here on the local flee market in barao de sao jao yesterday :) really a lot of positive reactions and people that i will take to visit in the coming week :) ",
        "ts": "1464011947.000084",
        "reactions": [
            {
                "name": "+1",
                "users": [
                    "U12TVPB35"
                ],
                "count": 1
            }
        ]
    },
    {
        "type": "message",
        "user": "U129BTR18",
        "text": "thank you everyone for calling and handling promotion",
        "ts": "1464012310.000085"
    },
    {
        "type": "message",
        "user": "U129BTR18",
        "text": "is really working",
        "ts": "1464012314.000086"
    },
    {
        "type": "message",
        "user": "U129BTR18",
        "text": "we go 6 people signing up in 2 days",
        "ts": "1464012323.000087"
    },
    {
        "type": "message",
        "user": "U129BTR18",
        "text": "Hi everyone, we got loads of people signing up",
        "ts": "1464014116.000088"
    },
    {
        "type": "message",
        "user": "U129BTR18",
        "text": "is someone calling them",
        "ts": "1464014122.000089"
    },
    {
        "type": "message",
        "user": "U129BTR18",
        "text": "where can I find the notes on each person",
        "ts": "1464014134.000090"
    },
    {
        "type": "message",
        "user": "U129BTR18",
        "text": "I am getting worried that we are not receiving more payments, I get loads people sending me PM in facebook",
        "ts": "1464014182.000091"
    },
    {
        "type": "message",
        "user": "U12NDBBUK",
        "text": "I've been texting everyone on the list/ had calls/fb and had Skype with Lalit. Can you see my M column on the Google sheets? ",
        "ts": "1464020451.000092"
    },
    {
        "type": "message",
        "user": "U12NDBBUK",
        "text": "The notes are up to date I just checked again, only a Portuguese speaker and an earlier French one not contacted. I have more notes for Leonardo as he messaged on fb- he was under the impression that he would get 3 acres so may be rethinking but seems lovely and has money/ ready to move. Recent ones all done. Quite a lot of people not responding to text or phone call which I think may mean they're not joining. ",
        "ts": "1464025290.000093"
    },
    {
        "type": "message",
        "user": "U127R2T19",
        "text": "I am in contact with Diana Heit, they will come visit us as soon as possible. Didn't added the note on the sheet",
        "ts": "1464025690.000094"
    },
    {
        "type": "message",
        "user": "U127R2T19",
        "text": "We also had a skype call yesterday with a french couple that didn't sign the form yet because they will first visit in a few days",
        "ts": "1464025722.000095"
    },
    {
        "type": "message",
        "user": "U127R2T19",
        "text": "I was also contacted by another french guy that wants to join but hasn't the 10k yet, he will visit us soon as well",
        "ts": "1464025747.000096"
    },
    {
        "type": "message",
        "user": "U127R2T19",
        "text": "BTW I worked on the website today, I added the language menu EN / FR so now we can naviguate from the french version to the english one and added the pictures that were missing in the french version. Tomorrow I will review all the french text for correction, one of the french guy interested nicely send me a doc with the corrections to make.",
        "ts": "1464025958.000097"
    },
    {
        "type": "message",
        "user": "U127R2T19",
        "text": "Is there someone working on the portuguese version ? Would be very necessary I think ! Let me know so I can add it to the language menu",
        "ts": "1464025987.000098"
    },
    {
        "type": "message",
        "user": "U127R2T19",
        "text": "I also answered all the email on <mailto:hello@vegoa.org|hello@vegoa.org>",
        "ts": "1464026121.000099"
    },
    {
        "type": "message",
        "user": "U127R2T19",
        "text": "Would be great to have other french speaking helping me with the french group on FB with posting and answering questions, so we are always posting and giving news",
        "ts": "1464026200.000100"
    },
    {
        "type": "message",
        "user": "U127R2T19",
        "text": "I think we should also have some people posting updates on the english group as now tiago will not have access to internet so easily and we need to keep the group/page updated",
        "ts": "1464026240.000101"
    },
    {
        "type": "message",
        "user": "U12TVPB35",
        "text": "cool, I ll keep posting on groups tonight then",
        "ts": "1464027085.000102"
    },
    {
        "type": "message",
        "user": "U12FDKCTU",
        "text": "I can help with the French, Geraldine. Please let me know the pages.",
        "ts": "1464065807.000103"
    }
]