[
    {
        "type": "message",
        "user": "U12AGRQ75",
        "text": "Mattias and Simona are you going working with communications now? How is it going?",
        "ts": "1462126701.000034"
    }
]