[
    {
        "user": "U1729LJJY",
        "inviter": "U12BB9E03",
        "type": "message",
        "subtype": "channel_join",
        "text": "<@U1729LJJY|glenmonks1> has joined the channel",
        "ts": "1462731234.000038"
    }
]