[
    {
        "type": "message",
        "user": "U15L9NJMA",
        "text": "y en epanol, no ?",
        "ts": "1463829681.000050"
    },
    {
        "type": "message",
        "user": "U12TVPB35",
        "text": "<@U15L9NJMA>: can you translate it? my espanol es muy muy muy basic :confused:",
        "ts": "1463831486.000051"
    },
    {
        "type": "message",
        "user": "U15L9NJMA",
        "text": "yes, I can do it",
        "ts": "1463831509.000052"
    },
    {
        "type": "message",
        "user": "U12TVPB35",
        "text": "<https://docs.google.com/document/d/1cIjxikTKKYhj5PDE-wF1R55U-cikWxzU9RGPXi9uNEE/edit> that s the doc i shared :slightly_smiling_face: can u take care to post on spanish vegan pages then? that would be awesome :smiley:",
        "ts": "1463831738.000053"
    },
    {
        "type": "message",
        "subtype": "file_share",
        "text": "<@U12TVPB35|simonav> shared a file: <https://veganhills.slack.com/files/simonav/F1ACWP962/veganhillsfbgroups|VEGAN hills FB groups>",
        "file": {
            "id": "F1ACWP962",
            "created": 1463712936,
            "timestamp": 1463712936,
            "name": "VEGANhillsFBgroups",
            "title": "VEGAN hills FB groups",
            "mimetype": "application/vnd.google-apps.document",
            "filetype": "gdoc",
            "pretty_type": "GDocs Document",
            "user": "U12TVPB35",
            "editable": false,
            "size": 541,
            "mode": "external",
            "is_external": true,
            "external_type": "gdrive",
            "is_public": true,
            "public_url_shared": false,
            "display_as_bot": false,
            "username": "",
            "url_private": "https://docs.google.com/document/d/1cIjxikTKKYhj5PDE-wF1R55U-cikWxzU9RGPXi9uNEE/edit?usp=drivesdk",
            "thumb_64": "https://a.slack-edge.com/66f9/img/files/gdraw_64.png",
            "thumb_360": "https://a.slack-edge.com/272a/img/files/gdoc_360.png",
            "thumb_360_w": 360,
            "thumb_360_h": 167,
            "permalink": "https://veganhills.slack.com/files/simonav/F1ACWP962/veganhillsfbgroups",
            "channels": [
                "C12N7AL0J",
                "C1BJ4VB71"
            ],
            "groups": [
    
            ],
            "ims": [
    
            ],
            "comments_count": 0
        },
        "user": "U12TVPB35",
        "upload": false,
        "display_as_bot": false,
        "username": "<@U12TVPB35|simonav>",
        "bot_id": null,
        "ts": "1463831740.000054"
    },
    {
        "type": "message",
        "user": "U12TVPB35",
        "text": "started posting yesterday... i will post on about 20 groups per day + message about 20 friends, so FB doesnt accuse me of spam :wink: will b online later this eve, i m off with some amazing local people to a nearby refugee camp, we will help them to create their own veggie gardens :smiley:",
        "ts": "1463889770.000055"
    }
]