[
    {
        "type": "message",
        "user": "U12FDKCTU",
        "text": "Thanks Simona. I'm just worried that someone who reads that might think that it is only for families.",
        "ts": "1463902134.000056"
    },
    {
        "type": "message",
        "user": "U12NDBBUK",
        "text": "Hi guys we've had 5 new people fill out the forms in since Friday so something is working!!",
        "ts": "1463925113.000057"
    },
    {
        "type": "message",
        "user": "U127R2T19",
        "text": "Hey we just had a skype call with a french family very interested, they're going to book a flight next week and come meet us :wink:",
        "ts": "1463930240.000058"
    },
    {
        "type": "message",
        "user": "U127R2T19",
        "text": "I've got a lot of interested from the french groups",
        "ts": "1463930253.000059"
    },
    {
        "type": "message",
        "user": "U129BTR18",
        "text": "Agree with Matias, loads of people are getting confused with the families thing",
        "ts": "1463938118.000060"
    },
    {
        "type": "message",
        "user": "U129BTR18",
        "text": "and may create the wrong dynamic in the group",
        "ts": "1463938137.000061"
    },
    {
        "type": "message",
        "user": "U129BTR18",
        "text": "people don\u2019t get 3 hectares as well",
        "ts": "1463938158.000062"
    },
    {
        "type": "message",
        "user": "U12TVPB35",
        "text": "ok guys..shall i change the texts into \"people or families\"? i got a lot of interest from the berlin vegan group :slightly_smiling_face:",
        "ts": "1463944611.000063"
    },
    {
        "type": "message",
        "user": "U12TVPB35",
        "text": "the 3 hectars things i took from a previous post u posted <@U129BTR18> ..just tell me how to modify it :slightly_smiling_face: and i ll do those changes",
        "ts": "1463944662.000064"
    },
    {
        "type": "message",
        "user": "U12TVPB35",
        "text": "and then continue to post :slightly_smiling_face:",
        "ts": "1463944667.000065"
    },
    {
        "type": "message",
        "user": "U127R2T19",
        "text": "I think it's already great that you started sharing :wink:, my post is probably not perfect as well.",
        "ts": "1463944802.000070"
    },
    {
        "type": "message",
        "user": "U127R2T19",
        "text": "What I write now is household instead of families. We can maybe write household (singles, families or couples) to be very clear",
        "ts": "1463944846.000071"
    },
    {
        "type": "message",
        "user": "U127R2T19",
        "text": "Yes I also saw the post with the 3 hectares and I thought it was not great as it would make the people think they get a plot. Maybe just take it away and say they are gonna be part of a 100ha land near the beach :wink:",
        "ts": "1463944911.000072"
    },
    {
        "type": "message",
        "user": "U12TVPB35",
        "text": "oki doki...i ll modify right now....",
        "ts": "1463945019.000073"
    },
    {
        "type": "message",
        "user": "U127R2T19",
        "text": "I don't know what the others think, would be great to have others input on this ?",
        "ts": "1463945068.000074"
    },
    {
        "type": "message",
        "user": "U12TVPB35",
        "text": "Join us into this new Vegan adventure! We still have space for 10 household (singles, families or couples)! \n<https://www.facebook.com/groups/veganhills/>\nVegan Hills is the first Village of The Vegoa Project (in Algarve, South Portugal). This intentional community will consist of around 40 houses and plans to be 100% off grid and self-sustainable.\nLearn more about Vegoa: <http://vegoa.org/en/> &amp; Vegan Hills: <http://vegoa.org/en/joining/vegan-hills/>\nWhen joining Vegan Hills, you only pay 10,000\u20ac and be part of 100 hectares of beautiful land near the coast. There will be many business opportunities as well if you are wondering about generating income (our first project is <https://www.facebook.com/vegancamping/?fref=ts> ).\n\nContact us for more information!",
        "ts": "1463945139.000075"
    },
    {
        "type": "message",
        "user": "U12TVPB35",
        "text": "this is the modified text, I ll wait for more feedback b4 proceeding :slightly_smiling_face:",
        "ts": "1463945166.000076"
    },
    {
        "type": "message",
        "user": "U127R2T19",
        "text": "for me it's great",
        "ts": "1463945284.000077"
    },
    {
        "type": "message",
        "user": "U12ADP23E",
        "text": "The text I used: \n\nHello all!\nVegoa is one of the biggest vegan intentional communities in Europe, we have an 100 hectares property with expansion plans and would love to invite you to join. Also we are opening Vegoa camping this summer, so you can always come and visit us and get in love with our beautiful land!!\n<https://www.facebook.com/groups/vegantown/>",
        "ts": "1463946692.000078"
    },
    {
        "type": "message",
        "user": "U12TVPB35",
        "text": "thanks for sharing :slightly_smiling_face: \"will be\" i guess...tamera is the biggest at the moment, even if at the end they r not all vegans...",
        "ts": "1463947208.000079"
    },
    {
        "type": "message",
        "user": "U161R3DFE",
        "text": "Simona I think what you have written sounds great!",
        "ts": "1463949164.000080"
    },
    {
        "type": "message",
        "user": "U12FDKCTU",
        "text": "\"Households (singles, couples, families)\" works well. Just make household plural (households).",
        "ts": "1463977767.000081"
    },
    {
        "type": "message",
        "user": "U12TVPB35",
        "text": "thanks guys",
        "ts": "1463978738.000082"
    },
    {
        "type": "message",
        "user": "U12TVPB35",
        "text": "households, changed :slightly_smiling_face:",
        "ts": "1463978755.000083"
    }
]