[
    {
        "user": "U1G5FJ2M7",
        "type": "message",
        "subtype": "channel_join",
        "text": "<@U1G5FJ2M7|mimi> has joined the channel",
        "ts": "1465725361.000002"
    },
    {
        "type": "message",
        "user": "U129BTR18",
        "text": "Can someone please create a doc with a calendar when people are visiting?",
        "ts": "1465733667.000003"
    },
    {
        "type": "message",
        "user": "U129BTR18",
        "text": "is really hard for us to know",
        "ts": "1465733673.000004"
    }
]