[
    {
        "type": "message",
        "user": "U12A1M1Q8",
        "text": " <@U12TVPB35> <@U12NDBBUK> <@U161R3DFE> let's move to contact and see how we can share work, i. e. Who is gonna call who.",
        "ts": "1463642678.000016"
    },
    {
        "type": "message",
        "user": "U129BTR18",
        "text": "<@U12TVPB35>: we need a team to tell us how many people are missing",
        "ts": "1463645867.000017"
    },
    {
        "type": "message",
        "user": "U129BTR18",
        "text": "we had in total the 43 people registering",
        "ts": "1463645881.000018"
    },
    {
        "type": "message",
        "user": "U129BTR18",
        "text": "but people now have excuses to don\u2019t py",
        "ts": "1463645890.000019"
    },
    {
        "type": "message",
        "user": "U129BTR18",
        "text": "pay or need to visit",
        "ts": "1463645895.000020"
    },
    {
        "type": "message",
        "user": "U129BTR18",
        "text": "that\u2019s the reason why we need to call",
        "ts": "1463645903.000021"
    },
    {
        "type": "message",
        "user": "U129BTR18",
        "text": "I think it would be good to have someone Portuguese calling the Portuguese in the list",
        "ts": "1463645965.000022"
    },
    {
        "type": "message",
        "user": "U129BTR18",
        "text": "If people have no money maybe would be good to suggest they partner with others",
        "ts": "1463645990.000023"
    },
    {
        "type": "message",
        "user": "U12NDBBUK",
        "text": "Makes sense. How many are allowed in a group if we suggest sharing? ",
        "ts": "1463646083.000024"
    },
    {
        "type": "message",
        "user": "U12NDBBUK",
        "text": "contact isn't downloading for me. I have some time this morning to make calls if the list is available xx",
        "ts": "1463647424.000025"
    },
    {
        "type": "message",
        "user": "U129BTR18",
        "text": "you mean the list?",
        "ts": "1463647443.000026"
    },
    {
        "type": "message",
        "user": "U129BTR18",
        "text": "just shared with you",
        "ts": "1463647478.000027"
    },
    {
        "type": "message",
        "user": "U129BTR18",
        "text": "better to start by the end of the list",
        "ts": "1463647709.000028"
    },
    {
        "type": "message",
        "user": "U129BTR18",
        "text": "as those are the people that registered the most recently",
        "ts": "1463647721.000029"
    },
    {
        "type": "message",
        "user": "U12NDBBUK",
        "text": "Thanks just got it. Ok I'll do that",
        "ts": "1463648071.000030"
    },
    {
        "type": "message",
        "user": "U129BTR18",
        "text": "thank you",
        "ts": "1463648203.000031"
    },
    {
        "type": "message",
        "user": "U12NDBBUK",
        "text": "Will update the list when I know more have spoken with charlotte and have text all the English speakers asking for a convenient time to speak, haven't contacted the Portuguese and the contact form that is written in French. Rafi and his partner are arriving in Portugal tomorrow and seem keen ",
        "ts": "1463653183.000032"
    },
    {
        "type": "message",
        "user": "U129BTR18",
        "text": ":slightly_smiling_face:",
        "ts": "1463658429.000033"
    },
    {
        "type": "message",
        "user": "U129BTR18",
        "text": "We will receive them well",
        "ts": "1463658435.000034"
    },
    {
        "type": "message",
        "user": "U129BTR18",
        "text": "Thank you Naomi",
        "ts": "1463658440.000035"
    },
    {
        "type": "message",
        "user": "U129BTR18",
        "text": "Maybe someone can call to the french speakers",
        "edited": {
            "user": "U129BTR18",
            "ts": "1463659625.000000"
        },
        "ts": "1463659615.000036"
    },
    {
        "type": "message",
        "user": "U12BB9E03",
        "text": "Instead of going blind to use another software that we may left after a few weeks/months, I would recommend to list the features / functionalities we would like to have and then find something that have them.\nFor example, be able to create groups to manage authorisations (who has access to what) would be great, especially when organisations will be created.\nI tested the Humhub software, but it's like FB regarding the messages &amp; comments posted. So when new members will join, they might have to scroll all the way down to see the first topics or organisation's manifest etc, which is not really useful :disappointed:. Furthermore, the way messages are displayed use a damn lot of space on the screen (pictures below).\n\nIMO, a forum only accessible to members would do it :slightly_smiling_face:",
        "ts": "1463673163.000038"
    },
    {
        "type": "message",
        "subtype": "file_share",
        "text": "<@U12BB9E03|erwan.lr> uploaded a file: <https://veganhills.slack.com/files/erwan.lr/F1A8B9WNR/vegoa-test-humhub.png|vegoa-test-humhub.png>",
        "file": {
            "id": "F1A8B9WNR",
            "created": 1463673179,
            "timestamp": 1463673179,
            "name": "vegoa-test-humhub.png",
            "title": "vegoa-test-humhub.png",
            "mimetype": "image/png",
            "filetype": "png",
            "pretty_type": "PNG",
            "user": "U12BB9E03",
            "editable": false,
            "size": 165060,
            "mode": "hosted",
            "is_external": false,
            "external_type": "",
            "is_public": true,
            "public_url_shared": false,
            "display_as_bot": false,
            "username": "",
            "url_private": "https://files.slack.com/files-pri/T129BTQQ2-F1A8B9WNR/vegoa-test-humhub.png?t=xoxe-36317942818-50774082900-50794983538-94992aeae8",
            "url_private_download": "https://files.slack.com/files-pri/T129BTQQ2-F1A8B9WNR/download/vegoa-test-humhub.png?t=xoxe-36317942818-50774082900-50794983538-94992aeae8",
            "thumb_64": "https://files.slack.com/files-tmb/T129BTQQ2-F1A8B9WNR-137cde8298/vegoa-test-humhub_64.png?t=xoxe-36317942818-50774082900-50794983538-94992aeae8",
            "thumb_80": "https://files.slack.com/files-tmb/T129BTQQ2-F1A8B9WNR-137cde8298/vegoa-test-humhub_80.png?t=xoxe-36317942818-50774082900-50794983538-94992aeae8",
            "thumb_360": "https://files.slack.com/files-tmb/T129BTQQ2-F1A8B9WNR-137cde8298/vegoa-test-humhub_360.png?t=xoxe-36317942818-50774082900-50794983538-94992aeae8",
            "thumb_360_w": 360,
            "thumb_360_h": 284,
            "thumb_480": "https://files.slack.com/files-tmb/T129BTQQ2-F1A8B9WNR-137cde8298/vegoa-test-humhub_480.png?t=xoxe-36317942818-50774082900-50794983538-94992aeae8",
            "thumb_480_w": 480,
            "thumb_480_h": 379,
            "thumb_160": "https://files.slack.com/files-tmb/T129BTQQ2-F1A8B9WNR-137cde8298/vegoa-test-humhub_160.png?t=xoxe-36317942818-50774082900-50794983538-94992aeae8",
            "thumb_720": "https://files.slack.com/files-tmb/T129BTQQ2-F1A8B9WNR-137cde8298/vegoa-test-humhub_720.png?t=xoxe-36317942818-50774082900-50794983538-94992aeae8",
            "thumb_720_w": 720,
            "thumb_720_h": 568,
            "thumb_960": "https://files.slack.com/files-tmb/T129BTQQ2-F1A8B9WNR-137cde8298/vegoa-test-humhub_960.png?t=xoxe-36317942818-50774082900-50794983538-94992aeae8",
            "thumb_960_w": 960,
            "thumb_960_h": 757,
            "thumb_1024": "https://files.slack.com/files-tmb/T129BTQQ2-F1A8B9WNR-137cde8298/vegoa-test-humhub_1024.png?t=xoxe-36317942818-50774082900-50794983538-94992aeae8",
            "thumb_1024_w": 1024,
            "thumb_1024_h": 808,
            "image_exif_rotation": 1,
            "original_w": 1170,
            "original_h": 923,
            "permalink": "https://veganhills.slack.com/files/erwan.lr/F1A8B9WNR/vegoa-test-humhub.png",
            "permalink_public": "https://slack-files.com/T129BTQQ2-F1A8B9WNR-e1b5f116ee",
            "channels": [
                "C12N7AL0J"
            ],
            "groups": [
    
            ],
            "ims": [
    
            ],
            "comments_count": 0
        },
        "user": "U12BB9E03",
        "upload": true,
        "display_as_bot": false,
        "username": "<@U12BB9E03|erwan.lr>",
        "bot_id": null,
        "ts": "1463673183.000039"
    },
    {
        "type": "message",
        "user": "U12TVPB35",
        "text": "<@U12NDBBUK>: great work thank you!",
        "ts": "1463712807.000040"
    },
    {
        "type": "message",
        "user": "U12TVPB35",
        "text": "@all : I m trying to combine texts that Geraldine and Tiago beautifully wrote to create a post for joining vegan hills <https://docs.google.com/document/d/1cIjxikTKKYhj5PDE-wF1R55U-cikWxzU9RGPXi9uNEE/edit?usp=sharing>",
        "ts": "1463712854.000041"
    },
    {
        "type": "message",
        "user": "U12TVPB35",
        "text": "tell me what u think... i wrote xx family....10 missing would b proper?",
        "ts": "1463712884.000042"
    },
    {
        "type": "message",
        "user": "U12TVPB35",
        "text": "i m starting now an excel list of FB groups, and if u agree, tonight i can start post the finalised text everywhere :slightly_smiling_face:",
        "ts": "1463712911.000043"
    },
    {
        "type": "message",
        "subtype": "file_share",
        "text": "<@U12TVPB35|simonav> shared a file: <https://veganhills.slack.com/files/simonav/F1ACWP962/veganhillsfbgroups|VEGAN hills FB groups>",
        "file": {
            "id": "F1ACWP962",
            "created": 1463712936,
            "timestamp": 1463712936,
            "name": "VEGANhillsFBgroups",
            "title": "VEGAN hills FB groups",
            "mimetype": "application/vnd.google-apps.document",
            "filetype": "gdoc",
            "pretty_type": "GDocs Document",
            "user": "U12TVPB35",
            "editable": false,
            "size": 541,
            "mode": "external",
            "is_external": true,
            "external_type": "gdrive",
            "is_public": true,
            "public_url_shared": false,
            "display_as_bot": false,
            "username": "",
            "url_private": "https://docs.google.com/document/d/1cIjxikTKKYhj5PDE-wF1R55U-cikWxzU9RGPXi9uNEE/edit?usp=drivesdk",
            "thumb_64": "https://a.slack-edge.com/66f9/img/files/gdraw_64.png",
            "thumb_360": "https://a.slack-edge.com/272a/img/files/gdoc_360.png",
            "thumb_360_w": 360,
            "thumb_360_h": 167,
            "permalink": "https://veganhills.slack.com/files/simonav/F1ACWP962/veganhillsfbgroups",
            "channels": [
                "C12N7AL0J",
                "C1BJ4VB71"
            ],
            "groups": [
    
            ],
            "ims": [
    
            ],
            "comments_count": 0
        },
        "user": "U12TVPB35",
        "upload": false,
        "display_as_bot": false,
        "username": "<@U12TVPB35|simonav>",
        "bot_id": null,
        "ts": "1463712936.000044"
    },
    {
        "type": "message",
        "user": "U12TVPB35",
        "text": "collected already about 60 addresses between vegan and offgrid FB pages..I can post on them tonight (and add more), when u r ok with the text...I ll also ask free&amp;real if I can post on their page, they have quite a huge follow up worldwide.. <https://docs.google.com/spreadsheets/d/10k5MrA538chqLPtFGOEX2NsV9_SUatymkODAGw4PcqU/edit?usp=sharing>",
        "ts": "1463718903.000045"
    },
    {
        "type": "message",
        "subtype": "file_share",
        "text": "<@U12TVPB35|simonav> shared a file: <https://veganhills.slack.com/files/simonav/F1AC0TYHZ/fbpagesandgroupstopostto-foglio1|FB Pages and groups to post to>",
        "file": {
            "id": "F1AC0TYHZ",
            "created": 1463718904,
            "timestamp": 1463718904,
            "name": "FBPagesandgroupstopostto-Foglio1",
            "title": "FB Pages and groups to post to",
            "mimetype": "application/vnd.google-apps.spreadsheet",
            "filetype": "gsheet",
            "pretty_type": "GDocs Spreadsheet",
            "user": "U12TVPB35",
            "editable": false,
            "size": 2994,
            "mode": "external",
            "is_external": true,
            "external_type": "gdrive",
            "is_public": true,
            "public_url_shared": false,
            "display_as_bot": false,
            "username": "",
            "url_private": "https://docs.google.com/spreadsheets/d/10k5MrA538chqLPtFGOEX2NsV9_SUatymkODAGw4PcqU/edit?usp=drivesdk",
            "thumb_64": "https://a.slack-edge.com/66f9/img/files/gsheet_64.png",
            "thumb_360": "https://a.slack-edge.com/66f9/img/files/gsheet_360.png",
            "thumb_360_w": 360,
            "thumb_360_h": 167,
            "permalink": "https://veganhills.slack.com/files/simonav/F1AC0TYHZ/fbpagesandgroupstopostto-foglio1",
            "channels": [
                "C12N7AL0J",
                "C1BJ4VB71"
            ],
            "groups": [
    
            ],
            "ims": [
    
            ],
            "comments_count": 0
        },
        "user": "U12TVPB35",
        "upload": false,
        "display_as_bot": false,
        "username": "<@U12TVPB35|simonav>",
        "bot_id": null,
        "ts": "1463718904.000046"
    }
]