[
    {
        "user": "U129BTR18",
        "type": "message",
        "subtype": "channel_join",
        "text": "<@U129BTR18|tiagopita> has joined the channel",
        "ts": "1461165285.000002"
    },
    {
        "user": "U128RR0EQ",
        "type": "message",
        "subtype": "channel_join",
        "text": "<@U128RR0EQ|canercandan> has joined the channel",
        "ts": "1461165419.000003"
    },
    {
        "user": "U127R2T19",
        "type": "message",
        "subtype": "channel_join",
        "text": "<@U127R2T19|geraldinestarke> has joined the channel",
        "ts": "1461166204.000004"
    },
    {
        "user": "U12A98M7U",
        "type": "message",
        "subtype": "channel_join",
        "text": "<@U12A98M7U|melissa> has joined the channel",
        "ts": "1461170046.000002"
    },
    {
        "user": "U129RSXGW",
        "type": "message",
        "subtype": "channel_join",
        "text": "<@U129RSXGW|maggie67> has joined the channel",
        "ts": "1461170262.000003"
    },
    {
        "user": "U12A1M1Q8",
        "type": "message",
        "subtype": "channel_join",
        "text": "<@U12A1M1Q8|kati> has joined the channel",
        "ts": "1461170864.000004"
    },
    {
        "user": "U12AAQ8K1",
        "type": "message",
        "subtype": "channel_join",
        "text": "<@U12AAQ8K1|irmine-pema> has joined the channel",
        "ts": "1461172110.000005"
    },
    {
        "user": "U12A8854L",
        "type": "message",
        "subtype": "channel_join",
        "text": "<@U12A8854L|seanlall> has joined the channel",
        "ts": "1461173266.000006"
    },
    {
        "user": "U12ADP23E",
        "type": "message",
        "subtype": "channel_join",
        "text": "<@U12ADP23E|sector> has joined the channel",
        "ts": "1461174161.000007"
    },
    {
        "user": "U12A47D9R",
        "type": "message",
        "subtype": "channel_join",
        "text": "<@U12A47D9R|joker> has joined the channel",
        "ts": "1461179145.000008"
    },
    {
        "user": "U12AGRQ75",
        "type": "message",
        "subtype": "channel_join",
        "text": "<@U12AGRQ75|avegan> has joined the channel",
        "ts": "1461181390.000009"
    },
    {
        "user": "U12C86XK3",
        "type": "message",
        "subtype": "channel_join",
        "text": "<@U12C86XK3|ivoraf> has joined the channel",
        "ts": "1461182150.000010"
    },
    {
        "user": "U12BB9E03",
        "type": "message",
        "subtype": "channel_join",
        "text": "<@U12BB9E03|erwan.lr> has joined the channel",
        "ts": "1461186543.000011"
    },
    {
        "type": "message",
        "user": "U129BTR18",
        "text": "<https://www.youtube.com/watch?v=dZF6d3gUdd0>",
        "attachments": [
            {
                "service_name": "YouTube",
                "service_url": "https://www.youtube.com/",
                "title": "We Create - Why we need handbuilt homes",
                "title_link": "https://www.youtube.com/watch?v=dZF6d3gUdd0",
                "author_name": "Cari Corbet-Owen",
                "author_link": "https://www.youtube.com/channel/UC7nBVa2P5dHoBKckXHRMNMg",
                "thumb_url": "https://i.ytimg.com/vi/dZF6d3gUdd0/hqdefault.jpg",
                "thumb_width": 480,
                "thumb_height": 360,
                "fallback": "YouTube Video: We Create - Why we need handbuilt homes",
                "video_html": "<iframe width=\"400\" height=\"225\" src=\"https://www.youtube.com/embed/dZF6d3gUdd0?feature=oembed&autoplay=1&iv_load_policy=3\" frameborder=\"0\" allowfullscreen></iframe>",
                "video_html_width": 400,
                "video_html_height": 225,
                "from_url": "https://www.youtube.com/watch?v=dZF6d3gUdd0",
                "id": 1
            }
        ],
        "ts": "1461191175.000012"
    },
    {
        "user": "U12DP676J",
        "type": "message",
        "subtype": "channel_join",
        "text": "<@U12DP676J|daniel-roux> has joined the channel",
        "ts": "1461196316.000014"
    },
    {
        "user": "U12FDKCTU",
        "type": "message",
        "subtype": "channel_join",
        "text": "<@U12FDKCTU|mattias> has joined the channel",
        "ts": "1461212418.000015"
    },
    {
        "user": "U12FEFFB8",
        "type": "message",
        "subtype": "channel_join",
        "text": "<@U12FEFFB8|felix2001> has joined the channel",
        "ts": "1461221849.000016"
    }
]