[
    {
        "user": "U1729LJJY",
        "type": "message",
        "subtype": "channel_join",
        "text": "<@U1729LJJY|glenmonks1> has joined the channel",
        "ts": "1462705864.000060"
    }
]