[
    {
        "type": "message",
        "user": "U129BTR18",
        "text": "<@U19CCLDRR>: me and Erwan are in the land. You can ask for the signed documents to <@U128RR0EQ> and <@U127R2T19>  we will not have much time on the internet",
        "ts": "1463938228.000009",
        "reactions": [
            {
                "name": "+1",
                "users": [
                    "U19CCLDRR"
                ],
                "count": 1
            }
        ]
    },
    {
        "type": "message",
        "user": "U19CCLDRR",
        "text": "<@U128RR0EQ>: <@U127R2T19> Hi :slightly_smiling_face: Please see my message above, are you able to help? Thanks",
        "ts": "1463938398.000010"
    },
    {
        "type": "message",
        "user": "U127R2T19",
        "text": "Hey Jamie, <@U129BTR18> I don't have the contact of the lawyer so don't know if she already translated the paperwork ?",
        "ts": "1463938484.000011"
    },
    {
        "type": "message",
        "subtype": "file_share",
        "text": "<@U129BTR18|tiagopita> uploaded a file: <https://veganhills.slack.com/files/tiagopita/F1ARVFGCW/cpcv_ingl__s.doc|CPCV ingl\u00eas.doc>",
        "file": {
            "id": "F1ARVFGCW",
            "created": 1463938606,
            "timestamp": 1463938606,
            "name": "CPCV ingl\u00eas.doc",
            "title": "CPCV ingl\u00eas.doc",
            "mimetype": "application/msword",
            "filetype": "doc",
            "pretty_type": "Word Document",
            "user": "U129BTR18",
            "editable": false,
            "size": 50688,
            "mode": "hosted",
            "is_external": false,
            "external_type": "",
            "is_public": true,
            "public_url_shared": false,
            "display_as_bot": false,
            "username": "",
            "url_private": "https://files.slack.com/files-pri/T129BTQQ2-F1ARVFGCW/cpcv_ingl__s.doc?t=xoxe-36317942818-50774082900-50794983538-94992aeae8",
            "url_private_download": "https://files.slack.com/files-pri/T129BTQQ2-F1ARVFGCW/download/cpcv_ingl__s.doc?t=xoxe-36317942818-50774082900-50794983538-94992aeae8",
            "permalink": "https://veganhills.slack.com/files/tiagopita/F1ARVFGCW/cpcv_ingl__s.doc",
            "permalink_public": "https://slack-files.com/T129BTQQ2-F1ARVFGCW-fd26122e0b",
            "channels": [
                "C13062AAJ"
            ],
            "groups": [
    
            ],
            "ims": [
    
            ],
            "comments_count": 0,
            "reactions": [
                {
                    "name": "+1",
                    "users": [
                        "U19CCLDRR"
                    ],
                    "count": 1
                }
            ]
        },
        "user": "U129BTR18",
        "upload": true,
        "display_as_bot": false,
        "username": "<@U129BTR18|tiagopita>",
        "bot_id": null,
        "ts": "1463938606.000012"
    },
    {
        "type": "message",
        "user": "U129BTR18",
        "text": "This is the English one",
        "ts": "1463938612.000013"
    },
    {
        "type": "message",
        "user": "U129BTR18",
        "text": "When we signed there was a few changes, but does not affect anyone",
        "ts": "1463938635.000014"
    },
    {
        "type": "message",
        "user": "U129BTR18",
        "text": "<@U19CCLDRR>: the one for the loan is not ready and can\u2019t be signed until we have the 43 families",
        "ts": "1463938673.000015"
    },
    {
        "type": "message",
        "user": "U129BTR18",
        "text": "as soon as the lawyer sends it to me I will share",
        "ts": "1463938685.000016"
    },
    {
        "type": "message",
        "user": "U129BTR18",
        "text": "I doubt it will be the final version",
        "ts": "1463938694.000017"
    },
    {
        "type": "message",
        "user": "U127R2T19",
        "text": "as well we don't have the legal documents, you guys took them with you when we signed",
        "ts": "1463938739.000018"
    },
    {
        "type": "message",
        "user": "U127R2T19",
        "text": "we will scan them the next time we visit you",
        "ts": "1463938747.000019"
    },
    {
        "type": "message",
        "user": "U19CCLDRR",
        "text": "<@U127R2T19>: <@U129BTR18> Thanks for the update. Geraldine, when will you next visit Tiago to be able to do the scanning &amp; will they be translated into English?",
        "edited": {
            "user": "U19CCLDRR",
            "ts": "1463939683.000000"
        },
        "ts": "1463939644.000021"
    },
    {
        "type": "message",
        "user": "U129BTR18",
        "text": "<@U19CCLDRR>: no offence, but seeing the contracts should just stop you from paying not making a decision",
        "ts": "1463939854.000023"
    },
    {
        "type": "message",
        "user": "U129BTR18",
        "text": "you and anyone else",
        "ts": "1463939861.000024"
    }
]