[
    {
        "user": "U13EXK1C5",
        "inviter": "U12BB9E03",
        "type": "message",
        "subtype": "channel_join",
        "text": "<@U13EXK1C5|anamoreira> has joined the channel",
        "ts": "1461779051.000033"
    },
    {
        "user": "U13JUCX1S",
        "inviter": "U12BB9E03",
        "type": "message",
        "subtype": "channel_join",
        "text": "<@U13JUCX1S|sharonmelaffefon> has joined the channel",
        "ts": "1461779051.000034"
    },
    {
        "user": "U13NVKKS8",
        "inviter": "U12BB9E03",
        "type": "message",
        "subtype": "channel_join",
        "text": "<@U13NVKKS8|bartje> has joined the channel",
        "ts": "1461779051.000035"
    },
    {
        "user": "U13FL0GPN",
        "inviter": "U12BB9E03",
        "type": "message",
        "subtype": "channel_join",
        "text": "<@U13FL0GPN|gazansatef> has joined the channel",
        "ts": "1461779051.000036"
    }
]