[
    {
        "user": "U15L9NJMA",
        "inviter": "U12TVPB35",
        "type": "message",
        "subtype": "channel_join",
        "text": "<@U15L9NJMA|henrique> has joined the channel",
        "ts": "1462270325.000038"
    }
]