[
    {
        "type": "message",
        "user": "U14FF9U66",
        "text": "<!group> To build further momentum for Vegoa, it would very helpful (&amp; a must have, for some) to see the following information/documentation prior to investing: \n\n1)\tDocumentation of who owns the land\n2)\tLetter of intent to sell - signed by solicitor/lawyer\n3)\ta) Copy of the pending purchase contract \nb) Including details of deposit (bond) agreement \n4)\ta) Is the deposit (bond) refunded if the full buying price is not met\nb) If so, details of this legal process e.g. time scale etc  \n5)\tDetails of who is acting as Notary (Who\u2019s duty is to register the contract as a legal document with the government \n6)\tAny other legal document relating to the sale/purchase etc \n7)\tShare all the above information to all interested parties on Facebook and/or Slack (and preferably translated into English)",
        "ts": "1462728082.000042"
    },
    {
        "type": "message",
        "user": "U14FF9U66",
        "text": "Although most of us know the deposit is not refunded, in the highly unlikely case that the 400k is not met by september, it is good to mention it :)",
        "ts": "1462728176.000043"
    },
    {
        "type": "message",
        "user": "U12A1M1Q8",
        "text": "Very good point. We will try to get everything together ASAP.  Would really appreciate some admin help though :slightly_smiling_face: ",
        "ts": "1462728428.000044"
    },
    {
        "type": "message",
        "user": "U12AGRQ75",
        "text": "it seems reasonable that the people requesting such kind of docs and info offer themselves to do that kind of work",
        "ts": "1462728759.000045"
    },
    {
        "user": "U1729LJJY",
        "inviter": "U12BB9E03",
        "type": "message",
        "subtype": "channel_join",
        "text": "<@U1729LJJY|glenmonks1> has joined the channel",
        "ts": "1462731243.000046"
    },
    {
        "type": "message",
        "user": "U129BTR18",
        "text": "<@U14FF9U66>: the lawyer is drafting this contract, as soon as is it available we will share it.",
        "ts": "1462735461.000047"
    },
    {
        "type": "message",
        "user": "U129BTR18",
        "text": "I do not agree that should go on facebook",
        "ts": "1462735472.000048"
    },
    {
        "type": "message",
        "user": "U129BTR18",
        "text": "because of the owners privacy",
        "ts": "1462735485.000049"
    },
    {
        "type": "message",
        "user": "U129BTR18",
        "text": "but shared with everyone interested in Joining",
        "ts": "1462735512.000050"
    },
    {
        "type": "message",
        "user": "U129BTR18",
        "text": "anyway, this week I should get most of this stuff",
        "ts": "1462735535.000051"
    }
]