[
    {
        "type": "message",
        "user": "U161R3DFE",
        "text": "Can you clarify what you mean by Vegoa entities?",
        "ts": "1462653069.000040"
    },
    {
        "type": "message",
        "user": "U129BTR18",
        "text": "Sorry Organisations (working groups)",
        "ts": "1462653192.000041",
        "reactions": [
            {
                "name": "+1",
                "users": [
                    "U161R3DFE"
                ],
                "count": 1
            }
        ]
    }
]