[
    {
        "type": "message",
        "user": "U1F7ZB45N",
        "text": "Thank you Mattias :slightly_smiling_face:",
        "ts": "1465814962.000009"
    },
    {
        "type": "message",
        "user": "U1F7ZB45N",
        "text": "The manifest does not explain how it could be organize to have the opinion of the 90 % ! Have you an idea ?",
        "edited": {
            "user": "U1F7ZB45N",
            "ts": "1465827107.000000"
        },
        "ts": "1465815444.000010"
    },
    {
        "type": "message",
        "user": "U129BTR18",
        "text": "Emilie, I don\u2019t understand?",
        "ts": "1465815803.000011"
    },
    {
        "type": "message",
        "user": "U129BTR18",
        "text": "Normally we don\u2019t ask everyone their opinion",
        "ts": "1465815836.000012"
    },
    {
        "type": "message",
        "user": "U129BTR18",
        "text": "we should organise ourselves in Working groups (organisations) that only people that pay should be part off",
        "ts": "1465815862.000013"
    },
    {
        "type": "message",
        "user": "U129BTR18",
        "text": "The reason we are not doing that is because we need all possible help",
        "ts": "1465815878.000014"
    },
    {
        "type": "message",
        "user": "U1F7ZB45N",
        "text": "Hi Tiago, how are you ? I'm very happy to see that you want to create Working groups where only people that paid the membership should be part off. I really feel that it's important to create and I want to pay the membership today so I could create this with the help of everyone who wants to help, are you OK with this idea ?",
        "ts": "1465818465.000015"
    },
    {
        "type": "message",
        "user": "U129BTR18",
        "text": "Yes. A few working groups I suggest",
        "ts": "1465819703.000016"
    },
    {
        "type": "message",
        "user": "U129BTR18",
        "text": "- Communication",
        "edited": {
            "user": "U129BTR18",
            "ts": "1465819727.000000"
        },
        "ts": "1465819715.000017"
    },
    {
        "type": "message",
        "user": "U129BTR18",
        "text": "- Admin",
        "edited": {
            "user": "U129BTR18",
            "ts": "1465819742.000000"
        },
        "ts": "1465819718.000018"
    },
    {
        "type": "message",
        "user": "U129BTR18",
        "text": "- Translations",
        "ts": "1465819754.000021"
    },
    {
        "type": "message",
        "user": "U129BTR18",
        "text": "- Joining &amp; Payments",
        "ts": "1465819781.000022"
    },
    {
        "type": "message",
        "user": "U1F7ZB45N",
        "text": "We'll need a place to do it ? Is it on Slack or Facebook in special closed groups ?",
        "ts": "1465825383.000023"
    },
    {
        "type": "message",
        "user": "U129BTR18",
        "text": "we can create a channel to each, but each group could organise in different ways",
        "ts": "1465825647.000024"
    },
    {
        "type": "message",
        "user": "U1F7ZB45N",
        "text": "I think, I suggest that it should not be accessible to new people coming that did not pay the membership because it could create some kind of confusion",
        "ts": "1465825840.000025"
    },
    {
        "type": "message",
        "user": "U129BTR18",
        "text": "agree",
        "ts": "1465825985.000026"
    },
    {
        "type": "message",
        "user": "U1F7ZB45N",
        "text": "Ok, great, I propose to create these 4 Working groups on Facebook closed groups, and you accept on it only people who paid the membership.",
        "ts": "1465826212.000027"
    },
    {
        "type": "message",
        "user": "U129BTR18",
        "text": "ok",
        "ts": "1465826306.000028"
    },
    {
        "type": "message",
        "user": "U1F7ZB45N",
        "text": "I propose that we could be active in the 4 groups but only a different admin each group, am I good with this idea ?",
        "ts": "1465826512.000029"
    },
    {
        "type": "message",
        "user": "U129BTR18",
        "text": "yes",
        "ts": "1465826529.000030"
    },
    {
        "type": "message",
        "user": "U1F7ZB45N",
        "text": "So I need 4 admin to create each :  Communication, Translations\n Joining &amp; Payments, Admin",
        "edited": {
            "user": "U1F7ZB45N",
            "ts": "1465826901.000000"
        },
        "ts": "1465826597.000031"
    },
    {
        "type": "message",
        "user": "U129BTR18",
        "text": "We need the reason why each person on the list does not pay, that we can try to solve the problems  they have starting by the biggest group",
        "ts": "1465826644.000033",
        "reactions": [
            {
                "name": "+1",
                "users": [
                    "U12FDKCTU"
                ],
                "count": 1
            }
        ]
    },
    {
        "type": "message",
        "user": "U1F7ZB45N",
        "text": "right",
        "ts": "1465826665.000035"
    },
    {
        "type": "message",
        "user": "U129BTR18",
        "text": "if is trust of focused on trust if is visiting the land we focus on accomodatting them  and on and on",
        "ts": "1465826665.000036",
        "reactions": [
            {
                "name": "+1",
                "users": [
                    "U1F7ZB45N"
                ],
                "count": 1
            }
        ]
    },
    {
        "type": "message",
        "user": "U1F7ZB45N",
        "text": "Good idea, it could be both",
        "ts": "1465826989.000038"
    },
    {
        "user": "U128RR0EQ",
        "type": "message",
        "subtype": "channel_leave",
        "text": "<@U128RR0EQ|canercandan> has left the channel",
        "ts": "1465828529.000040"
    },
    {
        "user": "U1GCJDBGX",
        "type": "message",
        "subtype": "channel_join",
        "text": "<@U1GCJDBGX|lucanmulder> has joined the channel",
        "ts": "1465830360.000041"
    },
    {
        "user": "U1GCMQC7J",
        "type": "message",
        "subtype": "channel_join",
        "text": "<@U1GCMQC7J|manou-rudra> has joined the channel",
        "ts": "1465831406.000042"
    },
    {
        "type": "message",
        "user": "U12BB9E03",
        "text": "The transparency folder on the google drive has been made public: <https://drive.google.com/folderview?id=0B-c519ydRNvadWlHbjRsdUFrR0E&amp;usp=sharing>\n\nCurrently there are two files about the accounting in it: a PDF from the bank with all the transactions, and a .gnucash file (which can be loaded with the GnuCash software: <http://www.gnucash.org/>) also about the transactions but more detailed.",
        "edited": {
            "user": "U12BB9E03",
            "ts": "1465837483.000000"
        },
        "ts": "1465837446.000043"
    },
    {
        "type": "message",
        "user": "U12BB9E03",
        "text": "These are the only two accounting documents I keep up to date.\n\nI never had other ones in charge, such as <https://docs.google.com/spreadsheets/d/14wtCJ9mnedtM-GgI3CtI6LtXP2d1VEj3y9brkp26_II/edit#gid=0> where everyone with the link can edit :x",
        "ts": "1465837773.000046"
    },
    {
        "type": "message",
        "user": "U129BTR18",
        "text": "Got an answer from the lawyer. Rui Mauricio. We can remove clause 2. The contract is ready to sign. If you guys want it in English he will have to involve a third lawyer",
        "ts": "1465840478.000047"
    },
    {
        "type": "message",
        "user": "U129BTR18",
        "text": "and that will cost",
        "ts": "1465840482.000048"
    },
    {
        "user": "U1GGM0BDM",
        "type": "message",
        "subtype": "channel_join",
        "text": "<@U1GGM0BDM|woodchips> has joined the channel",
        "ts": "1465851878.000049"
    }
]