[
    {
        "type": "message",
        "user": "U129BTR18",
        "text": "It helps us a bit. All help and suggestions help a bit",
        "ts": "1464866527.000002"
    },
    {
        "type": "message",
        "user": "U129BTR18",
        "text": "and that is positive",
        "ts": "1464866537.000003"
    },
    {
        "type": "message",
        "user": "U12FDKCTU",
        "text": "I disagree. It hurts us a bit compared to the other options.",
        "ts": "1464868332.000004"
    }
]