[
    {
        "user": "U129BTR18",
        "type": "message",
        "subtype": "channel_join",
        "text": "<@U129BTR18|tiagopita> has joined the channel",
        "ts": "1463337284.000002"
    },
    {
        "user": "U13EXK1C5",
        "inviter": "U129BTR18",
        "type": "message",
        "subtype": "channel_join",
        "text": "<@U13EXK1C5|anamoreira> has joined the channel",
        "ts": "1463337284.000003"
    },
    {
        "user": "U128RR0EQ",
        "inviter": "U129BTR18",
        "type": "message",
        "subtype": "channel_join",
        "text": "<@U128RR0EQ|canercandan> has joined the channel",
        "ts": "1463337284.000004"
    },
    {
        "user": "U13NVKKS8",
        "inviter": "U129BTR18",
        "type": "message",
        "subtype": "channel_join",
        "text": "<@U13NVKKS8|bartje> has joined the channel",
        "ts": "1463337284.000005"
    },
    {
        "user": "U186N8S49",
        "inviter": "U129BTR18",
        "type": "message",
        "subtype": "channel_join",
        "text": "<@U186N8S49|carinaalves> has joined the channel",
        "ts": "1463337284.000006"
    },
    {
        "user": "U12DP676J",
        "inviter": "U129BTR18",
        "type": "message",
        "subtype": "channel_join",
        "text": "<@U12DP676J|daniel-roux> has joined the channel",
        "ts": "1463337285.000007"
    },
    {
        "user": "U12LBU64B",
        "inviter": "U129BTR18",
        "type": "message",
        "subtype": "channel_join",
        "text": "<@U12LBU64B|charlmon> has joined the channel",
        "ts": "1463337285.000008"
    },
    {
        "user": "U135C9RED",
        "inviter": "U129BTR18",
        "type": "message",
        "subtype": "channel_join",
        "text": "<@U135C9RED|mecs3> has joined the channel",
        "ts": "1463337285.000009"
    },
    {
        "user": "U12SWDXT3",
        "inviter": "U129BTR18",
        "type": "message",
        "subtype": "channel_join",
        "text": "<@U12SWDXT3|leaoleal> has joined the channel",
        "ts": "1463337285.000010"
    },
    {
        "user": "U12BB9E03",
        "inviter": "U129BTR18",
        "type": "message",
        "subtype": "channel_join",
        "text": "<@U12BB9E03|erwan.lr> has joined the channel",
        "ts": "1463337286.000011"
    },
    {
        "user": "U12ADP23E",
        "inviter": "U129BTR18",
        "type": "message",
        "subtype": "channel_join",
        "text": "<@U12ADP23E|sector> has joined the channel",
        "ts": "1463337286.000012"
    },
    {
        "user": "U127R2T19",
        "inviter": "U129BTR18",
        "type": "message",
        "subtype": "channel_join",
        "text": "<@U127R2T19|geraldinestarke> has joined the channel",
        "ts": "1463337286.000013"
    },
    {
        "user": "U1729LJJY",
        "inviter": "U129BTR18",
        "type": "message",
        "subtype": "channel_join",
        "text": "<@U1729LJJY|glenmonks1> has joined the channel",
        "ts": "1463337286.000014"
    },
    {
        "user": "U15L9NJMA",
        "inviter": "U129BTR18",
        "type": "message",
        "subtype": "channel_join",
        "text": "<@U15L9NJMA|henrique> has joined the channel",
        "ts": "1463337286.000015"
    },
    {
        "user": "U161R3DFE",
        "inviter": "U129BTR18",
        "type": "message",
        "subtype": "channel_join",
        "text": "<@U161R3DFE|jmac> has joined the channel",
        "ts": "1463337286.000016"
    },
    {
        "user": "U12C86XK3",
        "inviter": "U129BTR18",
        "type": "message",
        "subtype": "channel_join",
        "text": "<@U12C86XK3|ivoraf> has joined the channel",
        "ts": "1463337286.000017"
    },
    {
        "user": "U12AAQ8K1",
        "inviter": "U129BTR18",
        "type": "message",
        "subtype": "channel_join",
        "text": "<@U12AAQ8K1|irmine-pema> has joined the channel",
        "ts": "1463337286.000018"
    },
    {
        "user": "U12A1M1Q8",
        "inviter": "U129BTR18",
        "type": "message",
        "subtype": "channel_join",
        "text": "<@U12A1M1Q8|kati> has joined the channel",
        "ts": "1463337287.000019"
    },
    {
        "user": "U12FEFFB8",
        "inviter": "U129BTR18",
        "type": "message",
        "subtype": "channel_join",
        "text": "<@U12FEFFB8|felix2001> has joined the channel",
        "ts": "1463337287.000020"
    },
    {
        "user": "U14FF9U66",
        "inviter": "U129BTR18",
        "type": "message",
        "subtype": "channel_join",
        "text": "<@U14FF9U66|jeroenboss> has joined the channel",
        "ts": "1463337287.000021"
    },
    {
        "user": "U129RSXGW",
        "inviter": "U129BTR18",
        "type": "message",
        "subtype": "channel_join",
        "text": "<@U129RSXGW|maggie67> has joined the channel",
        "ts": "1463337287.000022"
    },
    {
        "user": "U12FDKCTU",
        "inviter": "U129BTR18",
        "type": "message",
        "subtype": "channel_join",
        "text": "<@U12FDKCTU|mattias> has joined the channel",
        "ts": "1463337287.000023"
    },
    {
        "user": "U12A98M7U",
        "inviter": "U129BTR18",
        "type": "message",
        "subtype": "channel_join",
        "text": "<@U12A98M7U|melissa> has joined the channel",
        "ts": "1463337287.000024"
    },
    {
        "user": "U12NDBBUK",
        "inviter": "U129BTR18",
        "type": "message",
        "subtype": "channel_join",
        "text": "<@U12NDBBUK|naomi> has joined the channel",
        "ts": "1463337287.000025"
    },
    {
        "user": "U17TZS6AX",
        "inviter": "U129BTR18",
        "type": "message",
        "subtype": "channel_join",
        "text": "<@U17TZS6AX|kohann> has joined the channel",
        "ts": "1463337288.000026"
    },
    {
        "user": "U12LX3NTD",
        "inviter": "U129BTR18",
        "type": "message",
        "subtype": "channel_join",
        "text": "<@U12LX3NTD|nnsoares> has joined the channel",
        "ts": "1463337288.000027"
    },
    {
        "user": "U12A47D9R",
        "inviter": "U129BTR18",
        "type": "message",
        "subtype": "channel_join",
        "text": "<@U12A47D9R|joker> has joined the channel",
        "ts": "1463337288.000028"
    },
    {
        "user": "U12A8854L",
        "inviter": "U129BTR18",
        "type": "message",
        "subtype": "channel_join",
        "text": "<@U12A8854L|seanlall> has joined the channel",
        "ts": "1463337288.000029"
    },
    {
        "user": "U13JUCX1S",
        "inviter": "U129BTR18",
        "type": "message",
        "subtype": "channel_join",
        "text": "<@U13JUCX1S|sharonmelaffefon> has joined the channel",
        "ts": "1463337288.000030"
    },
    {
        "user": "U12TVPB35",
        "inviter": "U129BTR18",
        "type": "message",
        "subtype": "channel_join",
        "text": "<@U12TVPB35|simonav> has joined the channel",
        "ts": "1463337288.000031"
    },
    {
        "user": "U12AGRQ75",
        "inviter": "U129BTR18",
        "type": "message",
        "subtype": "channel_join",
        "text": "<@U12AGRQ75|avegan> has joined the channel",
        "ts": "1463337288.000032"
    },
    {
        "type": "message",
        "user": "U129BTR18",
        "text": "I am planning to launch a crowdfund campaign to fund the Vegan Basecamp",
        "ts": "1463342803.000033"
    },
    {
        "type": "message",
        "user": "U129BTR18",
        "text": "When you move to Vegan hillls you have a place to stay, take shower, cook and on and on. You can pay the camp in vegetas that you receive every money. You don\u2019t need to pay in euros only guests",
        "ts": "1463342876.000034"
    },
    {
        "type": "message",
        "user": "U129BTR18",
        "text": "You can give as many as you like, will be donation based",
        "ts": "1463342901.000035"
    },
    {
        "type": "message",
        "user": "U129BTR18",
        "text": "For guests will be \u20ac5 euros per tent + \u20ac5 per person",
        "ts": "1463342924.000036"
    },
    {
        "type": "message",
        "user": "U129BTR18",
        "text": "So a couple would pay \u20ac15 per night",
        "ts": "1463342935.000037"
    },
    {
        "type": "message",
        "user": "U129BTR18",
        "text": "and a single person \u20ac10 euros per night",
        "ts": "1463342944.000038",
        "reactions": [
            {
                "name": "+1",
                "users": [
                    "U12ADP23E",
                    "U128RR0EQ",
                    "U12NDBBUK",
                    "U161R3DFE",
                    "U12A1M1Q8",
                    "U12FEFFB8",
                    "U12AAQ8K1"
                ],
                "count": 7
            }
        ]
    },
    {
        "type": "message",
        "user": "U129BTR18",
        "text": "People that join the crowdfund get days for free",
        "ts": "1463343040.000039"
    },
    {
        "type": "message",
        "user": "U129BTR18",
        "text": "so we can use the summer season to convince some people to come and visit",
        "ts": "1463343057.000040"
    },
    {
        "type": "message",
        "user": "U129BTR18",
        "text": "The \u20ac5000 will be used to build showers, kitchen and a toilet and buy some plants and trees to make the whole space nice.",
        "ts": "1463343123.000041"
    }
]