[
    {
        "type": "message",
        "subtype": "file_share",
        "text": "<@U12BB9E03|erwan.lr> uploaded a file: <https://veganhills.slack.com/files/erwan.lr/F1AS3UJGP/img_20160522_153254.jpg|Today we planted 3 acacia>",
        "file": {
            "id": "F1AS3UJGP",
            "created": 1463939056,
            "timestamp": 1463939056,
            "name": "IMG_20160522_153254.jpg",
            "title": "Today we planted 3 acacia",
            "mimetype": "image/jpeg",
            "filetype": "jpg",
            "pretty_type": "JPEG",
            "user": "U12BB9E03",
            "editable": false,
            "size": 2105113,
            "mode": "hosted",
            "is_external": false,
            "external_type": "",
            "is_public": true,
            "public_url_shared": false,
            "display_as_bot": false,
            "username": "",
            "url_private": "https://files.slack.com/files-pri/T129BTQQ2-F1AS3UJGP/img_20160522_153254.jpg?t=xoxe-36317942818-50774082900-50794983538-94992aeae8",
            "url_private_download": "https://files.slack.com/files-pri/T129BTQQ2-F1AS3UJGP/download/img_20160522_153254.jpg?t=xoxe-36317942818-50774082900-50794983538-94992aeae8",
            "thumb_64": "https://files.slack.com/files-tmb/T129BTQQ2-F1AS3UJGP-592e6cac7f/img_20160522_153254_64.jpg?t=xoxe-36317942818-50774082900-50794983538-94992aeae8",
            "thumb_80": "https://files.slack.com/files-tmb/T129BTQQ2-F1AS3UJGP-592e6cac7f/img_20160522_153254_80.jpg?t=xoxe-36317942818-50774082900-50794983538-94992aeae8",
            "thumb_360": "https://files.slack.com/files-tmb/T129BTQQ2-F1AS3UJGP-592e6cac7f/img_20160522_153254_360.jpg?t=xoxe-36317942818-50774082900-50794983538-94992aeae8",
            "thumb_360_w": 360,
            "thumb_360_h": 270,
            "thumb_480": "https://files.slack.com/files-tmb/T129BTQQ2-F1AS3UJGP-592e6cac7f/img_20160522_153254_480.jpg?t=xoxe-36317942818-50774082900-50794983538-94992aeae8",
            "thumb_480_w": 480,
            "thumb_480_h": 360,
            "thumb_160": "https://files.slack.com/files-tmb/T129BTQQ2-F1AS3UJGP-592e6cac7f/img_20160522_153254_160.jpg?t=xoxe-36317942818-50774082900-50794983538-94992aeae8",
            "thumb_720": "https://files.slack.com/files-tmb/T129BTQQ2-F1AS3UJGP-592e6cac7f/img_20160522_153254_720.jpg?t=xoxe-36317942818-50774082900-50794983538-94992aeae8",
            "thumb_720_w": 720,
            "thumb_720_h": 540,
            "thumb_960": "https://files.slack.com/files-tmb/T129BTQQ2-F1AS3UJGP-592e6cac7f/img_20160522_153254_960.jpg?t=xoxe-36317942818-50774082900-50794983538-94992aeae8",
            "thumb_960_w": 960,
            "thumb_960_h": 720,
            "thumb_1024": "https://files.slack.com/files-tmb/T129BTQQ2-F1AS3UJGP-592e6cac7f/img_20160522_153254_1024.jpg?t=xoxe-36317942818-50774082900-50794983538-94992aeae8",
            "thumb_1024_w": 1024,
            "thumb_1024_h": 768,
            "image_exif_rotation": 1,
            "original_w": 2560,
            "original_h": 1920,
            "permalink": "https://veganhills.slack.com/files/erwan.lr/F1AS3UJGP/img_20160522_153254.jpg",
            "permalink_public": "https://slack-files.com/T129BTQQ2-F1AS3UJGP-0371ac2ddd",
            "channels": [
                "C17G9FKJQ"
            ],
            "groups": [
    
            ],
            "ims": [
    
            ],
            "comments_count": 0,
            "reactions": [
                {
                    "name": "+1",
                    "users": [
                        "U12ADP23E",
                        "U12A1M1Q8",
                        "U127R2T19"
                    ],
                    "count": 3
                }
            ]
        },
        "user": "U12BB9E03",
        "upload": true,
        "display_as_bot": false,
        "username": "<@U12BB9E03|erwan.lr>",
        "bot_id": null,
        "ts": "1463939061.000012"
    },
    {
        "type": "message",
        "subtype": "file_share",
        "text": "<@U12BB9E03|erwan.lr> uploaded a file: <https://veganhills.slack.com/files/erwan.lr/F1ARW9T54/img_20160522_170223.jpg|And finished the toilet>",
        "file": {
            "id": "F1ARW9T54",
            "created": 1463939191,
            "timestamp": 1463939191,
            "name": "IMG_20160522_170223.jpg",
            "title": "And finished the toilet",
            "mimetype": "image/jpeg",
            "filetype": "jpg",
            "pretty_type": "JPEG",
            "user": "U12BB9E03",
            "editable": false,
            "size": 2240493,
            "mode": "hosted",
            "is_external": false,
            "external_type": "",
            "is_public": true,
            "public_url_shared": false,
            "display_as_bot": false,
            "username": "",
            "url_private": "https://files.slack.com/files-pri/T129BTQQ2-F1ARW9T54/img_20160522_170223.jpg?t=xoxe-36317942818-50774082900-50794983538-94992aeae8",
            "url_private_download": "https://files.slack.com/files-pri/T129BTQQ2-F1ARW9T54/download/img_20160522_170223.jpg?t=xoxe-36317942818-50774082900-50794983538-94992aeae8",
            "thumb_64": "https://files.slack.com/files-tmb/T129BTQQ2-F1ARW9T54-88868c6f4e/img_20160522_170223_64.jpg?t=xoxe-36317942818-50774082900-50794983538-94992aeae8",
            "thumb_80": "https://files.slack.com/files-tmb/T129BTQQ2-F1ARW9T54-88868c6f4e/img_20160522_170223_80.jpg?t=xoxe-36317942818-50774082900-50794983538-94992aeae8",
            "thumb_360": "https://files.slack.com/files-tmb/T129BTQQ2-F1ARW9T54-88868c6f4e/img_20160522_170223_360.jpg?t=xoxe-36317942818-50774082900-50794983538-94992aeae8",
            "thumb_360_w": 360,
            "thumb_360_h": 270,
            "thumb_480": "https://files.slack.com/files-tmb/T129BTQQ2-F1ARW9T54-88868c6f4e/img_20160522_170223_480.jpg?t=xoxe-36317942818-50774082900-50794983538-94992aeae8",
            "thumb_480_w": 480,
            "thumb_480_h": 360,
            "thumb_160": "https://files.slack.com/files-tmb/T129BTQQ2-F1ARW9T54-88868c6f4e/img_20160522_170223_160.jpg?t=xoxe-36317942818-50774082900-50794983538-94992aeae8",
            "thumb_720": "https://files.slack.com/files-tmb/T129BTQQ2-F1ARW9T54-88868c6f4e/img_20160522_170223_720.jpg?t=xoxe-36317942818-50774082900-50794983538-94992aeae8",
            "thumb_720_w": 720,
            "thumb_720_h": 540,
            "thumb_960": "https://files.slack.com/files-tmb/T129BTQQ2-F1ARW9T54-88868c6f4e/img_20160522_170223_960.jpg?t=xoxe-36317942818-50774082900-50794983538-94992aeae8",
            "thumb_960_w": 960,
            "thumb_960_h": 720,
            "thumb_1024": "https://files.slack.com/files-tmb/T129BTQQ2-F1ARW9T54-88868c6f4e/img_20160522_170223_1024.jpg?t=xoxe-36317942818-50774082900-50794983538-94992aeae8",
            "thumb_1024_w": 1024,
            "thumb_1024_h": 768,
            "image_exif_rotation": 1,
            "original_w": 2560,
            "original_h": 1920,
            "permalink": "https://veganhills.slack.com/files/erwan.lr/F1ARW9T54/img_20160522_170223.jpg",
            "permalink_public": "https://slack-files.com/T129BTQQ2-F1ARW9T54-d08ac09efe",
            "channels": [
                "C17G9FKJQ"
            ],
            "groups": [
    
            ],
            "ims": [
    
            ],
            "comments_count": 0,
            "reactions": [
                {
                    "name": "+1",
                    "users": [
                        "U129BTR18",
                        "U127R2T19",
                        "U12A1M1Q8",
                        "U161R3DFE",
                        "U13EXK1C5"
                    ],
                    "count": 5
                },
                {
                    "name": "monkey",
                    "users": [
                        "U13EXK1C5"
                    ],
                    "count": 1
                }
            ]
        },
        "user": "U12BB9E03",
        "upload": true,
        "display_as_bot": false,
        "username": "<@U12BB9E03|erwan.lr>",
        "bot_id": null,
        "ts": "1463939195.000015"
    },
    {
        "type": "message",
        "user": "U129BTR18",
        "text": "Our first trees. 4 acacias, to protect the top hills from erosion and enrich the soil. The acacias are next to the road and will create a natural fence",
        "ts": "1463939201.000016"
    },
    {
        "type": "message",
        "user": "U129BTR18",
        "text": "Toilet with a view",
        "ts": "1463939235.000018"
    },
    {
        "type": "message",
        "user": "U12ADP23E",
        "text": "I just love the concept of privacy!",
        "ts": "1463939237.000019"
    },
    {
        "type": "message",
        "user": "U12ADP23E",
        "text": "Hahahah",
        "ts": "1463939244.000020"
    },
    {
        "type": "message",
        "user": "U129BTR18",
        "text": "Its quite private is surrounded by trees and bushes even has a Rose next to it :slightly_smiling_face:",
        "ts": "1463939280.000021"
    },
    {
        "type": "message",
        "subtype": "file_share",
        "text": "<@U12BB9E03|erwan.lr> uploaded a file: <https://veganhills.slack.com/files/erwan.lr/F1AS44FRT/img_20160522_184713.jpg|And we have to go to the top to get internet :o>",
        "file": {
            "id": "F1AS44FRT",
            "created": 1463939381,
            "timestamp": 1463939381,
            "name": "IMG_20160522_184713.jpg",
            "title": "And we have to go to the top to get internet :o",
            "mimetype": "image/jpeg",
            "filetype": "jpg",
            "pretty_type": "JPEG",
            "user": "U12BB9E03",
            "editable": false,
            "size": 2623449,
            "mode": "hosted",
            "is_external": false,
            "external_type": "",
            "is_public": true,
            "public_url_shared": false,
            "display_as_bot": false,
            "username": "",
            "url_private": "https://files.slack.com/files-pri/T129BTQQ2-F1AS44FRT/img_20160522_184713.jpg?t=xoxe-36317942818-50774082900-50794983538-94992aeae8",
            "url_private_download": "https://files.slack.com/files-pri/T129BTQQ2-F1AS44FRT/download/img_20160522_184713.jpg?t=xoxe-36317942818-50774082900-50794983538-94992aeae8",
            "thumb_64": "https://files.slack.com/files-tmb/T129BTQQ2-F1AS44FRT-754a5d358b/img_20160522_184713_64.jpg?t=xoxe-36317942818-50774082900-50794983538-94992aeae8",
            "thumb_80": "https://files.slack.com/files-tmb/T129BTQQ2-F1AS44FRT-754a5d358b/img_20160522_184713_80.jpg?t=xoxe-36317942818-50774082900-50794983538-94992aeae8",
            "thumb_360": "https://files.slack.com/files-tmb/T129BTQQ2-F1AS44FRT-754a5d358b/img_20160522_184713_360.jpg?t=xoxe-36317942818-50774082900-50794983538-94992aeae8",
            "thumb_360_w": 360,
            "thumb_360_h": 270,
            "thumb_480": "https://files.slack.com/files-tmb/T129BTQQ2-F1AS44FRT-754a5d358b/img_20160522_184713_480.jpg?t=xoxe-36317942818-50774082900-50794983538-94992aeae8",
            "thumb_480_w": 480,
            "thumb_480_h": 360,
            "thumb_160": "https://files.slack.com/files-tmb/T129BTQQ2-F1AS44FRT-754a5d358b/img_20160522_184713_160.jpg?t=xoxe-36317942818-50774082900-50794983538-94992aeae8",
            "thumb_720": "https://files.slack.com/files-tmb/T129BTQQ2-F1AS44FRT-754a5d358b/img_20160522_184713_720.jpg?t=xoxe-36317942818-50774082900-50794983538-94992aeae8",
            "thumb_720_w": 720,
            "thumb_720_h": 540,
            "thumb_960": "https://files.slack.com/files-tmb/T129BTQQ2-F1AS44FRT-754a5d358b/img_20160522_184713_960.jpg?t=xoxe-36317942818-50774082900-50794983538-94992aeae8",
            "thumb_960_w": 960,
            "thumb_960_h": 720,
            "thumb_1024": "https://files.slack.com/files-tmb/T129BTQQ2-F1AS44FRT-754a5d358b/img_20160522_184713_1024.jpg?t=xoxe-36317942818-50774082900-50794983538-94992aeae8",
            "thumb_1024_w": 1024,
            "thumb_1024_h": 768,
            "image_exif_rotation": 1,
            "original_w": 2560,
            "original_h": 1920,
            "permalink": "https://veganhills.slack.com/files/erwan.lr/F1AS44FRT/img_20160522_184713.jpg",
            "permalink_public": "https://slack-files.com/T129BTQQ2-F1AS44FRT-c38b45e13c",
            "channels": [
                "C17G9FKJQ"
            ],
            "groups": [
    
            ],
            "ims": [
    
            ],
            "comments_count": 0
        },
        "user": "U12BB9E03",
        "upload": true,
        "display_as_bot": false,
        "username": "<@U12BB9E03|erwan.lr>",
        "bot_id": null,
        "ts": "1463939385.000022"
    }
]