[
    {
        "type": "message",
        "user": "U129BTR18",
        "text": "We need help with water installation, does someone has experience?",
        "ts": "1463407430.000068"
    },
    {
        "type": "message",
        "user": "U129BTR18",
        "text": "Just both a cooking stove  for the land (50 euros) will use it temporally with gas until we are producing our biogas <@U13EXK1C5> will be working on it :slightly_smiling_face:",
        "ts": "1463419347.000069"
    },
    {
        "type": "message",
        "user": "U12ADP23E",
        "text": "Are you going to sleep on the land aswell?",
        "ts": "1463420168.000070"
    },
    {
        "type": "message",
        "user": "U129BTR18",
        "text": "Yes, I decided yes. Was looking for a place for a while, but the weather is so pleasant :slightly_smiling_face: I am a bit scared of the dark. That\u2019s my main issue. I will be happy if more people join soon :slightly_smiling_face:",
        "ts": "1463420218.000071"
    },
    {
        "type": "message",
        "user": "U129BTR18",
        "text": "Please",
        "ts": "1463420223.000072"
    },
    {
        "type": "message",
        "user": "U12ADP23E",
        "text": "I'm really keen on buying this one: <https://olx.pt/anuncio/autocaravana-autovivenda-citroen-c25-IDzdcvn.html> Already contacted the owner, the only problem is that I have to go to Braga to get it &gt;.&lt; and then take it down to Sagres! xD",
        "ts": "1463420323.000073"
    },
    {
        "type": "message",
        "user": "U12ADP23E",
        "text": "Deffinetly going to sleep on the land with that!",
        "ts": "1463420356.000074"
    },
    {
        "type": "message",
        "user": "U129BTR18",
        "text": "It\u2019s not legalised",
        "ts": "1463420423.000075"
    },
    {
        "type": "message",
        "user": "U129BTR18",
        "text": "Not sure what that means",
        "ts": "1463420430.000076"
    },
    {
        "type": "message",
        "user": "U12ADP23E",
        "text": "Ye, it means it's not a caravan in the eyes of the state, it's a van.",
        "ts": "1463420453.000077"
    },
    {
        "type": "message",
        "user": "U12ADP23E",
        "text": "If I get stoped by the police they might give me a ticket",
        "ts": "1463420471.000078"
    },
    {
        "type": "message",
        "user": "U129BTR18",
        "text": "ok that\u2019s fine!",
        "ts": "1463420619.000079"
    },
    {
        "type": "message",
        "user": "U129BTR18",
        "text": "hahahah :slightly_smiling_face:",
        "ts": "1463420623.000080"
    },
    {
        "type": "message",
        "user": "U129BTR18",
        "text": "Looks great!",
        "ts": "1463420643.000081"
    },
    {
        "type": "message",
        "user": "U129BTR18",
        "text": "nicer than mine",
        "ts": "1463420646.000082"
    },
    {
        "type": "message",
        "user": "U129BTR18",
        "text": "it looks like a good deal",
        "ts": "1463420677.000083"
    },
    {
        "type": "message",
        "user": "U129BTR18",
        "text": "Looks nice as well",
        "ts": "1463420683.000084"
    },
    {
        "type": "message",
        "user": "U129BTR18",
        "text": "I am jealous",
        "ts": "1463420718.000085"
    },
    {
        "type": "message",
        "user": "U12ADP23E",
        "text": "Hehe, it even has support for bikes! Freakin love it!",
        "ts": "1463421232.000086"
    }
]