[
    {
        "user": "U129BTR18",
        "members": [
            "U127R2T19",
            "U129BTR18",
            "U129RSXGW",
            "U12A1M1Q8",
            "U12A47D9R",
            "U12A8854L",
            "U12A98M7U",
            "U12AAQ8K1",
            "U12ADP23E",
            "U12AGRQ75",
            "U12BB9E03",
            "U12C86XK3",
            "U12DP676J",
            "U12FDKCTU",
            "U12FEFFB8",
            "U12LBU64B",
            "U12LX3NTD",
            "U12NDBBUK",
            "U12SWDXT3",
            "U12TVPB35",
            "U135C9RED",
            "U13EXK1C5",
            "U13JUCX1S",
            "U13NVKKS8",
            "U14FF9U66",
            "U15L9NJMA",
            "U161R3DFE",
            "U1729LJJY",
            "U17TZS6AX",
            "U186N8S49",
            "U19CCLDRR",
            "U1B9AVDEC",
            "U1B9HS8CV",
            "U1BB67R4Y",
            "U1BEP8Z4Y",
            "U1C849S2V",
            "U1CHRA3ED",
            "U1DU8MCSW",
            "U1E3HLTN3",
            "U1F7ZB45N",
            "U1FG93Q5T",
            "U1FJUQ6CV",
            "U1G5FJ2M7",
            "U1GCJDBGX",
            "U1GCMQC7J",
            "U1GGM0BDM"
        ],
        "type": "message",
        "subtype": "channel_archive",
        "text": "<@U129BTR18|tiagopita> archived the channel (w/ 46 members)",
        "ts": "1465902306.000007"
    }
]