[
    {
        "type": "message",
        "user": "U127R2T19",
        "text": "hey first settlers, everything allright for your first night in Vegan Hills :grin: ?",
        "ts": "1463778937.000004"
    }
]