[
    {
        "type": "message",
        "user": "U1BB67R4Y",
        "text": "wow,this is beautiful",
        "ts": "1464249526.000043"
    },
    {
        "type": "message",
        "user": "U12ADP23E",
        "text": "<https://melissadimock.squarespace.com/blog/2012/05/21/diy-hillbilly-washing-machine>",
        "attachments": [
            {
                "service_name": "refashionista",
                "title": "DIY: Hillbilly Washing Machine",
                "title_link": "https://melissadimock.squarespace.com/blog/2012/05/21/diy-hillbilly-washing-machine",
                "text": "This is a great method for off-the-grid low-tech clothes washing or, in my case, diaper washing as part of the Second Annual Flats and Handwashing Challenge. The total cost to make this washer was around $6, and about 10 minutes. The amount of time it takes to operate depends entirely on the quantity of clothing and the type of material being washed. For people with \"rustic\" camps like ours, this is a great way to wash clothing while camping!",
                "fallback": "refashionista: DIY: Hillbilly Washing Machine",
                "thumb_url": "http://static1.squarespace.com/static/56ae9b867da24f25cb630d03/56ae9fe0990439dd887cbd8c/56aea187990439dd887cd086/1455732094121/?format=1000w",
                "from_url": "https://melissadimock.squarespace.com/blog/2012/05/21/diy-hillbilly-washing-machine",
                "thumb_width": 1000,
                "thumb_height": 1333,
                "service_icon": "https://melissadimock.squarespace.com/favicon.ico",
                "id": 1
            }
        ],
        "ts": "1464291963.000044"
    }
]