[
    {
        "user": "U19CCLDRR",
        "type": "message",
        "subtype": "channel_join",
        "text": "<@U19CCLDRR|jamie_h> has joined the channel",
        "ts": "1463470563.000087"
    },
    {
        "type": "message",
        "user": "U14FF9U66",
        "text": "I can join you in my tent for some nights <@U129BTR18>, but im still working to get my camper ready so i can not stay fulltime until it is ready..",
        "ts": "1463491513.000088"
    },
    {
        "type": "message",
        "user": "U12A1M1Q8",
        "text": "<@U129BTR18>: saki is going to protect you and we can Skype at night :kissing_heart: ",
        "ts": "1463491751.000089"
    },
    {
        "type": "message",
        "user": "U129BTR18",
        "text": "Me and Erwan are buying a tent with 3 rooms",
        "ts": "1463508597.000090"
    },
    {
        "type": "message",
        "user": "U129BTR18",
        "text": "meaning we can actually host a third person",
        "ts": "1463508609.000091"
    },
    {
        "type": "message",
        "user": "U12BB9E03",
        "text": "So today we went to see &amp; scout the first lake we would like to create: <https://goo.gl/photos/twGtLQADGCWme6rz5>",
        "attachments": [
            {
                "service_name": "Google Photos",
                "title": "Portugal - Vegan Hills  - Lake #1 - Pre Cleaning",
                "title_link": "https://goo.gl/photos/twGtLQADGCWme6rz5",
                "text": "10 new photos \u00b7 Album by Erwan Le Rousseau",
                "fallback": "Google Photos: Portugal - Vegan Hills  - Lake #1 - Pre Cleaning",
                "image_url": "https://lh3.googleusercontent.com/YXyjM7mrr-lQPg0Ljzgm5lmHLpe_5PxtRrBKXJ85x8Ia4U_qWZ3CuorPXEKXkwZFQdekXOcbBdKB",
                "image_width": 333,
                "image_height": 250,
                "from_url": "https://goo.gl/photos/twGtLQADGCWme6rz5",
                "image_bytes": 144057,
                "id": 1
            }
        ],
        "edited": {
            "user": "U12BB9E03",
            "ts": "1463509706.000000"
        },
        "ts": "1463509030.000092"
    },
    {
        "type": "message",
        "user": "U12ADP23E",
        "text": "Damn, can't wait to get there!",
        "ts": "1463509852.000095"
    },
    {
        "type": "message",
        "user": "U129BTR18",
        "text": "hi <@U12ADP23E> not sure you need a camping van",
        "ts": "1463509872.000096"
    },
    {
        "type": "message",
        "user": "U129BTR18",
        "text": "there isn\u2019t that much access to the land",
        "ts": "1463509881.000097"
    },
    {
        "type": "message",
        "user": "U129BTR18",
        "text": "and will be quite a distance from were we are settling",
        "ts": "1463509892.000098"
    },
    {
        "type": "message",
        "user": "U129BTR18",
        "text": "we decided to just get tents",
        "ts": "1463509900.000099"
    },
    {
        "type": "message",
        "user": "U12ADP23E",
        "text": "Humm, where will you poop, if you don't mind me asking? =D I could live in that open space where we parked last time.",
        "ts": "1463510013.000100"
    },
    {
        "type": "message",
        "user": "U12ADP23E",
        "text": "Near the ruins",
        "ts": "1463510031.000101"
    },
    {
        "type": "message",
        "user": "U129BTR18",
        "text": "yes you can. We are building a compost toilet",
        "ts": "1463510038.000102"
    },
    {
        "type": "message",
        "user": "U12ADP23E",
        "text": "I'll take two bikes so I'll just cycle to wherever you are :smiley:",
        "ts": "1463510067.000103"
    },
    {
        "type": "message",
        "user": "U129BTR18",
        "text": "already bought the a 60 litter tank that we will close when full",
        "ts": "1463510091.000104"
    },
    {
        "type": "message",
        "user": "U129BTR18",
        "text": "ok :slightly_smiling_face:",
        "ts": "1463510093.000105"
    },
    {
        "type": "message",
        "user": "U12ADP23E",
        "text": "Or I can take a tent and camp with you and just leave the caravan there in case we need to shower or something else!",
        "ts": "1463510158.000106"
    },
    {
        "type": "message",
        "user": "U12BB9E03",
        "text": "Oh, and the land has a lot of clay, and I bought a  sieve this morning, so I will try to make some potteries when things will calm down a bit :smile:",
        "ts": "1463510933.000107",
        "reactions": [
            {
                "name": "+1",
                "users": [
                    "U129BTR18",
                    "U128RR0EQ",
                    "U12A1M1Q8"
                ],
                "count": 3
            }
        ]
    },
    {
        "type": "message",
        "user": "U128RR0EQ",
        "text": "Not necessarily what we need but remain interesting to know, found this geodesic dome wheater proof frame in aluminum on alibaba: <https://m.alibaba.com/product/60425862469/Weather-Proof-Frame-Modern-Exhibition-Booth.html?s=p>",
        "attachments": [
            {
                "title": "Alibaba Manufacturer Directory",
                "title_link": "https://m.alibaba.com/product/60425862469/Weather-Proof-Frame-Modern-Exhibition-Booth.html?s=p",
                "text": "Manufacturers &amp; Suppliers Directory. You can Source Manufacturers, Suppliers, Exporters, Importers for {0} from mobile site on <http://m.alibaba.com|m.alibaba.com>",
                "fallback": "Alibaba Manufacturer Directory",
                "from_url": "https://m.alibaba.com/product/60425862469/Weather-Proof-Frame-Modern-Exhibition-Booth.html?s=p",
                "id": 1
            }
        ],
        "ts": "1463520434.000108"
    },
    {
        "user": "U186N8S49",
        "type": "message",
        "subtype": "channel_join",
        "text": "<@U186N8S49|carinaalves> has joined the channel",
        "ts": "1463521245.000110"
    },
    {
        "type": "message",
        "user": "U129BTR18",
        "text": "<@U128RR0EQ>: to receive just unit you need to use aliexpress",
        "ts": "1463521615.000111"
    },
    {
        "type": "message",
        "user": "U129BTR18",
        "text": "alibaba e more for wholesale",
        "ts": "1463521629.000112",
        "reactions": [
            {
                "name": "+1",
                "users": [
                    "U128RR0EQ"
                ],
                "count": 1
            }
        ]
    }
]