[
    {
        "type": "message",
        "subtype": "file_share",
        "text": "<@U127R2T19|geraldinestarke> uploaded a file: <https://veganhills.slack.com/files/geraldinestarke/F1AQ0MEPJ/img_20160521_164604.jpg|Went to visit the guys today in the land. They were working on the compost toilet, almost done :smiley:>",
        "file": {
            "id": "F1AQ0MEPJ",
            "created": 1463870288,
            "timestamp": 1463870288,
            "name": "IMG_20160521_164604.jpg",
            "title": "Went to visit the guys today in the land. They were working on the compost toilet, almost done :smiley:",
            "mimetype": "image/jpeg",
            "filetype": "jpg",
            "pretty_type": "JPEG",
            "user": "U127R2T19",
            "editable": false,
            "size": 1433794,
            "mode": "hosted",
            "is_external": false,
            "external_type": "",
            "is_public": true,
            "public_url_shared": false,
            "display_as_bot": false,
            "username": "",
            "url_private": "https://files.slack.com/files-pri/T129BTQQ2-F1AQ0MEPJ/img_20160521_164604.jpg?t=xoxe-36317942818-50774082900-50794983538-94992aeae8",
            "url_private_download": "https://files.slack.com/files-pri/T129BTQQ2-F1AQ0MEPJ/download/img_20160521_164604.jpg?t=xoxe-36317942818-50774082900-50794983538-94992aeae8",
            "thumb_64": "https://files.slack.com/files-tmb/T129BTQQ2-F1AQ0MEPJ-9d809f593a/img_20160521_164604_64.jpg?t=xoxe-36317942818-50774082900-50794983538-94992aeae8",
            "thumb_80": "https://files.slack.com/files-tmb/T129BTQQ2-F1AQ0MEPJ-9d809f593a/img_20160521_164604_80.jpg?t=xoxe-36317942818-50774082900-50794983538-94992aeae8",
            "thumb_360": "https://files.slack.com/files-tmb/T129BTQQ2-F1AQ0MEPJ-9d809f593a/img_20160521_164604_360.jpg?t=xoxe-36317942818-50774082900-50794983538-94992aeae8",
            "thumb_360_w": 203,
            "thumb_360_h": 360,
            "thumb_480": "https://files.slack.com/files-tmb/T129BTQQ2-F1AQ0MEPJ-9d809f593a/img_20160521_164604_480.jpg?t=xoxe-36317942818-50774082900-50794983538-94992aeae8",
            "thumb_480_w": 270,
            "thumb_480_h": 480,
            "thumb_160": "https://files.slack.com/files-tmb/T129BTQQ2-F1AQ0MEPJ-9d809f593a/img_20160521_164604_160.jpg?t=xoxe-36317942818-50774082900-50794983538-94992aeae8",
            "thumb_720": "https://files.slack.com/files-tmb/T129BTQQ2-F1AQ0MEPJ-9d809f593a/img_20160521_164604_720.jpg?t=xoxe-36317942818-50774082900-50794983538-94992aeae8",
            "thumb_720_w": 405,
            "thumb_720_h": 720,
            "thumb_960": "https://files.slack.com/files-tmb/T129BTQQ2-F1AQ0MEPJ-9d809f593a/img_20160521_164604_960.jpg?t=xoxe-36317942818-50774082900-50794983538-94992aeae8",
            "thumb_960_w": 540,
            "thumb_960_h": 960,
            "thumb_1024": "https://files.slack.com/files-tmb/T129BTQQ2-F1AQ0MEPJ-9d809f593a/img_20160521_164604_1024.jpg?t=xoxe-36317942818-50774082900-50794983538-94992aeae8",
            "thumb_1024_w": 576,
            "thumb_1024_h": 1024,
            "image_exif_rotation": 1,
            "original_w": 2160,
            "original_h": 3840,
            "permalink": "https://veganhills.slack.com/files/geraldinestarke/F1AQ0MEPJ/img_20160521_164604.jpg",
            "permalink_public": "https://slack-files.com/T129BTQQ2-F1AQ0MEPJ-3ed9c34a97",
            "channels": [
                "C17G9FKJQ"
            ],
            "groups": [
    
            ],
            "ims": [
    
            ],
            "comments_count": 0
        },
        "user": "U127R2T19",
        "upload": true,
        "display_as_bot": false,
        "username": "<@U127R2T19|geraldinestarke>",
        "bot_id": null,
        "ts": "1463870293.000005"
    },
    {
        "type": "message",
        "subtype": "file_share",
        "text": "<@U127R2T19|geraldinestarke> uploaded a file: <https://veganhills.slack.com/files/geraldinestarke/F1AQ0PMK2/img_20160521_165227.jpg|Slack for Android Upload> and commented: \n",
        "file": {
            "id": "F1AQ0PMK2",
            "created": 1463870364,
            "timestamp": 1463870364,
            "name": "IMG_20160521_165227.jpg",
            "title": "Slack for Android Upload",
            "mimetype": "image/jpeg",
            "filetype": "jpg",
            "pretty_type": "JPEG",
            "user": "U127R2T19",
            "editable": false,
            "size": 13326962,
            "mode": "hosted",
            "is_external": false,
            "external_type": "",
            "is_public": true,
            "public_url_shared": false,
            "display_as_bot": false,
            "username": "",
            "url_private": "https://files.slack.com/files-pri/T129BTQQ2-F1AQ0PMK2/img_20160521_165227.jpg?t=xoxe-36317942818-50774082900-50794983538-94992aeae8",
            "url_private_download": "https://files.slack.com/files-pri/T129BTQQ2-F1AQ0PMK2/download/img_20160521_165227.jpg?t=xoxe-36317942818-50774082900-50794983538-94992aeae8",
            "thumb_64": "https://files.slack.com/files-tmb/T129BTQQ2-F1AQ0PMK2-cb4149d123/img_20160521_165227_64.jpg?t=xoxe-36317942818-50774082900-50794983538-94992aeae8",
            "thumb_80": "https://files.slack.com/files-tmb/T129BTQQ2-F1AQ0PMK2-cb4149d123/img_20160521_165227_80.jpg?t=xoxe-36317942818-50774082900-50794983538-94992aeae8",
            "thumb_360": "https://files.slack.com/files-tmb/T129BTQQ2-F1AQ0PMK2-cb4149d123/img_20160521_165227_360.jpg?t=xoxe-36317942818-50774082900-50794983538-94992aeae8",
            "thumb_360_w": 360,
            "thumb_360_h": 270,
            "thumb_480": "https://files.slack.com/files-tmb/T129BTQQ2-F1AQ0PMK2-cb4149d123/img_20160521_165227_480.jpg?t=xoxe-36317942818-50774082900-50794983538-94992aeae8",
            "thumb_480_w": 480,
            "thumb_480_h": 360,
            "thumb_160": "https://files.slack.com/files-tmb/T129BTQQ2-F1AQ0PMK2-cb4149d123/img_20160521_165227_160.jpg?t=xoxe-36317942818-50774082900-50794983538-94992aeae8",
            "thumb_720": "https://files.slack.com/files-tmb/T129BTQQ2-F1AQ0PMK2-cb4149d123/img_20160521_165227_720.jpg?t=xoxe-36317942818-50774082900-50794983538-94992aeae8",
            "thumb_720_w": 720,
            "thumb_720_h": 540,
            "thumb_960": "https://files.slack.com/files-tmb/T129BTQQ2-F1AQ0PMK2-cb4149d123/img_20160521_165227_960.jpg?t=xoxe-36317942818-50774082900-50794983538-94992aeae8",
            "thumb_960_w": 960,
            "thumb_960_h": 720,
            "thumb_1024": "https://files.slack.com/files-tmb/T129BTQQ2-F1AQ0PMK2-cb4149d123/img_20160521_165227_1024.jpg?t=xoxe-36317942818-50774082900-50794983538-94992aeae8",
            "thumb_1024_w": 1024,
            "thumb_1024_h": 768,
            "image_exif_rotation": 1,
            "original_w": 4608,
            "original_h": 3456,
            "permalink": "https://veganhills.slack.com/files/geraldinestarke/F1AQ0PMK2/img_20160521_165227.jpg",
            "permalink_public": "https://slack-files.com/T129BTQQ2-F1AQ0PMK2-64628e248b",
            "channels": [
                "C17G9FKJQ"
            ],
            "groups": [
    
            ],
            "ims": [
    
            ],
            "comments_count": 1,
            "initial_comment": {
                "id": "Fc1APWL9FY",
                "created": 1463870364,
                "timestamp": 1463870364,
                "user": "U127R2T19",
                "is_intro": true,
                "comment": "\n",
                "channel": ""
            }
        },
        "user": "U127R2T19",
        "upload": true,
        "display_as_bot": false,
        "username": "<@U127R2T19|geraldinestarke>",
        "bot_id": null,
        "ts": "1463870373.000006"
    },
    {
        "type": "message",
        "subtype": "file_share",
        "text": "<@U127R2T19|geraldinestarke> uploaded a file: <https://veganhills.slack.com/files/geraldinestarke/F1AQFNMSN/img_20160521_170330.jpg|Testing...Saki helps us>",
        "file": {
            "id": "F1AQFNMSN",
            "created": 1463870428,
            "timestamp": 1463870428,
            "name": "IMG_20160521_170330.jpg",
            "title": "Testing...Saki helps us",
            "mimetype": "image/jpeg",
            "filetype": "jpg",
            "pretty_type": "JPEG",
            "user": "U127R2T19",
            "editable": false,
            "size": 12217912,
            "mode": "hosted",
            "is_external": false,
            "external_type": "",
            "is_public": true,
            "public_url_shared": false,
            "display_as_bot": false,
            "username": "",
            "url_private": "https://files.slack.com/files-pri/T129BTQQ2-F1AQFNMSN/img_20160521_170330.jpg?t=xoxe-36317942818-50774082900-50794983538-94992aeae8",
            "url_private_download": "https://files.slack.com/files-pri/T129BTQQ2-F1AQFNMSN/download/img_20160521_170330.jpg?t=xoxe-36317942818-50774082900-50794983538-94992aeae8",
            "thumb_64": "https://files.slack.com/files-tmb/T129BTQQ2-F1AQFNMSN-6b40350dea/img_20160521_170330_64.jpg?t=xoxe-36317942818-50774082900-50794983538-94992aeae8",
            "thumb_80": "https://files.slack.com/files-tmb/T129BTQQ2-F1AQFNMSN-6b40350dea/img_20160521_170330_80.jpg?t=xoxe-36317942818-50774082900-50794983538-94992aeae8",
            "thumb_360": "https://files.slack.com/files-tmb/T129BTQQ2-F1AQFNMSN-6b40350dea/img_20160521_170330_360.jpg?t=xoxe-36317942818-50774082900-50794983538-94992aeae8",
            "thumb_360_w": 360,
            "thumb_360_h": 270,
            "thumb_480": "https://files.slack.com/files-tmb/T129BTQQ2-F1AQFNMSN-6b40350dea/img_20160521_170330_480.jpg?t=xoxe-36317942818-50774082900-50794983538-94992aeae8",
            "thumb_480_w": 480,
            "thumb_480_h": 360,
            "thumb_160": "https://files.slack.com/files-tmb/T129BTQQ2-F1AQFNMSN-6b40350dea/img_20160521_170330_160.jpg?t=xoxe-36317942818-50774082900-50794983538-94992aeae8",
            "thumb_720": "https://files.slack.com/files-tmb/T129BTQQ2-F1AQFNMSN-6b40350dea/img_20160521_170330_720.jpg?t=xoxe-36317942818-50774082900-50794983538-94992aeae8",
            "thumb_720_w": 720,
            "thumb_720_h": 540,
            "thumb_960": "https://files.slack.com/files-tmb/T129BTQQ2-F1AQFNMSN-6b40350dea/img_20160521_170330_960.jpg?t=xoxe-36317942818-50774082900-50794983538-94992aeae8",
            "thumb_960_w": 960,
            "thumb_960_h": 720,
            "thumb_1024": "https://files.slack.com/files-tmb/T129BTQQ2-F1AQFNMSN-6b40350dea/img_20160521_170330_1024.jpg?t=xoxe-36317942818-50774082900-50794983538-94992aeae8",
            "thumb_1024_w": 1024,
            "thumb_1024_h": 768,
            "image_exif_rotation": 1,
            "original_w": 4608,
            "original_h": 3456,
            "permalink": "https://veganhills.slack.com/files/geraldinestarke/F1AQFNMSN/img_20160521_170330.jpg",
            "permalink_public": "https://slack-files.com/T129BTQQ2-F1AQFNMSN-5f19eee57e",
            "channels": [
                "C17G9FKJQ"
            ],
            "groups": [
    
            ],
            "ims": [
    
            ],
            "comments_count": 0
        },
        "user": "U127R2T19",
        "upload": true,
        "display_as_bot": false,
        "username": "<@U127R2T19|geraldinestarke>",
        "bot_id": null,
        "ts": "1463870438.000007"
    },
    {
        "type": "message",
        "subtype": "file_share",
        "text": "<@U127R2T19|geraldinestarke> uploaded a file: <https://veganhills.slack.com/files/geraldinestarke/F1AQ4J9NK/img_20160521_170349.jpg|Slack for Android Upload>",
        "file": {
            "id": "F1AQ4J9NK",
            "created": 1463870492,
            "timestamp": 1463870492,
            "name": "IMG_20160521_170349.jpg",
            "title": "Slack for Android Upload",
            "mimetype": "image/jpeg",
            "filetype": "jpg",
            "pretty_type": "JPEG",
            "user": "U127R2T19",
            "editable": false,
            "size": 12155687,
            "mode": "hosted",
            "is_external": false,
            "external_type": "",
            "is_public": true,
            "public_url_shared": false,
            "display_as_bot": false,
            "username": "",
            "url_private": "https://files.slack.com/files-pri/T129BTQQ2-F1AQ4J9NK/img_20160521_170349.jpg?t=xoxe-36317942818-50774082900-50794983538-94992aeae8",
            "url_private_download": "https://files.slack.com/files-pri/T129BTQQ2-F1AQ4J9NK/download/img_20160521_170349.jpg?t=xoxe-36317942818-50774082900-50794983538-94992aeae8",
            "thumb_64": "https://files.slack.com/files-tmb/T129BTQQ2-F1AQ4J9NK-d51fe40d04/img_20160521_170349_64.jpg?t=xoxe-36317942818-50774082900-50794983538-94992aeae8",
            "thumb_80": "https://files.slack.com/files-tmb/T129BTQQ2-F1AQ4J9NK-d51fe40d04/img_20160521_170349_80.jpg?t=xoxe-36317942818-50774082900-50794983538-94992aeae8",
            "thumb_360": "https://files.slack.com/files-tmb/T129BTQQ2-F1AQ4J9NK-d51fe40d04/img_20160521_170349_360.jpg?t=xoxe-36317942818-50774082900-50794983538-94992aeae8",
            "thumb_360_w": 360,
            "thumb_360_h": 270,
            "thumb_480": "https://files.slack.com/files-tmb/T129BTQQ2-F1AQ4J9NK-d51fe40d04/img_20160521_170349_480.jpg?t=xoxe-36317942818-50774082900-50794983538-94992aeae8",
            "thumb_480_w": 480,
            "thumb_480_h": 360,
            "thumb_160": "https://files.slack.com/files-tmb/T129BTQQ2-F1AQ4J9NK-d51fe40d04/img_20160521_170349_160.jpg?t=xoxe-36317942818-50774082900-50794983538-94992aeae8",
            "thumb_720": "https://files.slack.com/files-tmb/T129BTQQ2-F1AQ4J9NK-d51fe40d04/img_20160521_170349_720.jpg?t=xoxe-36317942818-50774082900-50794983538-94992aeae8",
            "thumb_720_w": 720,
            "thumb_720_h": 540,
            "thumb_960": "https://files.slack.com/files-tmb/T129BTQQ2-F1AQ4J9NK-d51fe40d04/img_20160521_170349_960.jpg?t=xoxe-36317942818-50774082900-50794983538-94992aeae8",
            "thumb_960_w": 960,
            "thumb_960_h": 720,
            "thumb_1024": "https://files.slack.com/files-tmb/T129BTQQ2-F1AQ4J9NK-d51fe40d04/img_20160521_170349_1024.jpg?t=xoxe-36317942818-50774082900-50794983538-94992aeae8",
            "thumb_1024_w": 1024,
            "thumb_1024_h": 768,
            "image_exif_rotation": 1,
            "original_w": 4608,
            "original_h": 3456,
            "permalink": "https://veganhills.slack.com/files/geraldinestarke/F1AQ4J9NK/img_20160521_170349.jpg",
            "permalink_public": "https://slack-files.com/T129BTQQ2-F1AQ4J9NK-a411bcbfa4",
            "channels": [
                "C17G9FKJQ"
            ],
            "groups": [
    
            ],
            "ims": [
    
            ],
            "comments_count": 0
        },
        "user": "U127R2T19",
        "upload": true,
        "display_as_bot": false,
        "username": "<@U127R2T19|geraldinestarke>",
        "bot_id": null,
        "ts": "1463870501.000008"
    },
    {
        "type": "message",
        "subtype": "file_share",
        "text": "<@U127R2T19|geraldinestarke> uploaded a file: <https://veganhills.slack.com/files/geraldinestarke/F1AQ0UEQ0/img_20160521_170507.jpg|Slack for Android Upload>",
        "file": {
            "id": "F1AQ0UEQ0",
            "created": 1463870543,
            "timestamp": 1463870543,
            "name": "IMG_20160521_170507.jpg",
            "title": "Slack for Android Upload",
            "mimetype": "image/jpeg",
            "filetype": "jpg",
            "pretty_type": "JPEG",
            "user": "U127R2T19",
            "editable": false,
            "size": 10343852,
            "mode": "hosted",
            "is_external": false,
            "external_type": "",
            "is_public": true,
            "public_url_shared": false,
            "display_as_bot": false,
            "username": "",
            "url_private": "https://files.slack.com/files-pri/T129BTQQ2-F1AQ0UEQ0/img_20160521_170507.jpg?t=xoxe-36317942818-50774082900-50794983538-94992aeae8",
            "url_private_download": "https://files.slack.com/files-pri/T129BTQQ2-F1AQ0UEQ0/download/img_20160521_170507.jpg?t=xoxe-36317942818-50774082900-50794983538-94992aeae8",
            "thumb_64": "https://files.slack.com/files-tmb/T129BTQQ2-F1AQ0UEQ0-332bb160a1/img_20160521_170507_64.jpg?t=xoxe-36317942818-50774082900-50794983538-94992aeae8",
            "thumb_80": "https://files.slack.com/files-tmb/T129BTQQ2-F1AQ0UEQ0-332bb160a1/img_20160521_170507_80.jpg?t=xoxe-36317942818-50774082900-50794983538-94992aeae8",
            "thumb_360": "https://files.slack.com/files-tmb/T129BTQQ2-F1AQ0UEQ0-332bb160a1/img_20160521_170507_360.jpg?t=xoxe-36317942818-50774082900-50794983538-94992aeae8",
            "thumb_360_w": 270,
            "thumb_360_h": 360,
            "thumb_480": "https://files.slack.com/files-tmb/T129BTQQ2-F1AQ0UEQ0-332bb160a1/img_20160521_170507_480.jpg?t=xoxe-36317942818-50774082900-50794983538-94992aeae8",
            "thumb_480_w": 360,
            "thumb_480_h": 480,
            "thumb_160": "https://files.slack.com/files-tmb/T129BTQQ2-F1AQ0UEQ0-332bb160a1/img_20160521_170507_160.jpg?t=xoxe-36317942818-50774082900-50794983538-94992aeae8",
            "thumb_720": "https://files.slack.com/files-tmb/T129BTQQ2-F1AQ0UEQ0-332bb160a1/img_20160521_170507_720.jpg?t=xoxe-36317942818-50774082900-50794983538-94992aeae8",
            "thumb_720_w": 540,
            "thumb_720_h": 720,
            "thumb_960": "https://files.slack.com/files-tmb/T129BTQQ2-F1AQ0UEQ0-332bb160a1/img_20160521_170507_960.jpg?t=xoxe-36317942818-50774082900-50794983538-94992aeae8",
            "thumb_960_w": 720,
            "thumb_960_h": 960,
            "thumb_1024": "https://files.slack.com/files-tmb/T129BTQQ2-F1AQ0UEQ0-332bb160a1/img_20160521_170507_1024.jpg?t=xoxe-36317942818-50774082900-50794983538-94992aeae8",
            "thumb_1024_w": 768,
            "thumb_1024_h": 1024,
            "image_exif_rotation": 1,
            "original_w": 3456,
            "original_h": 4608,
            "permalink": "https://veganhills.slack.com/files/geraldinestarke/F1AQ0UEQ0/img_20160521_170507.jpg",
            "permalink_public": "https://slack-files.com/T129BTQQ2-F1AQ0UEQ0-660cf3026d",
            "channels": [
                "C17G9FKJQ"
            ],
            "groups": [
    
            ],
            "ims": [
    
            ],
            "comments_count": 0
        },
        "user": "U127R2T19",
        "upload": true,
        "display_as_bot": false,
        "username": "<@U127R2T19|geraldinestarke>",
        "bot_id": null,
        "ts": "1463870552.000009"
    },
    {
        "type": "message",
        "user": "U12ADP23E",
        "text": "Niice!!",
        "ts": "1463874807.000010"
    },
    {
        "type": "message",
        "user": "U12TVPB35",
        "text": "yeah!",
        "ts": "1463889661.000011"
    }
]