[
    {
        "type": "message",
        "user": "U1B9HS8CV",
        "text": "maybe we need an infrastructure channel, also for water, landscaping ... If we now talk in \"solar\" on wind generators, it is hard to find later :wink:",
        "ts": "1464178396.000028"
    },
    {
        "type": "message",
        "user": "U12BB9E03",
        "text": "We wanted to be flexible because we need power for the laptops as my 20w solar panel is not enough ;o. The idea is to get 3x 250w panels with an inverter and 2x2kw batteries as soon as possible then expand to the double (or more) later.\nThis would be half of the second pack showed at <http://duosolarrenovaveis.wix.com/duosolarrenovaveis1#!upac-com-baterias/c24f3>",
        "attachments": [
            {
                "title": "Pack-econ\u00f3mico campanha",
                "title_link": "http://duosolarrenovaveis.wix.com/duosolarrenovaveis1#!upac-com-baterias/c24f3",
                "text": "Campanhas Duosolar",
                "fallback": "Pack-econ\u00f3mico campanha",
                "from_url": "http://duosolarrenovaveis.wix.com/duosolarrenovaveis1#!upac-com-baterias/c24f3",
                "service_icon": "http://www.wix.com/favicon.ico",
                "service_name": "duosolarrenovaveis.wix.com",
                "id": 1
            }
        ],
        "ts": "1464199469.000030"
    },
    {
        "type": "message",
        "subtype": "file_share",
        "text": "<@U12BB9E03|erwan.lr> uploaded a file: <https://veganhills.slack.com/files/erwan.lr/F1BP0EHSR/trunsun_tsp-60.pdf|Slack for Android Upload>",
        "file": {
            "id": "F1BP0EHSR",
            "created": 1464199930,
            "timestamp": 1464199930,
            "name": "TrunSun TSP-60.pdf",
            "title": "Slack for Android Upload",
            "mimetype": "application/pdf",
            "filetype": "pdf",
            "pretty_type": "PDF",
            "user": "U12BB9E03",
            "editable": false,
            "size": 1010720,
            "mode": "hosted",
            "is_external": false,
            "external_type": "",
            "is_public": true,
            "public_url_shared": false,
            "display_as_bot": false,
            "username": "",
            "url_private": "https://files.slack.com/files-pri/T129BTQQ2-F1BP0EHSR/trunsun_tsp-60.pdf?t=xoxe-36317942818-50774082900-50794983538-94992aeae8",
            "url_private_download": "https://files.slack.com/files-pri/T129BTQQ2-F1BP0EHSR/download/trunsun_tsp-60.pdf?t=xoxe-36317942818-50774082900-50794983538-94992aeae8",
            "permalink": "https://veganhills.slack.com/files/erwan.lr/F1BP0EHSR/trunsun_tsp-60.pdf",
            "permalink_public": "https://slack-files.com/T129BTQQ2-F1BP0EHSR-c82ef98b87",
            "channels": [
                "C17TV99LP"
            ],
            "groups": [
    
            ],
            "ims": [
    
            ],
            "comments_count": 0
        },
        "user": "U12BB9E03",
        "upload": true,
        "display_as_bot": false,
        "username": "<@U12BB9E03|erwan.lr>",
        "bot_id": null,
        "ts": "1464199935.000032"
    },
    {
        "type": "message",
        "subtype": "file_share",
        "text": "<@U12BB9E03|erwan.lr> uploaded a file: <https://veganhills.slack.com/files/erwan.lr/F1BP65Y01/tfs250-12_dados_t__cnicos.pdf|Slack for Android Upload>",
        "file": {
            "id": "F1BP65Y01",
            "created": 1464199941,
            "timestamp": 1464199941,
            "name": "TFS250-12 Dados t\u00e9cnicos.pdf",
            "title": "Slack for Android Upload",
            "mimetype": "application/pdf",
            "filetype": "pdf",
            "pretty_type": "PDF",
            "user": "U12BB9E03",
            "editable": false,
            "size": 460820,
            "mode": "hosted",
            "is_external": false,
            "external_type": "",
            "is_public": true,
            "public_url_shared": false,
            "display_as_bot": false,
            "username": "",
            "url_private": "https://files.slack.com/files-pri/T129BTQQ2-F1BP65Y01/tfs250-12_dados_t__cnicos.pdf?t=xoxe-36317942818-50774082900-50794983538-94992aeae8",
            "url_private_download": "https://files.slack.com/files-pri/T129BTQQ2-F1BP65Y01/download/tfs250-12_dados_t__cnicos.pdf?t=xoxe-36317942818-50774082900-50794983538-94992aeae8",
            "permalink": "https://veganhills.slack.com/files/erwan.lr/F1BP65Y01/tfs250-12_dados_t__cnicos.pdf",
            "permalink_public": "https://slack-files.com/T129BTQQ2-F1BP65Y01-035218a1a9",
            "channels": [
                "C17TV99LP"
            ],
            "groups": [
    
            ],
            "ims": [
    
            ],
            "comments_count": 0
        },
        "user": "U12BB9E03",
        "upload": true,
        "display_as_bot": false,
        "username": "<@U12BB9E03|erwan.lr>",
        "bot_id": null,
        "ts": "1464199941.000033"
    },
    {
        "type": "message",
        "subtype": "file_share",
        "text": "<@U12BB9E03|erwan.lr> uploaded a file: <https://veganhills.slack.com/files/erwan.lr/F1BML2XTM/omega_serie.pdf|Slack for Android Upload>",
        "file": {
            "id": "F1BML2XTM",
            "created": 1464199967,
            "timestamp": 1464199967,
            "name": "Omega_Serie.pdf",
            "title": "Slack for Android Upload",
            "mimetype": "application/pdf",
            "filetype": "pdf",
            "pretty_type": "PDF",
            "user": "U12BB9E03",
            "editable": false,
            "size": 744198,
            "mode": "hosted",
            "is_external": false,
            "external_type": "",
            "is_public": true,
            "public_url_shared": false,
            "display_as_bot": false,
            "username": "",
            "url_private": "https://files.slack.com/files-pri/T129BTQQ2-F1BML2XTM/omega_serie.pdf?t=xoxe-36317942818-50774082900-50794983538-94992aeae8",
            "url_private_download": "https://files.slack.com/files-pri/T129BTQQ2-F1BML2XTM/download/omega_serie.pdf?t=xoxe-36317942818-50774082900-50794983538-94992aeae8",
            "permalink": "https://veganhills.slack.com/files/erwan.lr/F1BML2XTM/omega_serie.pdf",
            "permalink_public": "https://slack-files.com/T129BTQQ2-F1BML2XTM-313c0d22a6",
            "channels": [
                "C17TV99LP"
            ],
            "groups": [
    
            ],
            "ims": [
    
            ],
            "comments_count": 0
        },
        "user": "U12BB9E03",
        "upload": true,
        "display_as_bot": false,
        "username": "<@U12BB9E03|erwan.lr>",
        "bot_id": null,
        "ts": "1464199969.000034"
    },
    {
        "type": "message",
        "subtype": "file_share",
        "text": "<@U12BB9E03|erwan.lr> uploaded a file: <https://veganhills.slack.com/files/erwan.lr/F1BP17PEK/orc_-_upac_tiago_pita.pdf|Slack for Android Upload>",
        "file": {
            "id": "F1BP17PEK",
            "created": 1464200052,
            "timestamp": 1464200052,
            "name": "ORC - UPAC TIAGO PITA.pdf",
            "title": "Slack for Android Upload",
            "mimetype": "application/pdf",
            "filetype": "pdf",
            "pretty_type": "PDF",
            "user": "U12BB9E03",
            "editable": false,
            "size": 99891,
            "mode": "hosted",
            "is_external": false,
            "external_type": "",
            "is_public": true,
            "public_url_shared": false,
            "display_as_bot": false,
            "username": "",
            "url_private": "https://files.slack.com/files-pri/T129BTQQ2-F1BP17PEK/orc_-_upac_tiago_pita.pdf?t=xoxe-36317942818-50774082900-50794983538-94992aeae8",
            "url_private_download": "https://files.slack.com/files-pri/T129BTQQ2-F1BP17PEK/download/orc_-_upac_tiago_pita.pdf?t=xoxe-36317942818-50774082900-50794983538-94992aeae8",
            "permalink": "https://veganhills.slack.com/files/erwan.lr/F1BP17PEK/orc_-_upac_tiago_pita.pdf",
            "permalink_public": "https://slack-files.com/T129BTQQ2-F1BP17PEK-3e687775fc",
            "channels": [
                "C17TV99LP"
            ],
            "groups": [
    
            ],
            "ims": [
    
            ],
            "comments_count": 0
        },
        "user": "U12BB9E03",
        "upload": true,
        "display_as_bot": false,
        "username": "<@U12BB9E03|erwan.lr>",
        "bot_id": null,
        "ts": "1464200056.000035"
    },
    {
        "type": "message",
        "user": "U12BB9E03",
        "text": "Documents above are what the solar guy sent us (there is even a quote, latest document, but we would just need half of what has been quoted currently)",
        "edited": {
            "user": "U12BB9E03",
            "ts": "1464201278.000000"
        },
        "ts": "1464200150.000036"
    },
    {
        "type": "message",
        "user": "U12BB9E03",
        "text": "What are your thoughts about it ?",
        "ts": "1464200170.000037"
    },
    {
        "type": "message",
        "user": "U1B9HS8CV",
        "text": "in the summery:\n4.366\u20ac\n4x 250Ah Batteries (=1.000Ah 48V)\n5KV Inverter 48V\n6 x 260W Solar-Moduls (1.560W)\n\nThe price is including installation, right? it sounds like a realy good offer for me.",
        "ts": "1464209676.000040"
    }
]