[
    {
        "type": "message",
        "user": "U12BB9E03",
        "text": "We asked for a quote regarding a 1kw solar module, the inversor 5000 (from the initial quote) and a 4kwh batteries capacity",
        "edited": {
            "user": "U12BB9E03",
            "ts": "1464870477.000000"
        },
        "ts": "1464870416.000002",
        "reactions": [
            {
                "name": "+1",
                "users": [
                    "U1B9HS8CV"
                ],
                "count": 1
            }
        ]
    },
    {
        "type": "message",
        "user": "U1B9HS8CV",
        "text": "You mean 400Ah Batterie?\n\nFor the solar modules/panels only interesting the \"Watt\"\nThe volts of the panels is not so intresting/flexible, you only need it to know for the installtion.\n\nFor the batteries only intresting the ampere-hour (Ah)\nBatteries allways have 12 Volt, you can put it together to 24V or 48V, the count of batteries is flexible\n\nFor the inverter the most interessting is the max. outputt in  W \"Watt\" or VA \"volt-ampere\"\nBut also important is how many solar power it can support.",
        "edited": {
            "user": "U1B9HS8CV",
            "ts": "1464876422.000000"
        },
        "ts": "1464872999.000004"
    },
    {
        "type": "message",
        "user": "U1B9HS8CV",
        "text": "I have this mobile set and it is a good enough, mobile solution for two laptops and two smartphone, i bring it next week.\n\n<http://www.amazon.de/gp/product/B01AA9B1I0/ref=as_li_tl?ie=UTF8&amp;camp=1638&amp;creative=19454&amp;creativeASIN=B01AA9B1I0&amp;linkCode=as2&amp;tag=recovfrombuli-21>\n\n<http://www.amazon.de/gp/product/B0096M814U/ref=as_li_tl?ie=UTF8&amp;camp=1638&amp;creative=19454&amp;creativeASIN=B0096M814U&amp;linkCode=as2&amp;tag=recovfrombuli-21>",
        "edited": {
            "user": "U1B9HS8CV",
            "ts": "1464876729.000000"
        },
        "ts": "1464873018.000005"
    },
    {
        "type": "message",
        "user": "U15L9NJMA",
        "text": "For the inverter the most interessting is the max. outputt in \"Watt\" or KW",
        "ts": "1464873725.000007"
    },
    {
        "type": "message",
        "user": "U1B9HS8CV",
        "text": "I'm saying :wink:\noften inverters but also indicated with VA as a must be aware that it is only to the apparent power.\nthe K in KW means only Kilo = 1000",
        "ts": "1464876627.000009"
    },
    {
        "type": "message",
        "user": "U15L9NJMA",
        "text": "yes, or VA",
        "ts": "1464878466.000012"
    }
]