[
    {
        "type": "message",
        "user": "U12BB9E03",
        "text": "Done with the bank &amp; paper sent to the accountant, will probably have the VAT &amp; etc next week.\n\nFurthermore, from what I understood, the accountant will also make the contracts between people buying the land (giving the 10k) and the association because the bank can ask for such thing for large amount of money going in (anti-terrorist measure they said, lol).\n\nFinally, I started to draft the Statuses of the association which includes the admission and exclusion sections. Currently I just took the text etc from the website and updated some stuff. It's still a Work in Progress but we can already have a look and see what could be missing etc: <https://docs.google.com/document/d/11blHvCPlBlRbt-fvdQH_YEFtIj7njdMTOuIaw42XAew/edit>",
        "ts": "1462367149.000063",
        "reactions": [
            {
                "name": "simple_smile",
                "users": [
                    "U129BTR18",
                    "U128RR0EQ"
                ],
                "count": 2
            },
            {
                "name": "+1",
                "users": [
                    "U128RR0EQ"
                ],
                "count": 1
            }
        ]
    },
    {
        "type": "message",
        "user": "U12BB9E03",
        "text": "We are now going to the meeting with the owners of the 100ha land",
        "ts": "1462367186.000064"
    },
    {
        "type": "message",
        "user": "U129BTR18",
        "text": "The contract will stipulate that the money paid in the association, 10k can only be used to buy the land and in the event of selling the land everyone gets their money back",
        "ts": "1462367334.000065",
        "reactions": [
            {
                "name": "+1",
                "users": [
                    "U12FEFFB8",
                    "U1F7ZB45N"
                ],
                "count": 2
            }
        ]
    },
    {
        "type": "message",
        "user": "U12FEFFB8",
        "text": "Good! Just wondering if it also stipulates what happens to the deposited money  if in the end we don'tmanage to pay the final sum, those 10K each ? Would those who have contributed and the association just lose that money?   Maybe this has been asked and answered already. Also it would be good if there was something( in the contract or elsewhere)  about letting ones property on the land -can that be done or not?  and what applies when it comes to inheritance (I am 50 and not rich so starting to think about that...) Is it like a share that one's children would take over?",
        "ts": "1462373613.000066"
    },
    {
        "type": "message",
        "user": "U12A1M1Q8",
        "text": "Hi Karin, the only money that will be lost will be the deposited money. Unfortunately that's how it is when you make a deposit on land, but this should ideally be shared between all the people that want to buy the land eventually. Once the land is paid it will belong to the association that you are going to be a member of. You can sell the land to another vegoan member for 10k of you want to leave the project. If your kids want to live on the land and in the house that you have built they are absolutely free to do so. The reason why we don't want people to be able to sell their share for a higher price is because imagine the following: Monsanto or any other entity  wants to destroy the project and approaches members with a sum that you could not refuse and people start selling their shares to someone that is against all the values that Vegoa is represents. In order for this not to happen people cannot sell their shares, but they get they investment back if another vegoan wants to join. ",
        "ts": "1462387186.000067",
        "reactions": [
            {
                "name": "+1",
                "users": [
                    "U12ADP23E",
                    "U128RR0EQ",
                    "U12FEFFB8",
                    "U1F7ZB45N"
                ],
                "count": 4
            }
        ]
    },
    {
        "type": "message",
        "user": "U12A1M1Q8",
        "text": "Ps: the kid that takes over the house that wants to stay in Vegoa would have to accept the manifest once it is an adult ",
        "ts": "1462387319.000068",
        "reactions": [
            {
                "name": "white_check_mark",
                "users": [
                    "U1F7ZB45N"
                ],
                "count": 1
            }
        ]
    },
    {
        "type": "message",
        "user": "U12BB9E03",
        "text": "Regarding the statuses, I would need some help: I don't think everything from the website (such as economy etc) should be in there, it should be kept minimal, however I am a bit lost of what to have in them :disappointed:",
        "ts": "1462389546.000069"
    },
    {
        "type": "message",
        "user": "U12BB9E03",
        "text": "Initially, I just wanted to put the Manifest in the statuses, however as there were mentions of Organisations, Basic Income etc in it, it wasn't making any sense to not have those explained. However, if those sections are updated, the asso will have to update them as well in the statuses (another ATA to do etc :x)",
        "ts": "1462394622.000070"
    }
]