[
    {
        "user": "U1B9AVDEC",
        "type": "message",
        "subtype": "channel_join",
        "text": "<@U1B9AVDEC|dianavegan> has joined the channel",
        "ts": "1464085594.000002"
    },
    {
        "user": "U1B9HS8CV",
        "type": "message",
        "subtype": "channel_join",
        "text": "<@U1B9HS8CV|thomas> has joined the channel",
        "ts": "1464086695.000003"
    },
    {
        "user": "U1BB67R4Y",
        "type": "message",
        "subtype": "channel_join",
        "text": "<@U1BB67R4Y|gautivegan> has joined the channel",
        "ts": "1464100723.000004"
    },
    {
        "user": "U1BEP8Z4Y",
        "type": "message",
        "subtype": "channel_join",
        "text": "<@U1BEP8Z4Y|rafal_gudzinski> has joined the channel",
        "ts": "1464122931.000005"
    }
]