[
    {
        "type": "message",
        "user": "U12BB9E03",
        "text": "I think I saw a file about the dates when people would come to visit and / or stay in the land, but can not find it anymore. Any idea or was it in a dream :x ?",
        "ts": "1465033112.000004"
    },
    {
        "type": "message",
        "user": "U12TVPB35",
        "text": "isnt it the same file with the list of people who already made payments/plan to etc? (i cannot find right now :confused: )",
        "ts": "1465100394.000005"
    }
]