[
    {
        "user": "U1FG93Q5T",
        "type": "message",
        "subtype": "channel_join",
        "text": "<@U1FG93Q5T|snowflake> has joined the channel",
        "ts": "1465489020.000007"
    },
    {
        "user": "U1FJUQ6CV",
        "type": "message",
        "subtype": "channel_join",
        "text": "<@U1FJUQ6CV|wiwii> has joined the channel",
        "ts": "1465503408.000008"
    }
]