[
    {
        "type": "message",
        "user": "U129BTR18",
        "text": "You can use my macbook",
        "ts": "1464431951.000070"
    },
    {
        "type": "message",
        "user": "U129BTR18",
        "text": "Do you use Adobe or Apple editing software? I think I still have access to my University Apple credentials and I have an Adobe Premiere and after effects license if needed.",
        "ts": "1464432017.000071"
    },
    {
        "type": "message",
        "user": "U17TZS6AX",
        "text": "I mount with Adobe Premiere yes. My friend with his drone can help us but only in the end of June or beginning of July",
        "ts": "1464433524.000072"
    },
    {
        "type": "message",
        "user": "U129BTR18",
        "text": "<@U17TZS6AX>: can you create already something? similar to the video I shared above",
        "ts": "1464433925.000073"
    },
    {
        "type": "message",
        "user": "U12ADP23E",
        "text": "<https://www.youtube.com/watch?v=7SVCEUywdmY> -&gt; Left a message on the video regarding our community, maybe he'll get back to us and we can arrange a skype call. Would be a great source for promoting our community!",
        "edited": {
            "user": "U12ADP23E",
            "ts": "1464440227.000000"
        },
        "ts": "1464440219.000074"
    }
]