[
    {
        "type": "message",
        "user": "U12BB9E03",
        "text": "Archiving this channel as the deposit has been paid, and people should now pay the full amount (10k)",
        "ts": "1464340325.000013"
    },
    {
        "user": "U12BB9E03",
        "members": [
            "U127R2T19",
            "U128RR0EQ",
            "U129BTR18",
            "U129RSXGW",
            "U12A1M1Q8",
            "U12A47D9R",
            "U12A8854L",
            "U12A98M7U",
            "U12AAQ8K1",
            "U12ADP23E",
            "U12AGRQ75",
            "U12BB9E03",
            "U12C86XK3",
            "U12DP676J",
            "U12FDKCTU",
            "U12FEFFB8",
            "U12GSGVJT",
            "U12LBU64B",
            "U12LX3NTD",
            "U12NDBBUK",
            "U12SWDXT3",
            "U12TVPB35",
            "U135C9RED",
            "U13EXK1C5",
            "U13FL0GPN",
            "U13JUCX1S",
            "U13NVKKS8",
            "U14FF9U66",
            "U15L9NJMA",
            "U161R3DFE",
            "U1729LJJY",
            "U17TZS6AX",
            "U186N8S49",
            "U19CCLDRR",
            "U1B9AVDEC",
            "U1B9HS8CV",
            "U1BB67R4Y",
            "U1BEP8Z4Y"
        ],
        "type": "message",
        "subtype": "channel_archive",
        "text": "<@U12BB9E03|erwan.lr> archived the channel (w/ 38 members)",
        "ts": "1464340338.000014"
    }
]