[
    {
        "type": "message",
        "user": "U12BB9E03",
        "text": "<!group> Please see my message above. Furthermore, the deposit is part of the payment (kind of obvious), it's not something to pay on top of the 10-14k.\nExample: we are 40, 25 people give 2k for the deposit, so these 25 would have to pay 8k later on, and the 15 others 10k.",
        "edited": {
            "user": "U12BB9E03",
            "ts": "1461750114.000000"
        },
        "ts": "1461746435.000095"
    },
    {
        "type": "message",
        "user": "U12FDKCTU",
        "text": "Do we have an account yet?",
        "ts": "1461748221.000096"
    },
    {
        "type": "message",
        "user": "U12BB9E03",
        "text": "Not yet, we should have one at the end of this week or beginning next week",
        "ts": "1461749319.000097"
    },
    {
        "type": "message",
        "user": "U128RR0EQ",
        "text": "<@U12BB9E03> <@U129BTR18> what are the next steps to create the bank account? Can I help on something I guess <@U12BB9E03> has to create its NIF so <@U129BTR18> and <@U12BB9E03> can create the bank account together right?",
        "ts": "1461755177.000099"
    },
    {
        "type": "message",
        "user": "U13FL0GPN",
        "text": "We have clicked the box but can put 10k in immediately if needed. We don't have a NIF at the moment.  Can't wait to get started on the land :smiley:",
        "ts": "1461757507.000100",
        "reactions": [
            {
                "name": "+1",
                "users": [
                    "U128RR0EQ",
                    "U13FL0GPN",
                    "U13NVKKS8"
                ],
                "count": 3
            }
        ]
    },
    {
        "type": "message",
        "user": "U12TVPB35",
        "text": "just had a phone call with Henrique to share the 10k, so as soon as the account is there i guess we can put 1000 each",
        "ts": "1461763600.000101"
    },
    {
        "type": "message",
        "user": "U128RR0EQ",
        "text": "Hey <@U12TVPB35> :wink: you didn't apply yet to the VH form",
        "ts": "1461763865.000102"
    },
    {
        "type": "message",
        "user": "U12TVPB35",
        "text": "i just sent a message to Tiago...i fill the form saying i m sharing the 10k?",
        "ts": "1461763898.000103"
    },
    {
        "type": "message",
        "user": "U12TVPB35",
        "text": "Im filling the form specifing that i m sharing with Henrique",
        "ts": "1461764154.000104",
        "reactions": [
            {
                "name": "+1",
                "users": [
                    "U128RR0EQ"
                ],
                "count": 1
            }
        ]
    },
    {
        "type": "message",
        "user": "U128RR0EQ",
        "text": "Perfect :wink: ",
        "ts": "1461764410.000105",
        "reactions": [
            {
                "name": "+1",
                "users": [
                    "U12TVPB35"
                ],
                "count": 1
            }
        ]
    },
    {
        "type": "message",
        "user": "U12FDKCTU",
        "text": "I also clicked the box but am ready to pay the full amount as soon as we have the account. Should I pay the 10000 plus the 500 to the same account?",
        "ts": "1461818558.000106"
    }
]