[
    {
        "type": "message",
        "user": "U12FEFFB8",
        "text": "Ok, are you saying we have to get to Portugal to get a  fiscal number within those ten days?  Howlong does that process take aproximately? Ican try to find out that and other such things if thisissomething you need helpwith...  We are planning the Portugal trip and would be good to  know exactly what we need to fit in in order to  join.",
        "ts": "1461319905.000037",
        "reactions": [
            {
                "name": "+1",
                "users": [
                    "U127R2T19"
                ],
                "count": 1
            }
        ]
    },
    {
        "user": "U12NDBBUK",
        "inviter": "U129BTR18",
        "type": "message",
        "subtype": "channel_join",
        "text": "<@U12NDBBUK|naomi> has joined the channel",
        "ts": "1461347023.000038"
    },
    {
        "user": "U12TVPB35",
        "inviter": "U129BTR18",
        "type": "message",
        "subtype": "channel_join",
        "text": "<@U12TVPB35|simonav> has joined the channel",
        "ts": "1461347023.000039"
    },
    {
        "user": "U12SWDXT3",
        "inviter": "U129BTR18",
        "type": "message",
        "subtype": "channel_join",
        "text": "<@U12SWDXT3|leaoleal> has joined the channel",
        "ts": "1461347023.000040"
    },
    {
        "type": "message",
        "user": "U129BTR18",
        "text": "You don\u2019t need in the next 10 days",
        "ts": "1461347038.000041"
    },
    {
        "type": "message",
        "user": "U129BTR18",
        "text": "we have until sptember to pay the land",
        "ts": "1461347046.000042"
    },
    {
        "type": "message",
        "user": "U129BTR18",
        "text": "but need to pay half sometime in the next two months",
        "ts": "1461347058.000043"
    },
    {
        "type": "message",
        "user": "U129BTR18",
        "text": "everyone that needs more trust should come and get the name on the cooperative :simple_smile:",
        "ts": "1461347076.000044"
    },
    {
        "type": "message",
        "user": "U12FDKCTU",
        "text": "Hi Tiago, I can make full payments next week if needed. If I understand you correctly, I would have to come to Portugal to sign papers any time between now and September.",
        "ts": "1461348790.000045",
        "reactions": [
            {
                "name": "+1",
                "users": [
                    "U129BTR18",
                    "U128RR0EQ"
                ],
                "count": 2
            }
        ]
    },
    {
        "type": "message",
        "user": "U129BTR18",
        "text": "Yes",
        "ts": "1461348808.000046"
    },
    {
        "type": "message",
        "user": "U129BTR18",
        "text": "We need to open the bank account first, so will be in the next days",
        "ts": "1461348854.000047"
    },
    {
        "type": "message",
        "user": "U12FDKCTU",
        "text": "OK, I can take about ten days off to visit you all and would like to spend that time helping with house building. Do you have any idea when house construction will begin. Also, please let me know if you know the exact deadline date to sign papers in September.",
        "ts": "1461349007.000048"
    },
    {
        "type": "message",
        "user": "U129BTR18",
        "text": "we should sign last week of August so we can get all the money together in sptember",
        "ts": "1461349053.000049"
    },
    {
        "type": "message",
        "user": "U129BTR18",
        "text": "In the contract we are doing with the owner we should get permission to start at least platting some trees in the next weeks",
        "ts": "1461349084.000050"
    },
    {
        "type": "message",
        "user": "U129BTR18",
        "text": "We want to use the hot summer days to build",
        "ts": "1461349101.000051"
    },
    {
        "type": "message",
        "user": "U129BTR18",
        "text": "as we can\u2019t farm",
        "ts": "1461349109.000052"
    },
    {
        "type": "message",
        "user": "U128RR0EQ",
        "text": "<@U12FDKCTU>: we can start protecting the soil by planting as much as trees as we can",
        "ts": "1461349153.000053"
    },
    {
        "type": "message",
        "user": "U128RR0EQ",
        "text": "following the principles of agroforestry",
        "ts": "1461349210.000054"
    },
    {
        "type": "message",
        "user": "U128RR0EQ",
        "text": "<https://en.wikipedia.org/wiki/Agroforestry>",
        "edited": {
            "user": "U128RR0EQ",
            "ts": "1461349223.000000"
        },
        "ts": "1461349210.000055"
    },
    {
        "type": "message",
        "user": "U12FDKCTU",
        "text": "OK thanks. Please let me know as soon as you can estimate the beginning date of house construction.",
        "ts": "1461349260.000057"
    },
    {
        "type": "message",
        "user": "U129BTR18",
        "text": "Ok, as soon as we know when we get the land :simple_smile:",
        "ts": "1461349289.000058"
    },
    {
        "type": "message",
        "user": "U129BTR18",
        "text": "<@U12FDKCTU>: can we add to the spreadsheet that you are ok paying 10k now?",
        "ts": "1461350068.000059"
    },
    {
        "type": "message",
        "user": "U12FDKCTU",
        "text": "Yes",
        "ts": "1461350211.000060"
    },
    {
        "type": "message",
        "user": "U129BTR18",
        "text": "Great :simple_smile:",
        "ts": "1461350222.000061"
    },
    {
        "type": "message",
        "user": "U129BTR18",
        "text": "before any payment we will share the contract with the land owners here",
        "edited": {
            "user": "U129BTR18",
            "ts": "1461350293.000000"
        },
        "ts": "1461350245.000062"
    },
    {
        "type": "message",
        "user": "U129BTR18",
        "text": "I will ask the lawyer to make it in English as well",
        "ts": "1461350270.000063"
    },
    {
        "type": "message",
        "user": "U12FDKCTU",
        "text": "I can make transfer beginning of next week which should take 3-5 bank days to reach you. Please give me transfer details.",
        "ts": "1461350279.000064"
    },
    {
        "type": "message",
        "user": "U129BTR18",
        "text": "As soon as we get the bank account :simple_smile:",
        "ts": "1461350308.000066"
    },
    {
        "type": "message",
        "user": "U128RR0EQ",
        "text": "Let's reach the 50k\u20ac for the end of the month :+1: ",
        "ts": "1461350550.000067"
    }
]