[
    {
        "user": "U1B9AVDEC",
        "type": "message",
        "subtype": "channel_join",
        "text": "<@U1B9AVDEC|dianavegan> has joined the channel",
        "ts": "1464085594.000005"
    },
    {
        "user": "U1B9HS8CV",
        "type": "message",
        "subtype": "channel_join",
        "text": "<@U1B9HS8CV|thomas> has joined the channel",
        "ts": "1464086696.000006"
    },
    {
        "user": "U1BB67R4Y",
        "type": "message",
        "subtype": "channel_join",
        "text": "<@U1BB67R4Y|gautivegan> has joined the channel",
        "ts": "1464100723.000007"
    },
    {
        "type": "message",
        "user": "U12C86XK3",
        "text": "Hi everyone, we just paid the deposit 2000, and association fee 500, please contact us if any problems",
        "ts": "1464116620.000008"
    },
    {
        "type": "message",
        "user": "U1BB67R4Y",
        "text": "cool",
        "ts": "1464119747.000009"
    },
    {
        "type": "message",
        "user": "U12A1M1Q8",
        "text": "Thanks <@U12C86XK3> . Greatly appreciated.",
        "ts": "1464119984.000010"
    },
    {
        "user": "U1BEP8Z4Y",
        "type": "message",
        "subtype": "channel_join",
        "text": "<@U1BEP8Z4Y|rafal_gudzinski> has joined the channel",
        "ts": "1464122931.000011"
    }
]