[
    {
        "type": "message",
        "user": "U12A1M1Q8",
        "text": "<@U12FEFFB8>: we are going to ask the lawyer about this. ",
        "ts": "1462435056.000197"
    },
    {
        "type": "message",
        "user": "U129BTR18",
        "text": "<@U12FEFFB8>: the money is returned, because it can be only used to buy the land",
        "ts": "1462436407.000198"
    }
]