[
    {
        "user": "U12A1M1Q8",
        "type": "message",
        "subtype": "channel_join",
        "text": "<@U12A1M1Q8|kati> has joined the channel",
        "ts": "1463296476.000002"
    },
    {
        "user": "U13EXK1C5",
        "inviter": "U12A1M1Q8",
        "type": "message",
        "subtype": "channel_join",
        "text": "<@U13EXK1C5|anamoreira> has joined the channel",
        "ts": "1463296578.000003"
    },
    {
        "user": "U13NVKKS8",
        "inviter": "U12A1M1Q8",
        "type": "message",
        "subtype": "channel_join",
        "text": "<@U13NVKKS8|bartje> has joined the channel",
        "ts": "1463296578.000004"
    },
    {
        "user": "U128RR0EQ",
        "inviter": "U12A1M1Q8",
        "type": "message",
        "subtype": "channel_join",
        "text": "<@U128RR0EQ|canercandan> has joined the channel",
        "ts": "1463296578.000005"
    },
    {
        "user": "U186N8S49",
        "inviter": "U12A1M1Q8",
        "type": "message",
        "subtype": "channel_join",
        "text": "<@U186N8S49|carinaalves> has joined the channel",
        "ts": "1463296578.000006"
    },
    {
        "user": "U12LBU64B",
        "inviter": "U12A1M1Q8",
        "type": "message",
        "subtype": "channel_join",
        "text": "<@U12LBU64B|charlmon> has joined the channel",
        "ts": "1463296578.000007"
    },
    {
        "user": "U12DP676J",
        "inviter": "U12A1M1Q8",
        "type": "message",
        "subtype": "channel_join",
        "text": "<@U12DP676J|daniel-roux> has joined the channel",
        "ts": "1463296578.000008"
    },
    {
        "user": "U135C9RED",
        "inviter": "U12A1M1Q8",
        "type": "message",
        "subtype": "channel_join",
        "text": "<@U135C9RED|mecs3> has joined the channel",
        "ts": "1463296578.000009"
    },
    {
        "user": "U12SWDXT3",
        "inviter": "U12A1M1Q8",
        "type": "message",
        "subtype": "channel_join",
        "text": "<@U12SWDXT3|leaoleal> has joined the channel",
        "ts": "1463296578.000010"
    },
    {
        "user": "U12BB9E03",
        "inviter": "U12A1M1Q8",
        "type": "message",
        "subtype": "channel_join",
        "text": "<@U12BB9E03|erwan.lr> has joined the channel",
        "ts": "1463296578.000011"
    },
    {
        "user": "U12ADP23E",
        "inviter": "U12A1M1Q8",
        "type": "message",
        "subtype": "channel_join",
        "text": "<@U12ADP23E|sector> has joined the channel",
        "ts": "1463296578.000012"
    },
    {
        "user": "U127R2T19",
        "inviter": "U12A1M1Q8",
        "type": "message",
        "subtype": "channel_join",
        "text": "<@U127R2T19|geraldinestarke> has joined the channel",
        "ts": "1463296578.000013"
    },
    {
        "user": "U1729LJJY",
        "inviter": "U12A1M1Q8",
        "type": "message",
        "subtype": "channel_join",
        "text": "<@U1729LJJY|glenmonks1> has joined the channel",
        "ts": "1463296578.000014"
    },
    {
        "user": "U15L9NJMA",
        "inviter": "U12A1M1Q8",
        "type": "message",
        "subtype": "channel_join",
        "text": "<@U15L9NJMA|henrique> has joined the channel",
        "ts": "1463296578.000015"
    },
    {
        "user": "U12AAQ8K1",
        "inviter": "U12A1M1Q8",
        "type": "message",
        "subtype": "channel_join",
        "text": "<@U12AAQ8K1|irmine-pema> has joined the channel",
        "ts": "1463296578.000016"
    },
    {
        "user": "U12C86XK3",
        "inviter": "U12A1M1Q8",
        "type": "message",
        "subtype": "channel_join",
        "text": "<@U12C86XK3|ivoraf> has joined the channel",
        "ts": "1463296578.000017"
    },
    {
        "user": "U161R3DFE",
        "inviter": "U12A1M1Q8",
        "type": "message",
        "subtype": "channel_join",
        "text": "<@U161R3DFE|jmac> has joined the channel",
        "ts": "1463296578.000018"
    },
    {
        "user": "U14FF9U66",
        "inviter": "U12A1M1Q8",
        "type": "message",
        "subtype": "channel_join",
        "text": "<@U14FF9U66|jeroenboss> has joined the channel",
        "ts": "1463296578.000019"
    },
    {
        "user": "U12FEFFB8",
        "inviter": "U12A1M1Q8",
        "type": "message",
        "subtype": "channel_join",
        "text": "<@U12FEFFB8|felix2001> has joined the channel",
        "ts": "1463296578.000020"
    },
    {
        "user": "U17TZS6AX",
        "inviter": "U12A1M1Q8",
        "type": "message",
        "subtype": "channel_join",
        "text": "<@U17TZS6AX|kohann> has joined the channel",
        "ts": "1463296578.000021"
    },
    {
        "user": "U129RSXGW",
        "inviter": "U12A1M1Q8",
        "type": "message",
        "subtype": "channel_join",
        "text": "<@U129RSXGW|maggie67> has joined the channel",
        "ts": "1463296578.000022"
    },
    {
        "user": "U12FDKCTU",
        "inviter": "U12A1M1Q8",
        "type": "message",
        "subtype": "channel_join",
        "text": "<@U12FDKCTU|mattias> has joined the channel",
        "ts": "1463296578.000023"
    },
    {
        "user": "U12A98M7U",
        "inviter": "U12A1M1Q8",
        "type": "message",
        "subtype": "channel_join",
        "text": "<@U12A98M7U|melissa> has joined the channel",
        "ts": "1463296578.000024"
    },
    {
        "user": "U12NDBBUK",
        "inviter": "U12A1M1Q8",
        "type": "message",
        "subtype": "channel_join",
        "text": "<@U12NDBBUK|naomi> has joined the channel",
        "ts": "1463296578.000025"
    },
    {
        "user": "U12LX3NTD",
        "inviter": "U12A1M1Q8",
        "type": "message",
        "subtype": "channel_join",
        "text": "<@U12LX3NTD|nnsoares> has joined the channel",
        "ts": "1463296578.000026"
    },
    {
        "user": "U12A47D9R",
        "inviter": "U12A1M1Q8",
        "type": "message",
        "subtype": "channel_join",
        "text": "<@U12A47D9R|joker> has joined the channel",
        "ts": "1463296578.000027"
    },
    {
        "user": "U12A8854L",
        "inviter": "U12A1M1Q8",
        "type": "message",
        "subtype": "channel_join",
        "text": "<@U12A8854L|seanlall> has joined the channel",
        "ts": "1463296578.000028"
    },
    {
        "user": "U13JUCX1S",
        "inviter": "U12A1M1Q8",
        "type": "message",
        "subtype": "channel_join",
        "text": "<@U13JUCX1S|sharonmelaffefon> has joined the channel",
        "ts": "1463296578.000029"
    },
    {
        "user": "U12TVPB35",
        "inviter": "U12A1M1Q8",
        "type": "message",
        "subtype": "channel_join",
        "text": "<@U12TVPB35|simonav> has joined the channel",
        "ts": "1463296578.000030"
    },
    {
        "user": "U129BTR18",
        "inviter": "U12A1M1Q8",
        "type": "message",
        "subtype": "channel_join",
        "text": "<@U129BTR18|tiagopita> has joined the channel",
        "ts": "1463296578.000031"
    },
    {
        "user": "U12AGRQ75",
        "inviter": "U12A1M1Q8",
        "type": "message",
        "subtype": "channel_join",
        "text": "<@U12AGRQ75|avegan> has joined the channel",
        "ts": "1463296578.000032"
    },
    {
        "user": "U12A1M1Q8",
        "topic": "To organize weekly or monthly events with music, sport, food, discussion groups, information about Vegoa and veganism with the aim to create awareness and fund new projects or create new businesses",
        "type": "message",
        "subtype": "channel_topic",
        "text": "<@U12A1M1Q8|kati> set the channel topic: To organize weekly or monthly events with music, sport, food, discussion groups, information about Vegoa and veganism with the aim to create awareness and fund new projects or create new businesses",
        "ts": "1463296688.000033"
    },
    {
        "type": "message",
        "user": "U12A1M1Q8",
        "text": "<!channel>: morning everyone, I created a channel to start preparations for some events that can involve the community of Vila do Bispo and tourists that look for vegan alternatives but also for non-vegans that can be introduced to a different lifestyle. ",
        "ts": "1463296837.000034",
        "reactions": [
            {
                "name": "+1",
                "users": [
                    "U161R3DFE",
                    "U128RR0EQ",
                    "U129BTR18"
                ],
                "count": 3
            },
            {
                "name": "clap",
                "users": [
                    "U12AAQ8K1"
                ],
                "count": 1
            }
        ]
    },
    {
        "type": "message",
        "user": "U12NDBBUK",
        "text": "Hi Kati, sounds good ",
        "ts": "1463300505.000035"
    },
    {
        "type": "message",
        "user": "U128RR0EQ",
        "text": "Thanks Kati",
        "edited": {
            "user": "U128RR0EQ",
            "ts": "1463303385.000000"
        },
        "ts": "1463303373.000036"
    },
    {
        "type": "message",
        "user": "U17TZS6AX",
        "text": "The cousin of my friend and roomate here in Paris is a musician he would love to play for the futur festival.",
        "ts": "1463303762.000038"
    },
    {
        "type": "message",
        "user": "U17TZS6AX",
        "text": "His band opened a lof of festival in Portugal, India, Brasil, Thailand etc",
        "ts": "1463303958.000039"
    },
    {
        "type": "message",
        "user": "U17TZS6AX",
        "text": "<https://www.youtube.com/watch?v=HlgBrl-AZz8>",
        "attachments": [
            {
                "service_name": "YouTube",
                "service_url": "https://www.youtube.com/",
                "title": "GOAYANDI || OPENING || BOOM FESTIVAL 2014",
                "title_link": "https://www.youtube.com/watch?v=HlgBrl-AZz8",
                "author_name": "goayandi",
                "author_link": "https://www.youtube.com/user/goayandi",
                "thumb_url": "https://i.ytimg.com/vi/HlgBrl-AZz8/hqdefault.jpg",
                "thumb_width": 480,
                "thumb_height": 360,
                "fallback": "YouTube Video: GOAYANDI || OPENING || BOOM FESTIVAL 2014",
                "video_html": "<iframe width=\"400\" height=\"225\" src=\"https://www.youtube.com/embed/HlgBrl-AZz8?feature=oembed&autoplay=1&iv_load_policy=3\" frameborder=\"0\" allowfullscreen></iframe>",
                "video_html_width": 400,
                "video_html_height": 225,
                "from_url": "https://www.youtube.com/watch?v=HlgBrl-AZz8",
                "id": 1
            }
        ],
        "ts": "1463304094.000040"
    },
    {
        "type": "message",
        "user": "U12A1M1Q8",
        "text": "Wow great. That would be a very nice highlight ",
        "ts": "1463304148.000042"
    },
    {
        "type": "message",
        "user": "U17TZS6AX",
        "text": "Yes they are quite famous actually",
        "ts": "1463304176.000043",
        "reactions": [
            {
                "name": "+1",
                "users": [
                    "U12TVPB35"
                ],
                "count": 1
            }
        ]
    },
    {
        "type": "message",
        "user": "U17TZS6AX",
        "text": "they never used electronic sounds just acoustic",
        "ts": "1463304191.000044"
    },
    {
        "type": "message",
        "user": "U12A1M1Q8",
        "text": "Would we need to build some kind of stage? Where could people sit and listen? We have to think whether and where we can prepare an open space",
        "ts": "1463304210.000045"
    },
    {
        "type": "message",
        "user": "U17TZS6AX",
        "text": "We could do a stage like we have in my native region in Tours (France) <http://media.rtl2.fr/cache/oE9ro6pG8wVHtFKhc5VYdA/795v530-0/online/image/2015/0422/7777441333_terres-du-son.jpg>",
        "attachments": [
            {
                "fallback": "795x530px image",
                "image_url": "http://media.rtl2.fr/cache/oE9ro6pG8wVHtFKhc5VYdA/795v530-0/online/image/2015/0422/7777441333_terres-du-son.jpg",
                "image_width": 795,
                "image_height": 530,
                "image_bytes": 108761,
                "from_url": "http://media.rtl2.fr/cache/oE9ro6pG8wVHtFKhc5VYdA/795v530-0/online/image/2015/0422/7777441333_terres-du-son.jpg",
                "id": 1
            }
        ],
        "ts": "1463304290.000046"
    },
    {
        "type": "message",
        "user": "U17TZS6AX",
        "text": "I don't know",
        "ts": "1463304295.000048"
    },
    {
        "type": "message",
        "user": "U17TZS6AX",
        "text": "or maybe something more natural could be nice and more like the idea of the village",
        "ts": "1463304316.000049"
    },
    {
        "type": "message",
        "user": "U12A1M1Q8",
        "text": "Sure",
        "ts": "1463304324.000050"
    },
    {
        "type": "message",
        "user": "U12A1M1Q8",
        "text": "Will they be happy to play for a smaller audience?",
        "ts": "1463304343.000051"
    },
    {
        "type": "message",
        "user": "U17TZS6AX",
        "text": "yeah, they loved the idea of the village, I think if we could host them it would be ok",
        "ts": "1463304366.000052"
    },
    {
        "type": "message",
        "user": "U17TZS6AX",
        "text": "I worked with a lot of great musicians actually I could ask to one of my friend, an australian guy",
        "ts": "1463304394.000053"
    },
    {
        "type": "message",
        "user": "U17TZS6AX",
        "text": "he is a genius of music really",
        "ts": "1463304405.000054"
    },
    {
        "type": "message",
        "user": "U12A1M1Q8",
        "text": "Thanks a lot <@U17TZS6AX> , that would be really great.",
        "ts": "1463304443.000055"
    },
    {
        "type": "message",
        "user": "U17TZS6AX",
        "text": "<https://youtu.be/QFEgOElElD4?t=29>",
        "attachments": [
            {
                "service_name": "YouTube",
                "service_url": "https://www.youtube.com/",
                "title": "Owen Campbell performs Mountain Home",
                "title_link": "https://youtu.be/QFEgOElElD4?t=29",
                "author_name": "rustzine",
                "author_link": "https://www.youtube.com/user/rustzine",
                "thumb_url": "https://i.ytimg.com/vi/QFEgOElElD4/hqdefault.jpg",
                "thumb_width": 480,
                "thumb_height": 360,
                "fallback": "YouTube Video: Owen Campbell performs Mountain Home",
                "video_html": "<iframe width=\"400\" height=\"225\" src=\"https://www.youtube.com/embed/QFEgOElElD4?start=29&feature=oembed&start=29&autoplay=1&iv_load_policy=3\" frameborder=\"0\" allowfullscreen></iframe>",
                "video_html_width": 400,
                "video_html_height": 225,
                "from_url": "https://youtu.be/QFEgOElElD4?t=29",
                "id": 1
            }
        ],
        "ts": "1463304458.000056"
    },
    {
        "type": "message",
        "user": "U17TZS6AX",
        "text": "I made his videoclip and his cover album, now he is a dad (three weeks) but i could ask him.",
        "ts": "1463304498.000058"
    },
    {
        "type": "message",
        "user": "U12A1M1Q8",
        "text": " I will be back in Portugal in August. Maybe we manage to organise the first one for this date.",
        "ts": "1463304512.000059"
    },
    {
        "type": "message",
        "user": "U17TZS6AX",
        "text": "Yeah it give me some time to ask to singers or musicians",
        "ts": "1463304682.000060"
    },
    {
        "type": "message",
        "user": "U17TZS6AX",
        "text": "(I'm already sending emails)",
        "ts": "1463304931.000061",
        "reactions": [
            {
                "name": "+1",
                "users": [
                    "U12A1M1Q8",
                    "U128RR0EQ"
                ],
                "count": 2
            }
        ]
    },
    {
        "type": "message",
        "user": "U12A1M1Q8",
        "text": "Great. We also need some help preparing the location for a festival and making sure that the place is not trashed after. So anyone that wants to help organising somethibg for august or before please let me know ",
        "ts": "1463304946.000062"
    },
    {
        "type": "message",
        "user": "U17TZS6AX",
        "text": "if I find some people to help, they could be plant their tent without paying?",
        "ts": "1463305282.000063"
    },
    {
        "type": "message",
        "user": "U12A1M1Q8",
        "text": "Let's ask <!everyone> ",
        "ts": "1463305340.000064"
    },
    {
        "type": "message",
        "user": "U12A1M1Q8",
        "text": " think it's important to make sure that the nature does not get affected by it. ",
        "ts": "1463305394.000065"
    },
    {
        "type": "message",
        "user": "U17TZS6AX",
        "text": "I dont think people with travel down there to help to security or organisation or cleaning if they have to ask for the location :disappointed:",
        "ts": "1463305414.000066"
    },
    {
        "type": "message",
        "user": "U17TZS6AX",
        "text": "we don't have to pay them but if they help us maybe we could just offer them a place to put their tent, what do you think?",
        "ts": "1463305440.000067"
    },
    {
        "type": "message",
        "user": "U12A1M1Q8",
        "text": "I absolutely agree.",
        "ts": "1463305456.000068"
    },
    {
        "type": "message",
        "user": "U12A1M1Q8",
        "text": "But we have to ask whether everyone else is ok with it.",
        "ts": "1463305474.000069"
    },
    {
        "type": "message",
        "user": "U17TZS6AX",
        "text": "yes of course. I get back to you as soon as I know more :slightly_smiling_face:",
        "ts": "1463306273.000070"
    },
    {
        "type": "message",
        "user": "U17TZS6AX",
        "text": "a singer already answer me she had to know a date to decide because she has a lot of things to do. Without a true date is going to be difficult for now to have a solid answer i think.",
        "ts": "1463306308.000071"
    },
    {
        "type": "message",
        "user": "U12A1M1Q8",
        "text": "Yes. I can imagine. Let me talk to the others and we can make a decision tonight.",
        "ts": "1463306433.000072"
    },
    {
        "type": "message",
        "user": "U12ADP23E",
        "text": "It would be nice, but I guess we should have an infrastructure built first. Something similar to the boom festival, in order to receive this sort of event.\nMany people bring alot of trash, and I personally, don't want any of it on the land. I would want it pristine clear! :smiley: Would like to hear others opinions aswell!",
        "ts": "1463312580.000073"
    },
    {
        "type": "message",
        "user": "U128RR0EQ",
        "text": "We have to find an easy way to create survey",
        "ts": "1463313239.000074"
    },
    {
        "type": "message",
        "user": "U128RR0EQ",
        "text": "And it could part of the organisation presentation slides",
        "ts": "1463313263.000075"
    },
    {
        "type": "message",
        "user": "U128RR0EQ",
        "text": "Something members don't take much time to understand ",
        "ts": "1463313297.000076"
    },
    {
        "type": "message",
        "user": "U128RR0EQ",
        "text": "And then based on the need of this organisation let's say people involved money common resources ...",
        "ts": "1463313344.000077"
    },
    {
        "type": "message",
        "user": "U128RR0EQ",
        "text": "The presentation slides reflect that and the readers can add their input thanks to the survey",
        "ts": "1463313384.000078"
    },
    {
        "type": "message",
        "user": "U128RR0EQ",
        "text": "Otherwise it become very hard to follow every discussion and projects in slack",
        "ts": "1463313422.000079",
        "reactions": [
            {
                "name": "+1",
                "users": [
                    "U12ADP23E",
                    "U12AAQ8K1"
                ],
                "count": 2
            }
        ]
    },
    {
        "type": "message",
        "user": "U128RR0EQ",
        "text": "Another thing I am already doing with my organisations (cf. #_o_it, #_o_vegetas in Vegoa slack) is to create a private channel where only people that show their will to become members are part of",
        "ts": "1463313524.000080"
    },
    {
        "type": "message",
        "user": "U128RR0EQ",
        "text": "So people don't feel the need to read every single discussion",
        "ts": "1463313555.000081"
    },
    {
        "type": "message",
        "user": "U128RR0EQ",
        "text": "(It is just my opinion organisations decide of course how they manage to communicate)",
        "ts": "1463313602.000082"
    },
    {
        "type": "message",
        "user": "U12A1M1Q8",
        "text": "I was thinking of starting with something small this year like a fest where people can try our food. Practise yoga etc. With us. Have presentations etc.",
        "ts": "1463315276.000083",
        "reactions": [
            {
                "name": "+1",
                "users": [
                    "U12FEFFB8",
                    "U186N8S49",
                    "U12AAQ8K1"
                ],
                "count": 3
            }
        ]
    },
    {
        "type": "message",
        "user": "U129BTR18",
        "text": "The first festival can be in a council space",
        "ts": "1463332705.000084"
    },
    {
        "type": "message",
        "user": "U129BTR18",
        "text": "I am trying to meet with the Mayor and can propose this to him",
        "ts": "1463332718.000085",
        "reactions": [
            {
                "name": "+1",
                "users": [
                    "U12AAQ8K1",
                    "U12A1M1Q8",
                    "U1F7ZB45N"
                ],
                "count": 3
            }
        ]
    },
    {
        "type": "message",
        "user": "U129BTR18",
        "text": "He will really like the idea and is a good idea for him to see the value we bring to the community",
        "ts": "1463332737.000086"
    },
    {
        "type": "message",
        "user": "U129BTR18",
        "text": "If you guys can put a summary together I can prepare a pitch for him",
        "ts": "1463332757.000087"
    },
    {
        "type": "message",
        "user": "U129BTR18",
        "text": "I am pretty sure he will say yes",
        "ts": "1463332771.000088"
    },
    {
        "type": "message",
        "user": "U12A1M1Q8",
        "text": "<@U17TZS6AX>: <@U129BTR18> I think that's a great solution. So there would be no need to restructure the land. Do you think your friends would still like to come and play?",
        "ts": "1463380627.000089"
    }
]