[
    {
        "type": "message",
        "user": "U127R2T19",
        "text": "Yesterday we had a Skype call with a  German lady living in France that is really interested and would join right away but can't have the 10k now. Anyway she wants to help and be involved and she will share the project to all her connections. She wants as well to help translating the website in German. For that she wanted to know if something is already been done so she doesn't do it twice? <@U12A1M1Q8> I think you started right? Let me know how far you came so I can tell her and she can start working on the rest",
        "ts": "1464296636.000007"
    }
]