[
    {
        "type": "message",
        "user": "U12ADP23E",
        "text": "What about planning a weekly or daily, skype conference call. Would be nice to discuss a certain topic, or tasks ahead. What do you think?",
        "ts": "1461696087.000026",
        "reactions": [
            {
                "name": "+1",
                "users": [
                    "U129BTR18"
                ],
                "count": 1
            }
        ]
    }
]