[
    {
        "user": "U19CCLDRR",
        "type": "message",
        "subtype": "channel_join",
        "text": "<@U19CCLDRR|jamie_h> has joined the channel",
        "ts": "1463470563.000078"
    }
]