[
    {
        "type": "message",
        "user": "U129BTR18",
        "text": "Hi guys, when calling where are you writing the feedback of each call?",
        "ts": "1463723992.000002"
    },
    {
        "type": "message",
        "user": "U129BTR18",
        "text": "When people will pay, or visit or not?",
        "ts": "1463724007.000003"
    },
    {
        "type": "message",
        "user": "U129BTR18",
        "text": "We really need this as we need to know how far we are from the 40 families",
        "ts": "1463724024.000004"
    }
]