[
    {
        "type": "message",
        "user": "U12AGRQ75",
        "text": "I want to start contact people about the deposit. Since I will be doing that is there any other communicating you want to get it through? Also, is there a list of contacts I can access?",
        "ts": "1462126609.000034"
    }
]