[
    {
        "user": "U128RR0EQ",
        "type": "message",
        "subtype": "channel_leave",
        "text": "<@U128RR0EQ|canercandan> has left the channel",
        "ts": "1465828475.000002"
    }
]