[
    {
        "user": "U129BTR18",
        "members": [
            "U127R2T19",
            "U129BTR18",
            "U12ADP23E",
            "U12BB9E03",
            "U13EXK1C5",
            "U17TZS6AX"
        ],
        "type": "message",
        "subtype": "channel_archive",
        "text": "<@U129BTR18|tiagopita> archived the channel (w/ 6 members)",
        "ts": "1465902557.000003"
    }
]