[
    {
        "type": "message",
        "user": "U127R2T19",
        "text": " Can someone Portuguese speaking please translate the lawyer's contract so we can share? Thanks ",
        "ts": "1465663375.000009"
    },
    {
        "type": "message",
        "user": "U1F7ZB45N",
        "text": "I'm on it",
        "ts": "1465669557.000010",
        "reactions": [
            {
                "name": "+1",
                "users": [
                    "U127R2T19"
                ],
                "count": 1
            }
        ]
    }
]