[
    {
        "user": "U14FF9U66",
        "inviter": "U12BB9E03",
        "type": "message",
        "subtype": "channel_join",
        "text": "<@U14FF9U66|jeroenboss> has joined the channel",
        "ts": "1461840488.000160"
    },
    {
        "type": "message",
        "user": "U12BB9E03",
        "text": "We would need two more  people speaking &amp; writing Portuguese to be part of the \"Table of Assembly\" organ in the association which would consist mainly on reporting about meetings of the General Assembly. <@U12ADP23E> is already in this organ :simple_smile:",
        "edited": {
            "user": "U12BB9E03",
            "ts": "1461840967.000000"
        },
        "ts": "1461840530.000161"
    },
    {
        "type": "message",
        "user": "U12BB9E03",
        "text": "Just one more needed in the Table of Assembly :simple_smile:",
        "ts": "1461844443.000163"
    },
    {
        "type": "message",
        "user": "U12BB9E03",
        "text": "We now have the 9 people for the association and the bank account should be opened soon :simple_smile:. Yayyyyy!",
        "ts": "1461849225.000164"
    },
    {
        "type": "message",
        "user": "U128RR0EQ",
        "text": "You can obviously add Geraldine too",
        "ts": "1461849461.000165"
    },
    {
        "type": "message",
        "user": "U12BB9E03",
        "text": "hu ? I added her :open_mouth:",
        "ts": "1461849697.000166"
    },
    {
        "type": "message",
        "user": "U128RR0EQ",
        "text": ":+1: ",
        "ts": "1461849735.000167"
    }
]