[
    {
        "user": "U135C9RED",
        "type": "message",
        "subtype": "channel_join",
        "text": "<@U135C9RED|mecs3> has joined the channel",
        "ts": "1461408978.000150"
    },
    {
        "type": "message",
        "user": "U135C9RED",
        "text": "wow Tiago I have no idea how you still manage to9 be polite and deal with all of thi8s. this project is one of the most transparent and straight forward that i ever saw",
        "ts": "1461410033.000151"
    },
    {
        "type": "message",
        "user": "U135C9RED",
        "text": "on may side im so happy that with you guys things dont take forever to be done and discussed",
        "ts": "1461410118.000152",
        "reactions": [
            {
                "name": "+1",
                "users": [
                    "U12TVPB35"
                ],
                "count": 1
            }
        ]
    }
]