[
    {
        "type": "message",
        "user": "U129BTR18",
        "text": "land legal docs",
        "ts": "1463667990.000003"
    },
    {
        "type": "message",
        "subtype": "file_share",
        "text": "<@U129BTR18|tiagopita> uploaded a file: <https://veganhills.slack.com/files/tiagopita/F1A5YP7GT/caderneta_predial_art_5074.pdf|caderneta predial art 5074.pdf>",
        "file": {
            "id": "F1A5YP7GT",
            "created": 1463668009,
            "timestamp": 1463668009,
            "name": "caderneta predial art 5074.pdf",
            "title": "caderneta predial art 5074.pdf",
            "mimetype": "application/pdf",
            "filetype": "pdf",
            "pretty_type": "PDF",
            "user": "U129BTR18",
            "editable": false,
            "size": 41429,
            "mode": "hosted",
            "is_external": false,
            "external_type": "",
            "is_public": true,
            "public_url_shared": false,
            "display_as_bot": false,
            "username": "",
            "url_private": "https://files.slack.com/files-pri/T129BTQQ2-F1A5YP7GT/caderneta_predial_art_5074.pdf?t=xoxe-36317942818-50774082900-50794983538-94992aeae8",
            "url_private_download": "https://files.slack.com/files-pri/T129BTQQ2-F1A5YP7GT/download/caderneta_predial_art_5074.pdf?t=xoxe-36317942818-50774082900-50794983538-94992aeae8",
            "permalink": "https://veganhills.slack.com/files/tiagopita/F1A5YP7GT/caderneta_predial_art_5074.pdf",
            "permalink_public": "https://slack-files.com/T129BTQQ2-F1A5YP7GT-18232e064a",
            "channels": [
                "C12N7G56V"
            ],
            "groups": [
    
            ],
            "ims": [
    
            ],
            "comments_count": 0
        },
        "user": "U129BTR18",
        "upload": true,
        "display_as_bot": false,
        "username": "<@U129BTR18|tiagopita>",
        "bot_id": null,
        "ts": "1463668011.000004"
    },
    {
        "type": "message",
        "subtype": "file_share",
        "text": "<@U129BTR18|tiagopita> uploaded a file: <https://veganhills.slack.com/files/tiagopita/F1A5YQQV9/caderneta_predial_art_5075.pdf|caderneta predial art 5075.pdf>",
        "file": {
            "id": "F1A5YQQV9",
            "created": 1463668021,
            "timestamp": 1463668021,
            "name": "caderneta predial art 5075.pdf",
            "title": "caderneta predial art 5075.pdf",
            "mimetype": "application/pdf",
            "filetype": "pdf",
            "pretty_type": "PDF",
            "user": "U129BTR18",
            "editable": false,
            "size": 41442,
            "mode": "hosted",
            "is_external": false,
            "external_type": "",
            "is_public": true,
            "public_url_shared": false,
            "display_as_bot": false,
            "username": "",
            "url_private": "https://files.slack.com/files-pri/T129BTQQ2-F1A5YQQV9/caderneta_predial_art_5075.pdf?t=xoxe-36317942818-50774082900-50794983538-94992aeae8",
            "url_private_download": "https://files.slack.com/files-pri/T129BTQQ2-F1A5YQQV9/download/caderneta_predial_art_5075.pdf?t=xoxe-36317942818-50774082900-50794983538-94992aeae8",
            "permalink": "https://veganhills.slack.com/files/tiagopita/F1A5YQQV9/caderneta_predial_art_5075.pdf",
            "permalink_public": "https://slack-files.com/T129BTQQ2-F1A5YQQV9-4ad18731f3",
            "channels": [
                "C12N7G56V"
            ],
            "groups": [
    
            ],
            "ims": [
    
            ],
            "comments_count": 0
        },
        "user": "U129BTR18",
        "upload": true,
        "display_as_bot": false,
        "username": "<@U129BTR18|tiagopita>",
        "bot_id": null,
        "ts": "1463668030.000005"
    },
    {
        "type": "message",
        "subtype": "file_share",
        "text": "<@U129BTR18|tiagopita> uploaded a file: <https://veganhills.slack.com/files/tiagopita/F1A7QLDMY/caderneta_predial_rustica.pdf|caderneta predial rustica.pdf>",
        "file": {
            "id": "F1A7QLDMY",
            "created": 1463668031,
            "timestamp": 1463668031,
            "name": "caderneta predial rustica.pdf",
            "title": "caderneta predial rustica.pdf",
            "mimetype": "application/pdf",
            "filetype": "pdf",
            "pretty_type": "PDF",
            "user": "U129BTR18",
            "editable": false,
            "size": 43908,
            "mode": "hosted",
            "is_external": false,
            "external_type": "",
            "is_public": true,
            "public_url_shared": false,
            "display_as_bot": false,
            "username": "",
            "url_private": "https://files.slack.com/files-pri/T129BTQQ2-F1A7QLDMY/caderneta_predial_rustica.pdf?t=xoxe-36317942818-50774082900-50794983538-94992aeae8",
            "url_private_download": "https://files.slack.com/files-pri/T129BTQQ2-F1A7QLDMY/download/caderneta_predial_rustica.pdf?t=xoxe-36317942818-50774082900-50794983538-94992aeae8",
            "permalink": "https://veganhills.slack.com/files/tiagopita/F1A7QLDMY/caderneta_predial_rustica.pdf",
            "permalink_public": "https://slack-files.com/T129BTQQ2-F1A7QLDMY-bf617fbbce",
            "channels": [
                "C12N7G56V"
            ],
            "groups": [
    
            ],
            "ims": [
    
            ],
            "comments_count": 0
        },
        "user": "U129BTR18",
        "upload": true,
        "display_as_bot": false,
        "username": "<@U129BTR18|tiagopita>",
        "bot_id": null,
        "ts": "1463668032.000006"
    },
    {
        "type": "message",
        "subtype": "file_share",
        "text": "<@U129BTR18|tiagopita> uploaded a file: <https://veganhills.slack.com/files/tiagopita/F1A7345PE/certid__es.pdf|certid\u00f5es.pdf>",
        "file": {
            "id": "F1A7345PE",
            "created": 1463668036,
            "timestamp": 1463668036,
            "name": "certid\u00f5es.pdf",
            "title": "certid\u00f5es.pdf",
            "mimetype": "application/pdf",
            "filetype": "pdf",
            "pretty_type": "PDF",
            "user": "U129BTR18",
            "editable": false,
            "size": 187422,
            "mode": "hosted",
            "is_external": false,
            "external_type": "",
            "is_public": true,
            "public_url_shared": false,
            "display_as_bot": false,
            "username": "",
            "url_private": "https://files.slack.com/files-pri/T129BTQQ2-F1A7345PE/certid__es.pdf?t=xoxe-36317942818-50774082900-50794983538-94992aeae8",
            "url_private_download": "https://files.slack.com/files-pri/T129BTQQ2-F1A7345PE/download/certid__es.pdf?t=xoxe-36317942818-50774082900-50794983538-94992aeae8",
            "permalink": "https://veganhills.slack.com/files/tiagopita/F1A7345PE/certid__es.pdf",
            "permalink_public": "https://slack-files.com/T129BTQQ2-F1A7345PE-08b70555d4",
            "channels": [
                "C12N7G56V"
            ],
            "groups": [
    
            ],
            "ims": [
    
            ],
            "comments_count": 0
        },
        "user": "U129BTR18",
        "upload": true,
        "display_as_bot": false,
        "username": "<@U129BTR18|tiagopita>",
        "bot_id": null,
        "ts": "1463668039.000007"
    }
]