[
    {
        "user": "U13EXK1C5",
        "inviter": "U12BB9E03",
        "type": "message",
        "subtype": "channel_join",
        "text": "<@U13EXK1C5|anamoreira> has joined the channel",
        "ts": "1461778995.000156"
    },
    {
        "user": "U13NVKKS8",
        "inviter": "U12BB9E03",
        "type": "message",
        "subtype": "channel_join",
        "text": "<@U13NVKKS8|bartje> has joined the channel",
        "ts": "1461778995.000157"
    },
    {
        "user": "U13JUCX1S",
        "inviter": "U12BB9E03",
        "type": "message",
        "subtype": "channel_join",
        "text": "<@U13JUCX1S|sharonmelaffefon> has joined the channel",
        "ts": "1461778995.000158"
    },
    {
        "type": "message",
        "user": "U12BB9E03",
        "text": "For everyone wanted to get a NIF when in Portugal, I made a small document which might help: <https://docs.google.com/document/d/1Ul_O8vyCyfOSUJMMNTTbf6ZA2W906wHj8VAdxHWAoDE/edit?usp=sharing>",
        "ts": "1461784891.000159",
        "reactions": [
            {
                "name": "+1",
                "users": [
                    "U128RR0EQ",
                    "U12A47D9R",
                    "U12C86XK3"
                ],
                "count": 3
            }
        ]
    }
]