[
    {
        "type": "message",
        "user": "U12FDKCTU",
        "text": "Could someone please summarize all the at location requirements for the Vegan Hills residents. I understand for example that we need a tax account number. Is there anything else we need to do or sign? By when do we need to get these tasks done and how many days would it take? Thanks",
        "ts": "1462943628.000178"
    }
]