[
    {
        "user": "U129BTR18",
        "type": "message",
        "subtype": "channel_join",
        "text": "<@U129BTR18|tiagopita> has joined the channel",
        "ts": "1463147438.000002"
    },
    {
        "user": "U13EXK1C5",
        "inviter": "U129BTR18",
        "type": "message",
        "subtype": "channel_join",
        "text": "<@U13EXK1C5|anamoreira> has joined the channel",
        "ts": "1463147439.000003"
    },
    {
        "user": "U135C9RED",
        "inviter": "U129BTR18",
        "type": "message",
        "subtype": "channel_join",
        "text": "<@U135C9RED|mecs3> has joined the channel",
        "ts": "1463147440.000004"
    },
    {
        "user": "U12SWDXT3",
        "inviter": "U129BTR18",
        "type": "message",
        "subtype": "channel_join",
        "text": "<@U12SWDXT3|leaoleal> has joined the channel",
        "ts": "1463147440.000005"
    },
    {
        "user": "U186N8S49",
        "inviter": "U129BTR18",
        "type": "message",
        "subtype": "channel_join",
        "text": "<@U186N8S49|carinaalves> has joined the channel",
        "ts": "1463147440.000006"
    },
    {
        "user": "U12ADP23E",
        "inviter": "U129BTR18",
        "type": "message",
        "subtype": "channel_join",
        "text": "<@U12ADP23E|sector> has joined the channel",
        "ts": "1463147440.000007"
    },
    {
        "user": "U12AGRQ75",
        "inviter": "U129BTR18",
        "type": "message",
        "subtype": "channel_join",
        "text": "<@U12AGRQ75|avegan> has joined the channel",
        "ts": "1463147440.000008"
    },
    {
        "user": "U15L9NJMA",
        "inviter": "U129BTR18",
        "type": "message",
        "subtype": "channel_join",
        "text": "<@U15L9NJMA|henrique> has joined the channel",
        "ts": "1463147440.000009"
    },
    {
        "user": "U12LX3NTD",
        "inviter": "U129BTR18",
        "type": "message",
        "subtype": "channel_join",
        "text": "<@U12LX3NTD|nnsoares> has joined the channel",
        "ts": "1463147441.000010"
    },
    {
        "user": "U12A47D9R",
        "inviter": "U129BTR18",
        "type": "message",
        "subtype": "channel_join",
        "text": "<@U12A47D9R|joker> has joined the channel",
        "ts": "1463147441.000011"
    },
    {
        "type": "message",
        "user": "U129BTR18",
        "text": "Ola, canal em Portugues :simple_smile:",
        "ts": "1463147449.000012"
    },
    {
        "type": "message",
        "user": "U129BTR18",
        "text": "<!channel>:",
        "ts": "1463147481.000013"
    },
    {
        "type": "message",
        "user": "U12SWDXT3",
        "text": "Obrigada! :)",
        "ts": "1463150060.000014"
    },
    {
        "type": "message",
        "user": "U186N8S49",
        "text": "Ol\u00e1 a todos! :blush:",
        "ts": "1463150474.000015"
    },
    {
        "type": "message",
        "user": "U129BTR18",
        "text": "Ol\u00e1 querem fazer uma intruducao?",
        "ts": "1463152985.000016"
    }
]