[
    {
        "user": "U12A1M1Q8",
        "type": "message",
        "subtype": "channel_join",
        "text": "<@U12A1M1Q8|kati> has joined the channel",
        "ts": "1463517220.000002"
    },
    {
        "user": "U12BB9E03",
        "type": "message",
        "subtype": "channel_join",
        "text": "<@U12BB9E03|erwan.lr> has joined the channel",
        "ts": "1463523915.000002"
    },
    {
        "user": "U12BB9E03",
        "type": "message",
        "subtype": "channel_leave",
        "text": "<@U12BB9E03|erwan.lr> has left the channel",
        "ts": "1463523932.000003"
    }
]