[
    {
        "user": "U1BEP8Z4Y",
        "type": "message",
        "subtype": "channel_join",
        "text": "<@U1BEP8Z4Y|rafal_gudzinski> has joined the channel",
        "ts": "1464359628.000002"
    },
    {
        "type": "message",
        "user": "U1BEP8Z4Y",
        "text": "if there are volunteers wanting to help with work on the land, what are the conditions? What is the weekly costs of providing food for a volunteer?",
        "ts": "1464359755.000003"
    }
]