[
    {
        "user": "U129BTR18",
        "type": "message",
        "subtype": "channel_join",
        "text": "<@U129BTR18|tiagopita> has joined the channel",
        "ts": "1463939698.000002"
    },
    {
        "user": "U128RR0EQ",
        "inviter": "U129BTR18",
        "type": "message",
        "subtype": "channel_join",
        "text": "<@U128RR0EQ|canercandan> has joined the channel",
        "ts": "1463939699.000003"
    },
    {
        "user": "U186N8S49",
        "inviter": "U129BTR18",
        "type": "message",
        "subtype": "channel_join",
        "text": "<@U186N8S49|carinaalves> has joined the channel",
        "ts": "1463939699.000004"
    },
    {
        "user": "U13EXK1C5",
        "inviter": "U129BTR18",
        "type": "message",
        "subtype": "channel_join",
        "text": "<@U13EXK1C5|anamoreira> has joined the channel",
        "ts": "1463939699.000005"
    },
    {
        "user": "U13NVKKS8",
        "inviter": "U129BTR18",
        "type": "message",
        "subtype": "channel_join",
        "text": "<@U13NVKKS8|bartje> has joined the channel",
        "ts": "1463939699.000006"
    },
    {
        "user": "U12LBU64B",
        "inviter": "U129BTR18",
        "type": "message",
        "subtype": "channel_join",
        "text": "<@U12LBU64B|charlmon> has joined the channel",
        "ts": "1463939700.000007"
    },
    {
        "user": "U12DP676J",
        "inviter": "U129BTR18",
        "type": "message",
        "subtype": "channel_join",
        "text": "<@U12DP676J|daniel-roux> has joined the channel",
        "ts": "1463939700.000008"
    },
    {
        "user": "U135C9RED",
        "inviter": "U129BTR18",
        "type": "message",
        "subtype": "channel_join",
        "text": "<@U135C9RED|mecs3> has joined the channel",
        "ts": "1463939700.000009"
    },
    {
        "user": "U12SWDXT3",
        "inviter": "U129BTR18",
        "type": "message",
        "subtype": "channel_join",
        "text": "<@U12SWDXT3|leaoleal> has joined the channel",
        "ts": "1463939700.000010"
    },
    {
        "user": "U12BB9E03",
        "inviter": "U129BTR18",
        "type": "message",
        "subtype": "channel_join",
        "text": "<@U12BB9E03|erwan.lr> has joined the channel",
        "ts": "1463939700.000011"
    },
    {
        "user": "U12ADP23E",
        "inviter": "U129BTR18",
        "type": "message",
        "subtype": "channel_join",
        "text": "<@U12ADP23E|sector> has joined the channel",
        "ts": "1463939700.000012"
    },
    {
        "user": "U127R2T19",
        "inviter": "U129BTR18",
        "type": "message",
        "subtype": "channel_join",
        "text": "<@U127R2T19|geraldinestarke> has joined the channel",
        "ts": "1463939700.000013"
    },
    {
        "user": "U1729LJJY",
        "inviter": "U129BTR18",
        "type": "message",
        "subtype": "channel_join",
        "text": "<@U1729LJJY|glenmonks1> has joined the channel",
        "ts": "1463939701.000014"
    },
    {
        "user": "U15L9NJMA",
        "inviter": "U129BTR18",
        "type": "message",
        "subtype": "channel_join",
        "text": "<@U15L9NJMA|henrique> has joined the channel",
        "ts": "1463939701.000015"
    },
    {
        "user": "U12AAQ8K1",
        "inviter": "U129BTR18",
        "type": "message",
        "subtype": "channel_join",
        "text": "<@U12AAQ8K1|irmine-pema> has joined the channel",
        "ts": "1463939701.000016"
    },
    {
        "user": "U12C86XK3",
        "inviter": "U129BTR18",
        "type": "message",
        "subtype": "channel_join",
        "text": "<@U12C86XK3|ivoraf> has joined the channel",
        "ts": "1463939701.000017"
    },
    {
        "user": "U19CCLDRR",
        "inviter": "U129BTR18",
        "type": "message",
        "subtype": "channel_join",
        "text": "<@U19CCLDRR|jamie_h> has joined the channel",
        "ts": "1463939701.000018"
    },
    {
        "user": "U161R3DFE",
        "inviter": "U129BTR18",
        "type": "message",
        "subtype": "channel_join",
        "text": "<@U161R3DFE|jmac> has joined the channel",
        "ts": "1463939702.000019"
    },
    {
        "user": "U12FEFFB8",
        "inviter": "U129BTR18",
        "type": "message",
        "subtype": "channel_join",
        "text": "<@U12FEFFB8|felix2001> has joined the channel",
        "ts": "1463939702.000020"
    },
    {
        "user": "U14FF9U66",
        "inviter": "U129BTR18",
        "type": "message",
        "subtype": "channel_join",
        "text": "<@U14FF9U66|jeroenboss> has joined the channel",
        "ts": "1463939702.000021"
    },
    {
        "user": "U17TZS6AX",
        "inviter": "U129BTR18",
        "type": "message",
        "subtype": "channel_join",
        "text": "<@U17TZS6AX|kohann> has joined the channel",
        "ts": "1463939702.000022"
    },
    {
        "user": "U12A1M1Q8",
        "inviter": "U129BTR18",
        "type": "message",
        "subtype": "channel_join",
        "text": "<@U12A1M1Q8|kati> has joined the channel",
        "ts": "1463939702.000023"
    },
    {
        "user": "U129RSXGW",
        "inviter": "U129BTR18",
        "type": "message",
        "subtype": "channel_join",
        "text": "<@U129RSXGW|maggie67> has joined the channel",
        "ts": "1463939702.000024"
    },
    {
        "user": "U12FDKCTU",
        "inviter": "U129BTR18",
        "type": "message",
        "subtype": "channel_join",
        "text": "<@U12FDKCTU|mattias> has joined the channel",
        "ts": "1463939702.000025"
    },
    {
        "user": "U12A98M7U",
        "inviter": "U129BTR18",
        "type": "message",
        "subtype": "channel_join",
        "text": "<@U12A98M7U|melissa> has joined the channel",
        "ts": "1463939702.000026"
    },
    {
        "user": "U12NDBBUK",
        "inviter": "U129BTR18",
        "type": "message",
        "subtype": "channel_join",
        "text": "<@U12NDBBUK|naomi> has joined the channel",
        "ts": "1463939702.000027"
    },
    {
        "user": "U12LX3NTD",
        "inviter": "U129BTR18",
        "type": "message",
        "subtype": "channel_join",
        "text": "<@U12LX3NTD|nnsoares> has joined the channel",
        "ts": "1463939703.000028"
    },
    {
        "user": "U12A47D9R",
        "inviter": "U129BTR18",
        "type": "message",
        "subtype": "channel_join",
        "text": "<@U12A47D9R|joker> has joined the channel",
        "ts": "1463939703.000029"
    },
    {
        "user": "U12A8854L",
        "inviter": "U129BTR18",
        "type": "message",
        "subtype": "channel_join",
        "text": "<@U12A8854L|seanlall> has joined the channel",
        "ts": "1463939703.000030"
    },
    {
        "user": "U13JUCX1S",
        "inviter": "U129BTR18",
        "type": "message",
        "subtype": "channel_join",
        "text": "<@U13JUCX1S|sharonmelaffefon> has joined the channel",
        "ts": "1463939703.000031"
    },
    {
        "user": "U12TVPB35",
        "inviter": "U129BTR18",
        "type": "message",
        "subtype": "channel_join",
        "text": "<@U12TVPB35|simonav> has joined the channel",
        "ts": "1463939703.000032"
    },
    {
        "type": "message",
        "user": "U129BTR18",
        "text": "<!channel>: we need urgently to buy a digger",
        "ts": "1463939713.000033"
    },
    {
        "type": "message",
        "user": "U129BTR18",
        "text": "We need to build lakes and store the water before summer arrives",
        "ts": "1463939733.000034"
    },
    {
        "type": "message",
        "user": "U12NDBBUK",
        "text": "How much does is cost?",
        "ts": "1463939740.000035"
    },
    {
        "type": "message",
        "user": "U129BTR18",
        "text": "the machine will cost  between 3000 and 4000",
        "ts": "1463939751.000036"
    },
    {
        "type": "message",
        "user": "U129BTR18",
        "text": "if we find one",
        "ts": "1463939765.000037"
    },
    {
        "type": "message",
        "user": "U129BTR18",
        "text": "we could rent as well, but almost everyone will need it for their houses",
        "ts": "1463939781.000038"
    },
    {
        "type": "message",
        "user": "U129BTR18",
        "text": "so we will loose loads of money",
        "ts": "1463939787.000039"
    },
    {
        "type": "message",
        "user": "U129BTR18",
        "text": "Actually everyone will need it",
        "ts": "1463939802.000040"
    },
    {
        "type": "message",
        "user": "U12NDBBUK",
        "text": "Any idea of rent digger costs? ",
        "ts": "1463939855.000041"
    },
    {
        "type": "message",
        "user": "U129BTR18",
        "text": "150 per day",
        "ts": "1463939883.000042"
    },
    {
        "type": "message",
        "user": "U129BTR18",
        "text": "we could not find one for rent yet",
        "ts": "1463939902.000043"
    },
    {
        "type": "message",
        "user": "U129BTR18",
        "text": "normaly comes with a driver",
        "ts": "1463939908.000044"
    },
    {
        "type": "message",
        "user": "U129BTR18",
        "text": "that makes it even more",
        "ts": "1463939915.000045"
    },
    {
        "type": "message",
        "user": "U129BTR18",
        "text": "digger will be needed daily",
        "ts": "1463939925.000046"
    },
    {
        "type": "message",
        "user": "U12NDBBUK",
        "text": "Would it be helpful to have a driver?",
        "ts": "1463939935.000047"
    },
    {
        "type": "message",
        "user": "U12NDBBUK",
        "text": "Ok",
        "ts": "1463939951.000048"
    },
    {
        "type": "message",
        "user": "U12NDBBUK",
        "text": "If we can get one for 3000  maybe if 6 people can put in a share it's affordable?",
        "ts": "1463940003.000049"
    },
    {
        "type": "message",
        "user": "U129BTR18",
        "text": "the digger is for the benefit of everyone",
        "ts": "1463940027.000050"
    },
    {
        "type": "message",
        "user": "U12NDBBUK",
        "text": "I know just wondered how we can get it ",
        "ts": "1463942010.000051"
    },
    {
        "type": "message",
        "user": "U127R2T19",
        "text": "we could all invest a bit to raise the funds for it, I think it will be necessary to have one on the land",
        "ts": "1463944003.000052"
    },
    {
        "type": "message",
        "user": "U12TVPB35",
        "text": "if we can get a couple of prices to compare..2nd hand is an option?",
        "ts": "1463944754.000053"
    },
    {
        "type": "message",
        "user": "U14FF9U66",
        "text": "Would it be an option to let someone look at the one on the piece of land with the lakes?",
        "ts": "1463948624.000054"
    },
    {
        "type": "message",
        "user": "U14FF9U66",
        "text": "Would probably be necessay to get into contact with the owners though..",
        "ts": "1463948675.000055"
    },
    {
        "type": "message",
        "user": "U161R3DFE",
        "text": "Yes I think the cost will need to be shared. How many people have paid a deposit and have committed to the project? If everyone can manage to pay a little towards the cost then that would work.",
        "ts": "1463949706.000056"
    },
    {
        "type": "message",
        "user": "U12FDKCTU",
        "text": "Great if we could find a used one and then sell it once the 40 houses are completed.",
        "ts": "1463977845.000057"
    },
    {
        "type": "message",
        "user": "U12TVPB35",
        "text": "I have a proposal: since it s an \"essential\" item, consider paying it 50% with the money of the memberships and 50% with contributions...",
        "ts": "1463978826.000058"
    }
]