[
    {
        "type": "message",
        "user": "U1BB67R4Y",
        "text": "Thanks yes love to join,",
        "ts": "1464160422.000008"
    },
    {
        "type": "message",
        "user": "U1BB67R4Y",
        "text": "i dnt want to visit to sure that this is good for me or not visit just to meet u all and discuss",
        "ts": "1464160443.000009"
    },
    {
        "type": "message",
        "user": "U129BTR18",
        "text": "Hi Lalit, did you look online for a lawyer that can help?",
        "ts": "1464169284.000010"
    },
    {
        "type": "message",
        "user": "U129BTR18",
        "text": "I can help you?",
        "ts": "1464169288.000011"
    },
    {
        "type": "message",
        "user": "U129BTR18",
        "text": "Are you from GOA or Mumbai? if yes you have special visa rights because it was a Portuguese speaking area.",
        "ts": "1464169316.000012"
    },
    {
        "type": "message",
        "user": "U129BTR18",
        "text": "There is many people from India in Portugal I am sure they have online communities",
        "ts": "1464169354.000013"
    },
    {
        "type": "message",
        "user": "U1BB67R4Y",
        "text": "Hi Tiago, not now but i will if u want,but i know how to deal so no need to lawyer. Thanks yes u can help me i think. NO i am not from goa or mumbai, goa people have right to go portugal due to ancestory",
        "ts": "1464178308.000014"
    },
    {
        "type": "message",
        "user": "U1BB67R4Y",
        "text": "i think best is to get something letter or some way work permit cos portugal have so many without paying n then i come and after few time as i told u have start up so i can register that as self employed or entrepreneur",
        "ts": "1464178361.000015"
    },
    {
        "type": "message",
        "user": "U1BB67R4Y",
        "text": "we have options and last which is very easy but i dnt want that paper marrige but i still prefer if former thing success",
        "ts": "1464178392.000016"
    },
    {
        "type": "message",
        "user": "U1BB67R4Y",
        "text": "Au pair is another options",
        "ts": "1464178538.000017"
    },
    {
        "type": "message",
        "user": "U1BB67R4Y",
        "text": "BTW guys i created a channel <#C1BEE40KX> so if any one facing and issues and coming from Non EU then join we see possiblity",
        "ts": "1464178572.000018",
        "reactions": [
            {
                "name": "+1",
                "users": [
                    "U12ADP23E",
                    "U129BTR18"
                ],
                "count": 2
            }
        ]
    }
]