[
    {
        "user": "U135C9RED",
        "type": "message",
        "subtype": "channel_join",
        "text": "<@U135C9RED|mecs3> has joined the channel",
        "ts": "1461408962.000023"
    }
]